(module New_SplicePlate_Bottom (layer F.Cu) (tedit 5E865B7D)
  (fp_text reference REF** (at 0 -7.5) (layer F.SilkS)
    (effects (font (size 1 1) (thickness 0.15)))
  )
  (fp_text value New_SplicePlate_Bottom (at 0 -8.5) (layer F.Fab)
    (effects (font (size 1 1) (thickness 0.15)))
  )
  (fp_circle (center 0 -8) (end 1.7 -8) (layer F.SilkS) (width 0.15))
  (fp_circle (center 70 -8) (end 71.7 -8) (layer F.SilkS) (width 0.15))
  (fp_line (start -6 -14) (end 6 -14) (layer F.SilkS) (width 0.15))
  (fp_line (start -6 -14) (end -6 6) (layer F.SilkS) (width 0.15))
  (fp_line (start -6 6) (end 6 6) (layer F.SilkS) (width 0.15))
  (fp_line (start 6 -14) (end 6 -8) (layer F.SilkS) (width 0.15))
  (fp_line (start 6 0) (end 6 6) (layer F.SilkS) (width 0.15))
  (fp_line (start 64 -14) (end 76 -14) (layer F.SilkS) (width 0.15))
  (fp_line (start 64 -14) (end 64 -8) (layer F.SilkS) (width 0.15))
  (fp_line (start 76 -14) (end 76 6) (layer F.SilkS) (width 0.15))
  (fp_line (start 64 6) (end 76 6) (layer F.SilkS) (width 0.15))
  (fp_line (start 64 0) (end 64 6) (layer F.SilkS) (width 0.15))
  (fp_line (start 64 -8) (end 6 -8) (layer F.SilkS) (width 0.15))
  (fp_line (start 6 0) (end 64 0) (layer F.SilkS) (width 0.15))
  (fp_line (start -14.5 -4) (end -17.5 6) (layer F.SilkS) (width 0.15))
  (fp_line (start -15 1) (end -14 0) (layer F.SilkS) (width 0.3))
  (fp_line (start -15.5 -4) (end -18.5 6) (layer F.SilkS) (width 0.15))
  (fp_line (start -13.5 -4) (end -14.5 -0.5) (layer F.SilkS) (width 0.15))
  (fp_line (start -7.5 6) (end -6.5 2.5) (layer F.SilkS) (width 0.15))
  (fp_line (start -8.5 6) (end -7.5 2.5) (layer F.SilkS) (width 0.15))
  (fp_line (start -6 -2) (end -6.5 -0.5) (layer F.SilkS) (width 0.15))
  (fp_line (start -9.5 6) (end -8.5 2.5) (layer F.SilkS) (width 0.15))
  (fp_line (start -11.5 6) (end -10.5 2.5) (layer F.SilkS) (width 0.15))
  (fp_line (start -10.5 6) (end -9.5 2.5) (layer F.SilkS) (width 0.15))
  (fp_line (start -15.5 6) (end -14.5 2.5) (layer F.SilkS) (width 0.15))
  (fp_line (start -14.5 6) (end -13.5 2.5) (layer F.SilkS) (width 0.15))
  (fp_line (start -12.5 6) (end -11.5 2.5) (layer F.SilkS) (width 0.15))
  (fp_line (start -13.5 6) (end -12.5 2.5) (layer F.SilkS) (width 0.15))
  (fp_line (start -6.5 -4) (end -7.5 -0.5) (layer F.SilkS) (width 0.15))
  (fp_line (start -9.5 -4) (end -10.5 -0.5) (layer F.SilkS) (width 0.15))
  (fp_line (start -16.5 6) (end -15.5 2.5) (layer F.SilkS) (width 0.15))
  (fp_line (start -17.5 -4) (end -20.5 6) (layer F.SilkS) (width 0.15))
  (fp_line (start -22 6) (end -6 6) (layer F.SilkS) (width 0.15))
  (fp_line (start -20.5 -4) (end -22 1) (layer F.SilkS) (width 0.15))
  (fp_line (start -22 -4) (end -22 6) (layer F.SilkS) (width 0.15))
  (fp_line (start -6 1) (end -15 1) (layer F.SilkS) (width 0.3))
  (fp_line (start -21.5 6) (end -18.5 -4) (layer F.SilkS) (width 0.15))
  (fp_line (start -10.5 -4) (end -11.5 -0.5) (layer F.SilkS) (width 0.15))
  (fp_line (start -11.5 -4) (end -12.5 -0.5) (layer F.SilkS) (width 0.15))
  (fp_line (start -12.5 -4) (end -13.5 -0.5) (layer F.SilkS) (width 0.15))
  (fp_line (start -7.5 -4) (end -8.5 -0.5) (layer F.SilkS) (width 0.15))
  (fp_line (start -8.5 -4) (end -9.5 -0.5) (layer F.SilkS) (width 0.15))
  (fp_line (start -6 -2) (end -6 4) (layer F.SilkS) (width 0.15))
  (fp_line (start -6 -4) (end -22 -4) (layer F.SilkS) (width 0.15))
  (fp_line (start -22 4) (end -19.5 -4) (layer F.SilkS) (width 0.15))
  (fp_line (start -16.5 -4) (end -19.5 6) (layer F.SilkS) (width 0.15))
  (fp_line (start -15 1) (end -14 2) (layer F.SilkS) (width 0.3))
  (fp_line (start -6.5 6) (end -6 4.5) (layer F.SilkS) (width 0.15))
  (fp_line (start -21.5 -4) (end -22 -2.5) (layer F.SilkS) (width 0.15))
  (fp_line (start 58.5 6) (end 59.5 2.5) (layer F.SilkS) (width 0.15))
  (fp_line (start 55 1) (end 56 0) (layer F.SilkS) (width 0.3))
  (fp_line (start 56.5 -4) (end 55.5 -0.5) (layer F.SilkS) (width 0.15))
  (fp_line (start 61.5 6) (end 62.5 2.5) (layer F.SilkS) (width 0.15))
  (fp_line (start 64 -2) (end 63.5 -0.5) (layer F.SilkS) (width 0.15))
  (fp_line (start 56.5 6) (end 57.5 2.5) (layer F.SilkS) (width 0.15))
  (fp_line (start 63.5 -4) (end 62.5 -0.5) (layer F.SilkS) (width 0.15))
  (fp_line (start 60.5 -4) (end 59.5 -0.5) (layer F.SilkS) (width 0.15))
  (fp_line (start 53.5 6) (end 54.5 2.5) (layer F.SilkS) (width 0.15))
  (fp_line (start 52.5 -4) (end 49.5 6) (layer F.SilkS) (width 0.15))
  (fp_line (start 48 6) (end 64 6) (layer F.SilkS) (width 0.15))
  (fp_line (start 49.5 -4) (end 48 1) (layer F.SilkS) (width 0.15))
  (fp_line (start 59.5 6) (end 60.5 2.5) (layer F.SilkS) (width 0.15))
  (fp_line (start 54.5 6) (end 55.5 2.5) (layer F.SilkS) (width 0.15))
  (fp_line (start 55.5 6) (end 56.5 2.5) (layer F.SilkS) (width 0.15))
  (fp_line (start 57.5 6) (end 58.5 2.5) (layer F.SilkS) (width 0.15))
  (fp_line (start 60.5 6) (end 61.5 2.5) (layer F.SilkS) (width 0.15))
  (fp_line (start 54.5 -4) (end 51.5 6) (layer F.SilkS) (width 0.15))
  (fp_line (start 62.5 6) (end 63.5 2.5) (layer F.SilkS) (width 0.15))
  (fp_line (start 48 4) (end 50.5 -4) (layer F.SilkS) (width 0.15))
  (fp_line (start 53.5 -4) (end 50.5 6) (layer F.SilkS) (width 0.15))
  (fp_line (start 55 1) (end 56 2) (layer F.SilkS) (width 0.3))
  (fp_line (start 63.5 6) (end 64 4.5) (layer F.SilkS) (width 0.15))
  (fp_line (start 48.5 -4) (end 48 -2.5) (layer F.SilkS) (width 0.15))
  (fp_line (start 55.5 -4) (end 52.5 6) (layer F.SilkS) (width 0.15))
  (fp_line (start 48 -4) (end 48 6) (layer F.SilkS) (width 0.15))
  (fp_line (start 64 1) (end 55 1) (layer F.SilkS) (width 0.3))
  (fp_line (start 48.5 6) (end 51.5 -4) (layer F.SilkS) (width 0.15))
  (fp_line (start 59.5 -4) (end 58.5 -0.5) (layer F.SilkS) (width 0.15))
  (fp_line (start 58.5 -4) (end 57.5 -0.5) (layer F.SilkS) (width 0.15))
  (fp_line (start 57.5 -4) (end 56.5 -0.5) (layer F.SilkS) (width 0.15))
  (fp_line (start 62.5 -4) (end 61.5 -0.5) (layer F.SilkS) (width 0.15))
  (fp_line (start 61.5 -4) (end 60.5 -0.5) (layer F.SilkS) (width 0.15))
  (fp_line (start 64 0) (end 64 -4) (layer F.SilkS) (width 0.15))
  (fp_line (start 64 -4) (end 48 -4) (layer F.SilkS) (width 0.15))
  (pad "" np_thru_hole circle (at 0 0) (size 3.4 3.4) (drill 3.4) (layers *.Cu *.Mask))
  (pad "" np_thru_hole circle (at 70 0) (size 3.4 3.4) (drill 3.4) (layers *.Cu *.Mask))
  (model ${KIPRJMOD}/mod/CommandModule.pretty/mod_3D/New_splice_plate.stp
    (offset (xyz 69 -13.15 -4.5))
    (scale (xyz 1 1 1))
    (rotate (xyz -90 0 90))
  )
)
