(module NewSplicePlate (layer F.Cu) (tedit 5E865435)
  (fp_text reference REF** (at 0 0.5) (layer F.SilkS)
    (effects (font (size 1 1) (thickness 0.15)))
  )
  (fp_text value NewSplicePlate (at 0 -0.5) (layer F.Fab)
    (effects (font (size 1 1) (thickness 0.15)))
  )
  (fp_circle (center 0 8) (end 1.7 8) (layer F.SilkS) (width 0.15))
  (fp_circle (center 70 8) (end 71.7 8) (layer F.SilkS) (width 0.15))
  (fp_line (start -6 -6) (end 6 -6) (layer F.SilkS) (width 0.15))
  (fp_line (start -6 -6) (end -6 14) (layer F.SilkS) (width 0.15))
  (fp_line (start -6 14) (end 6 14) (layer F.SilkS) (width 0.15))
  (fp_line (start 6 -6) (end 6 0) (layer F.SilkS) (width 0.15))
  (fp_line (start 6 8) (end 6 14) (layer F.SilkS) (width 0.15))
  (fp_line (start 64 -6) (end 76 -6) (layer F.SilkS) (width 0.15))
  (fp_line (start 64 -6) (end 64 0) (layer F.SilkS) (width 0.15))
  (fp_line (start 76 -6) (end 76 14) (layer F.SilkS) (width 0.15))
  (fp_line (start 64 14) (end 76 14) (layer F.SilkS) (width 0.15))
  (fp_line (start 64 8) (end 64 14) (layer F.SilkS) (width 0.15))
  (fp_line (start 64 0) (end 6 0) (layer F.SilkS) (width 0.15))
  (fp_line (start 6 8) (end 64 8) (layer F.SilkS) (width 0.15))
  (pad "" np_thru_hole circle (at 0 0) (size 3.4 3.4) (drill 3.4) (layers *.Cu *.Mask))
  (pad "" np_thru_hole circle (at 70 0) (size 3.4 3.4) (drill 3.4) (layers *.Cu *.Mask))
  (model ${KIPRJMOD}/mod/CommandModule.pretty/mod_3D/New_splice_plate.stp
    (offset (xyz 69 -21.15 -4.5))
    (scale (xyz 1 1 1))
    (rotate (xyz -90 0 90))
  )
)
