(module SOIC127P600X175-8N (layer F.Cu) (tedit 5E909E35)
  (fp_text reference REF** (at 0.53367 -4.42181) (layer F.SilkS)
    (effects (font (size 1.640819 1.640819) (thickness 0.015)))
  )
  (fp_text value SOIC127P600X175-8N (at 13.0362 4.201115) (layer F.Fab)
    (effects (font (size 1.643961 1.643961) (thickness 0.015)))
  )
  (fp_line (start -2.0066 -0.381) (end -2.0066 -0.889) (layer F.Fab) (width 0.1524))
  (fp_line (start -2.0066 0.889) (end -2.0066 0.381) (layer F.Fab) (width 0.1524))
  (fp_line (start 2.0066 0.381) (end 2.0066 0.889) (layer F.Fab) (width 0.1524))
  (fp_line (start 2.0066 -0.889) (end 2.0066 -0.381) (layer F.Fab) (width 0.1524))
  (fp_line (start -2.0066 1.55) (end 2.0066 1.55) (layer F.Fab) (width 0.1524))
  (fp_line (start 2.0066 1.55) (end 2.0066 -1.55) (layer F.Fab) (width 0.1524))
  (fp_line (start 2.0066 -1.55) (end 0.3048 -1.55) (layer F.Fab) (width 0.1524))
  (fp_line (start 0.3048 -1.55) (end -0.3048 -1.55) (layer F.Fab) (width 0.1524))
  (fp_line (start -0.3048 -1.55) (end -2.0066 -1.55) (layer F.Fab) (width 0.1524))
  (fp_line (start -2.0066 -1.55) (end -2.0066 1.55) (layer F.Fab) (width 0.1524))
  (fp_arc (start 0 -1.55) (end -0.3048 -1.55) (angle -180) (layer F.Fab) (width 0.1))
  (fp_line (start -1.3716 1.55) (end 1.3716 1.55) (layer F.SilkS) (width 0.1524))
  (fp_line (start 1.3716 -1.55) (end 0.3048 -1.55) (layer F.SilkS) (width 0.1524))
  (fp_line (start 0.3048 -1.55) (end -0.3048 -1.55) (layer F.SilkS) (width 0.1524))
  (fp_line (start -0.3048 -1.55) (end -1.3716 -1.55) (layer F.SilkS) (width 0.1524))
  (fp_arc (start 0 -1.55) (end -0.3048 -1.55) (angle -180) (layer F.SilkS) (width 0.1))
  (pad 1 smd rect (at -2.2 -0.975) (size 1.45 0.45) (layers F.Cu F.Paste F.Mask))
  (pad 2 smd rect (at -2.2 -0.325) (size 1.45 0.45) (layers F.Cu F.Paste F.Mask))
  (pad 3 smd rect (at -2.2 0.325) (size 1.45 0.45) (layers F.Cu F.Paste F.Mask))
  (pad 4 smd rect (at -2.2 0.975) (size 1.45 0.45) (layers F.Cu F.Paste F.Mask))
  (pad 5 smd rect (at 2.2 0.975) (size 1.45 0.45) (layers F.Cu F.Paste F.Mask))
  (pad 6 smd rect (at 2.2 0.325) (size 1.45 0.45) (layers F.Cu F.Paste F.Mask))
  (pad 7 smd rect (at 2.2 -0.325) (size 1.45 0.45) (layers F.Cu F.Paste F.Mask))
  (pad 8 smd rect (at 2.2 -0.975) (size 1.45 0.45) (layers F.Cu F.Paste F.Mask))
  (model ${KIPRJMOD}/mod/SN65LVDS100DGKR.pretty/mod_3D/OPA2376AIDGKR--3DModel-STEP-56544.STEP
    (offset (xyz 0 0 0.5))
    (scale (xyz 1 1 1))
    (rotate (xyz -90 0 90))
  )
)
