(kicad_sch
	(version 20231120)
	(generator "eeschema")
	(generator_version "8.0")
	(uuid "1974dca5-d31c-4feb-a56c-3540d836dffc")
	(paper "A4")
	(lib_symbols
		(symbol "active:EM6K6T2R"
			(pin_names
				(offset 1.016)
			)
			(exclude_from_sim no)
			(in_bom yes)
			(on_board yes)
			(property "Reference" "U"
				(at -6.35 -10.16 0)
				(effects
					(font
						(size 1.27 1.27)
					)
				)
			)
			(property "Value" "EM6K6T2R"
				(at -6.35 -10.16 0)
				(effects
					(font
						(size 1.27 1.27)
					)
				)
			)
			(property "Footprint" ""
				(at -6.35 -10.16 0)
				(effects
					(font
						(size 1.27 1.27)
					)
					(hide yes)
				)
			)
			(property "Datasheet" ""
				(at -6.35 -10.16 0)
				(effects
					(font
						(size 1.27 1.27)
					)
					(hide yes)
				)
			)
			(property "Description" ""
				(at 0 0 0)
				(effects
					(font
						(size 1.27 1.27)
					)
					(hide yes)
				)
			)
			(symbol "EM6K6T2R_0_1"
				(polyline
					(pts
						(xy -0.0254 -3.1242) (xy -0.1524 -3.1242)
					)
					(stroke
						(width 0)
						(type solid)
					)
					(fill
						(type none)
					)
				)
				(polyline
					(pts
						(xy -0.0254 -2.1082) (xy 0.1016 -2.1082)
					)
					(stroke
						(width 0)
						(type solid)
					)
					(fill
						(type none)
					)
				)
				(polyline
					(pts
						(xy 0.6604 -2.5908) (xy 1.27 -2.5908)
					)
					(stroke
						(width 0)
						(type solid)
					)
					(fill
						(type none)
					)
				)
				(polyline
					(pts
						(xy -0.6604 -2.5908) (xy -1.9812 -2.5908) (xy -1.9812 -1.27)
					)
					(stroke
						(width 0)
						(type solid)
					)
					(fill
						(type none)
					)
				)
			)
			(symbol "EM6K6T2R_1_0"
				(text "D"
					(at 2.54 3.175 0)
					(effects
						(font
							(size 0.635 0.635)
						)
					)
				)
				(text "S"
					(at 2.54 -3.175 0)
					(effects
						(font
							(size 0.635 0.635)
						)
					)
				)
			)
			(symbol "EM6K6T2R_1_1"
				(polyline
					(pts
						(xy -3.81 -1.27) (xy -1.016 -1.27)
					)
					(stroke
						(width 0)
						(type solid)
					)
					(fill
						(type none)
					)
				)
				(polyline
					(pts
						(xy -0.508 -1.397) (xy 1.27 -1.397)
					)
					(stroke
						(width 0)
						(type solid)
					)
					(fill
						(type none)
					)
				)
				(polyline
					(pts
						(xy -0.508 -0.889) (xy -0.508 -1.905)
					)
					(stroke
						(width 0.254)
						(type solid)
					)
					(fill
						(type none)
					)
				)
				(polyline
					(pts
						(xy -0.508 0.381) (xy 1.27 0.381)
					)
					(stroke
						(width 0)
						(type solid)
					)
					(fill
						(type none)
					)
				)
				(polyline
					(pts
						(xy -0.508 0.889) (xy -0.508 -0.127)
					)
					(stroke
						(width 0.254)
						(type solid)
					)
					(fill
						(type none)
					)
				)
				(polyline
					(pts
						(xy -0.508 2.159) (xy 1.27 2.159)
					)
					(stroke
						(width 0)
						(type solid)
					)
					(fill
						(type none)
					)
				)
				(polyline
					(pts
						(xy -0.508 2.667) (xy -0.508 1.651)
					)
					(stroke
						(width 0.254)
						(type solid)
					)
					(fill
						(type none)
					)
				)
				(polyline
					(pts
						(xy 1.27 -1.397) (xy 1.27 -2.54)
					)
					(stroke
						(width 0)
						(type solid)
					)
					(fill
						(type none)
					)
				)
				(polyline
					(pts
						(xy 1.27 -1.397) (xy 1.27 0.381)
					)
					(stroke
						(width 0)
						(type solid)
					)
					(fill
						(type none)
					)
				)
				(polyline
					(pts
						(xy 1.27 2.921) (xy 1.27 2.159)
					)
					(stroke
						(width 0)
						(type solid)
					)
					(fill
						(type none)
					)
				)
				(polyline
					(pts
						(xy -1.016 2.286) (xy -1.016 -1.524) (xy -1.016 -1.524)
					)
					(stroke
						(width 0.254)
						(type solid)
					)
					(fill
						(type none)
					)
				)
				(polyline
					(pts
						(xy -0.254 0.381) (xy 0.762 0.762) (xy 0.762 0) (xy -0.254 0.381)
					)
					(stroke
						(width 0)
						(type solid)
					)
					(fill
						(type outline)
					)
				)
				(polyline
					(pts
						(xy -0.0254 -3.1242) (xy -0.0254 -2.9972) (xy -0.0254 -2.2352) (xy -0.0254 -2.1082)
					)
					(stroke
						(width 0)
						(type solid)
					)
					(fill
						(type none)
					)
				)
				(polyline
					(pts
						(xy -0.0254 -2.6162) (xy -0.6604 -2.9972) (xy -0.6604 -2.2352) (xy -0.0254 -2.6162)
					)
					(stroke
						(width 0)
						(type solid)
					)
					(fill
						(type none)
					)
				)
				(polyline
					(pts
						(xy -0.0254 -2.6162) (xy 0.6096 -2.9972) (xy 0.6096 -2.2352) (xy -0.0254 -2.6162)
					)
					(stroke
						(width 0)
						(type solid)
					)
					(fill
						(type none)
					)
				)
				(polyline
					(pts
						(xy 1.27 -1.397) (xy 2.032 -1.397) (xy 2.032 2.159) (xy 1.27 2.159)
					)
					(stroke
						(width 0)
						(type solid)
					)
					(fill
						(type none)
					)
				)
				(polyline
					(pts
						(xy 1.524 0.762) (xy 1.651 0.762) (xy 2.413 0.762) (xy 2.54 0.762)
					)
					(stroke
						(width 0)
						(type solid)
					)
					(fill
						(type none)
					)
				)
				(polyline
					(pts
						(xy 2.032 0.762) (xy 1.651 0.127) (xy 2.413 0.127) (xy 2.032 0.762)
					)
					(stroke
						(width 0)
						(type solid)
					)
					(fill
						(type none)
					)
				)
				(circle
					(center 1.27 -1.397)
					(radius 0.2794)
					(stroke
						(width 0)
						(type solid)
					)
					(fill
						(type outline)
					)
				)
				(circle
					(center 1.27 2.159)
					(radius 0.2794)
					(stroke
						(width 0)
						(type solid)
					)
					(fill
						(type outline)
					)
				)
				(pin passive line
					(at 1.27 -5.08 90)
					(length 2.54)
					(name "~"
						(effects
							(font
								(size 1.27 1.27)
							)
						)
					)
					(number "1"
						(effects
							(font
								(size 1.27 1.27)
							)
						)
					)
				)
				(pin input line
					(at -6.35 -1.27 0)
					(length 2.54)
					(name "~"
						(effects
							(font
								(size 1.27 1.27)
							)
						)
					)
					(number "2"
						(effects
							(font
								(size 1.27 1.27)
							)
						)
					)
				)
				(pin passive line
					(at 1.27 5.08 270)
					(length 2.54)
					(name "~"
						(effects
							(font
								(size 1.27 1.27)
							)
						)
					)
					(number "6"
						(effects
							(font
								(size 1.27 1.27)
							)
						)
					)
				)
			)
			(symbol "EM6K6T2R_2_0"
				(text "D"
					(at 2.54 3.175 0)
					(effects
						(font
							(size 0.635 0.635)
						)
					)
				)
				(text "S"
					(at 2.54 -3.175 0)
					(effects
						(font
							(size 0.635 0.635)
						)
					)
				)
			)
			(symbol "EM6K6T2R_2_1"
				(polyline
					(pts
						(xy -3.81 -1.27) (xy -1.016 -1.27)
					)
					(stroke
						(width 0)
						(type solid)
					)
					(fill
						(type none)
					)
				)
				(polyline
					(pts
						(xy -0.508 -1.397) (xy 1.27 -1.397)
					)
					(stroke
						(width 0)
						(type solid)
					)
					(fill
						(type none)
					)
				)
				(polyline
					(pts
						(xy -0.508 -0.889) (xy -0.508 -1.905)
					)
					(stroke
						(width 0.254)
						(type solid)
					)
					(fill
						(type none)
					)
				)
				(polyline
					(pts
						(xy -0.508 0.381) (xy 1.27 0.381)
					)
					(stroke
						(width 0)
						(type solid)
					)
					(fill
						(type none)
					)
				)
				(polyline
					(pts
						(xy -0.508 0.889) (xy -0.508 -0.127)
					)
					(stroke
						(width 0.254)
						(type solid)
					)
					(fill
						(type none)
					)
				)
				(polyline
					(pts
						(xy -0.508 2.159) (xy 1.27 2.159)
					)
					(stroke
						(width 0)
						(type solid)
					)
					(fill
						(type none)
					)
				)
				(polyline
					(pts
						(xy -0.508 2.667) (xy -0.508 1.651)
					)
					(stroke
						(width 0.254)
						(type solid)
					)
					(fill
						(type none)
					)
				)
				(polyline
					(pts
						(xy 1.27 -1.397) (xy 1.27 -2.54)
					)
					(stroke
						(width 0)
						(type solid)
					)
					(fill
						(type none)
					)
				)
				(polyline
					(pts
						(xy 1.27 -1.397) (xy 1.27 0.381)
					)
					(stroke
						(width 0)
						(type solid)
					)
					(fill
						(type none)
					)
				)
				(polyline
					(pts
						(xy 1.27 2.921) (xy 1.27 2.159)
					)
					(stroke
						(width 0)
						(type solid)
					)
					(fill
						(type none)
					)
				)
				(polyline
					(pts
						(xy -1.016 2.286) (xy -1.016 -1.524) (xy -1.016 -1.524)
					)
					(stroke
						(width 0.254)
						(type solid)
					)
					(fill
						(type none)
					)
				)
				(polyline
					(pts
						(xy -0.254 0.381) (xy 0.762 0.762) (xy 0.762 0) (xy -0.254 0.381)
					)
					(stroke
						(width 0)
						(type solid)
					)
					(fill
						(type outline)
					)
				)
				(polyline
					(pts
						(xy -0.0254 -3.1242) (xy -0.0254 -2.9972) (xy -0.0254 -2.2352) (xy -0.0254 -2.1082)
					)
					(stroke
						(width 0)
						(type solid)
					)
					(fill
						(type none)
					)
				)
				(polyline
					(pts
						(xy -0.0254 -2.6162) (xy -0.6604 -2.9972) (xy -0.6604 -2.2352) (xy -0.0254 -2.6162)
					)
					(stroke
						(width 0)
						(type solid)
					)
					(fill
						(type none)
					)
				)
				(polyline
					(pts
						(xy -0.0254 -2.6162) (xy 0.6096 -2.9972) (xy 0.6096 -2.2352) (xy -0.0254 -2.6162)
					)
					(stroke
						(width 0)
						(type solid)
					)
					(fill
						(type none)
					)
				)
				(polyline
					(pts
						(xy 1.27 -1.397) (xy 2.032 -1.397) (xy 2.032 2.159) (xy 1.27 2.159)
					)
					(stroke
						(width 0)
						(type solid)
					)
					(fill
						(type none)
					)
				)
				(polyline
					(pts
						(xy 1.524 0.762) (xy 1.651 0.762) (xy 2.413 0.762) (xy 2.54 0.762)
					)
					(stroke
						(width 0)
						(type solid)
					)
					(fill
						(type none)
					)
				)
				(polyline
					(pts
						(xy 2.032 0.762) (xy 1.651 0.127) (xy 2.413 0.127) (xy 2.032 0.762)
					)
					(stroke
						(width 0)
						(type solid)
					)
					(fill
						(type none)
					)
				)
				(circle
					(center 1.27 -1.397)
					(radius 0.2794)
					(stroke
						(width 0)
						(type solid)
					)
					(fill
						(type outline)
					)
				)
				(circle
					(center 1.27 2.159)
					(radius 0.2794)
					(stroke
						(width 0)
						(type solid)
					)
					(fill
						(type outline)
					)
				)
				(pin passive line
					(at 1.27 5.08 270)
					(length 2.54)
					(name "~"
						(effects
							(font
								(size 1.27 1.27)
							)
						)
					)
					(number "3"
						(effects
							(font
								(size 1.27 1.27)
							)
						)
					)
				)
				(pin passive line
					(at 1.27 -5.08 90)
					(length 2.54)
					(name "~"
						(effects
							(font
								(size 1.27 1.27)
							)
						)
					)
					(number "4"
						(effects
							(font
								(size 1.27 1.27)
							)
						)
					)
				)
				(pin input line
					(at -6.35 -1.27 0)
					(length 2.54)
					(name "~"
						(effects
							(font
								(size 1.27 1.27)
							)
						)
					)
					(number "5"
						(effects
							(font
								(size 1.27 1.27)
							)
						)
					)
				)
			)
		)
		(symbol "active:SI3401A-TP"
			(pin_names
				(offset 1.016)
			)
			(exclude_from_sim no)
			(in_bom yes)
			(on_board yes)
			(property "Reference" "Q"
				(at 15.24 -15.24 0)
				(effects
					(font
						(size 1.27 1.27)
					)
				)
			)
			(property "Value" "SI3401A-TP"
				(at -13.97 -13.97 0)
				(effects
					(font
						(size 1.27 1.27)
					)
				)
			)
			(property "Footprint" ""
				(at -6.35 -10.16 0)
				(effects
					(font
						(size 1.27 1.27)
					)
					(hide yes)
				)
			)
			(property "Datasheet" ""
				(at -6.35 -10.16 0)
				(effects
					(font
						(size 1.27 1.27)
					)
					(hide yes)
				)
			)
			(property "Description" ""
				(at 0 0 0)
				(effects
					(font
						(size 1.27 1.27)
					)
					(hide yes)
				)
			)
			(symbol "SI3401A-TP_0_0"
				(text "D"
					(at 3.81 3.175 0)
					(effects
						(font
							(size 0.635 0.635)
						)
					)
				)
				(text "S"
					(at 3.81 -3.175 0)
					(effects
						(font
							(size 0.635 0.635)
						)
					)
				)
			)
			(symbol "SI3401A-TP_1_1"
				(polyline
					(pts
						(xy -2.54 -1.27) (xy 0.254 -1.27)
					)
					(stroke
						(width 0)
						(type solid)
					)
					(fill
						(type none)
					)
				)
				(polyline
					(pts
						(xy 0.762 -2.032) (xy 0.762 -1.016)
					)
					(stroke
						(width 0.254)
						(type solid)
					)
					(fill
						(type none)
					)
				)
				(polyline
					(pts
						(xy 0.762 -1.524) (xy 2.54 -1.524)
					)
					(stroke
						(width 0)
						(type solid)
					)
					(fill
						(type none)
					)
				)
				(polyline
					(pts
						(xy 0.762 -0.254) (xy 0.762 0.762)
					)
					(stroke
						(width 0.254)
						(type solid)
					)
					(fill
						(type none)
					)
				)
				(polyline
					(pts
						(xy 0.762 1.524) (xy 0.762 2.54)
					)
					(stroke
						(width 0.254)
						(type solid)
					)
					(fill
						(type none)
					)
				)
				(polyline
					(pts
						(xy 0.762 2.032) (xy 2.54 2.032)
					)
					(stroke
						(width 0)
						(type solid)
					)
					(fill
						(type none)
					)
				)
				(polyline
					(pts
						(xy 1.27 0.254) (xy 2.54 0.254)
					)
					(stroke
						(width 0)
						(type solid)
					)
					(fill
						(type none)
					)
				)
				(polyline
					(pts
						(xy 2.54 -1.27) (xy 2.54 -3.81)
					)
					(stroke
						(width 0)
						(type solid)
					)
					(fill
						(type none)
					)
				)
				(polyline
					(pts
						(xy 2.54 0.254) (xy 2.54 -1.778)
					)
					(stroke
						(width 0)
						(type solid)
					)
					(fill
						(type none)
					)
				)
				(polyline
					(pts
						(xy 2.54 2.032) (xy 2.54 3.175)
					)
					(stroke
						(width 0)
						(type solid)
					)
					(fill
						(type none)
					)
				)
				(polyline
					(pts
						(xy 0.254 -1.651) (xy 0.254 2.159) (xy 0.254 2.159)
					)
					(stroke
						(width 0.254)
						(type solid)
					)
					(fill
						(type none)
					)
				)
				(polyline
					(pts
						(xy 2.159 0.254) (xy 1.143 0.635) (xy 1.143 -0.127) (xy 2.159 0.254)
					)
					(stroke
						(width 0)
						(type solid)
					)
					(fill
						(type outline)
					)
				)
				(polyline
					(pts
						(xy 2.54 2.032) (xy 3.302 2.032) (xy 3.302 -1.524) (xy 2.54 -1.524)
					)
					(stroke
						(width 0)
						(type solid)
					)
					(fill
						(type none)
					)
				)
				(polyline
					(pts
						(xy 2.794 -0.127) (xy 2.921 -0.127) (xy 3.683 -0.127) (xy 3.81 -0.127)
					)
					(stroke
						(width 0)
						(type solid)
					)
					(fill
						(type none)
					)
				)
				(polyline
					(pts
						(xy 3.302 -0.127) (xy 2.921 0.508) (xy 3.683 0.508) (xy 3.302 -0.127)
					)
					(stroke
						(width 0)
						(type solid)
					)
					(fill
						(type none)
					)
				)
				(circle
					(center 2.54 -1.524)
					(radius 0.2794)
					(stroke
						(width 0)
						(type solid)
					)
					(fill
						(type outline)
					)
				)
				(circle
					(center 2.54 2.032)
					(radius 0.2794)
					(stroke
						(width 0)
						(type solid)
					)
					(fill
						(type outline)
					)
				)
				(pin input line
					(at -5.08 -1.27 0)
					(length 2.54)
					(name "~"
						(effects
							(font
								(size 1.27 1.27)
							)
						)
					)
					(number "1"
						(effects
							(font
								(size 1.27 1.27)
							)
						)
					)
				)
				(pin passive line
					(at 2.54 -5.08 90)
					(length 2.54)
					(name "~"
						(effects
							(font
								(size 1.27 1.27)
							)
						)
					)
					(number "2"
						(effects
							(font
								(size 1.27 1.27)
							)
						)
					)
				)
				(pin passive line
					(at 2.54 5.08 270)
					(length 2.54)
					(name "~"
						(effects
							(font
								(size 1.27 1.27)
							)
						)
					)
					(number "3"
						(effects
							(font
								(size 1.27 1.27)
							)
						)
					)
				)
			)
		)
		(symbol "passives:C"
			(pin_names
				(offset 0.254)
			)
			(exclude_from_sim no)
			(in_bom yes)
			(on_board yes)
			(property "Reference" "C"
				(at 2.54 5.08 90)
				(effects
					(font
						(size 1.27 1.27)
					)
				)
			)
			(property "Value" "C"
				(at 2.54 -2.54 90)
				(effects
					(font
						(size 1.27 1.27)
					)
				)
			)
			(property "Footprint" ""
				(at 0 1.27 0)
				(effects
					(font
						(size 1.27 1.27)
					)
					(hide yes)
				)
			)
			(property "Datasheet" ""
				(at 0 1.27 0)
				(effects
					(font
						(size 1.27 1.27)
					)
					(hide yes)
				)
			)
			(property "Description" ""
				(at 0 0 0)
				(effects
					(font
						(size 1.27 1.27)
					)
					(hide yes)
				)
			)
			(symbol "C_0_1"
				(polyline
					(pts
						(xy -1.905 -0.635) (xy 1.905 -0.635)
					)
					(stroke
						(width 0)
						(type solid)
					)
					(fill
						(type none)
					)
				)
				(polyline
					(pts
						(xy -1.905 0.635) (xy 1.905 0.635)
					)
					(stroke
						(width 0)
						(type solid)
					)
					(fill
						(type none)
					)
				)
			)
			(symbol "C_1_1"
				(pin passive line
					(at 0 3.81 270)
					(length 3.175)
					(name "~"
						(effects
							(font
								(size 1.016 1.016)
							)
						)
					)
					(number "1"
						(effects
							(font
								(size 0.254 0.254)
							)
						)
					)
				)
				(pin passive line
					(at 0 -3.81 90)
					(length 3.175)
					(name "~"
						(effects
							(font
								(size 1.016 1.016)
							)
						)
					)
					(number "2"
						(effects
							(font
								(size 0.254 0.254)
							)
						)
					)
				)
			)
		)
		(symbol "passives:INDUCTOR"
			(pin_numbers hide)
			(pin_names
				(offset 0)
			)
			(exclude_from_sim no)
			(in_bom yes)
			(on_board yes)
			(property "Reference" "L"
				(at 0 2.54 0)
				(effects
					(font
						(size 1.27 1.27)
					)
				)
			)
			(property "Value" "INDUCTOR"
				(at 0 -1.27 0)
				(effects
					(font
						(size 1.27 1.27)
					)
				)
			)
			(property "Footprint" ""
				(at 0 0 0)
				(effects
					(font
						(size 1.27 1.27)
					)
					(hide yes)
				)
			)
			(property "Datasheet" ""
				(at 0 0 0)
				(effects
					(font
						(size 1.27 1.27)
					)
					(hide yes)
				)
			)
			(property "Description" ""
				(at 0 0 0)
				(effects
					(font
						(size 1.27 1.27)
					)
					(hide yes)
				)
			)
			(symbol "INDUCTOR_0_1"
				(arc
					(start -1.27 0)
					(mid -1.905 0.6323)
					(end -2.54 0)
					(stroke
						(width 0)
						(type solid)
					)
					(fill
						(type none)
					)
				)
				(arc
					(start 0 0)
					(mid -0.635 0.6323)
					(end -1.27 0)
					(stroke
						(width 0)
						(type solid)
					)
					(fill
						(type none)
					)
				)
				(arc
					(start 1.27 0)
					(mid 0.635 0.6323)
					(end 0 0)
					(stroke
						(width 0)
						(type solid)
					)
					(fill
						(type none)
					)
				)
				(arc
					(start 2.54 0)
					(mid 1.905 0.6323)
					(end 1.27 0)
					(stroke
						(width 0)
						(type solid)
					)
					(fill
						(type none)
					)
				)
			)
			(symbol "INDUCTOR_1_1"
				(pin input line
					(at -3.81 0 0)
					(length 1.27)
					(name "1"
						(effects
							(font
								(size 0.762 0.762)
							)
						)
					)
					(number "1"
						(effects
							(font
								(size 0.762 0.762)
							)
						)
					)
				)
				(pin input line
					(at 3.81 0 180)
					(length 1.27)
					(name "2"
						(effects
							(font
								(size 0.762 0.762)
							)
						)
					)
					(number "2"
						(effects
							(font
								(size 0.762 0.762)
							)
						)
					)
				)
			)
		)
		(symbol "passives:R"
			(pin_numbers hide)
			(pin_names
				(offset 0)
			)
			(exclude_from_sim no)
			(in_bom yes)
			(on_board yes)
			(property "Reference" "R"
				(at 2.032 0 90)
				(effects
					(font
						(size 1.27 1.27)
					)
				)
			)
			(property "Value" "R"
				(at 0 0 90)
				(effects
					(font
						(size 1.27 1.27)
					)
				)
			)
			(property "Footprint" ""
				(at 0 0 0)
				(effects
					(font
						(size 1.27 1.27)
					)
					(hide yes)
				)
			)
			(property "Datasheet" ""
				(at 0 0 0)
				(effects
					(font
						(size 1.27 1.27)
					)
					(hide yes)
				)
			)
			(property "Description" ""
				(at 0 0 0)
				(effects
					(font
						(size 1.27 1.27)
					)
					(hide yes)
				)
			)
			(symbol "R_0_1"
				(rectangle
					(start -1.016 2.54)
					(end 1.016 -2.54)
					(stroke
						(width 0)
						(type solid)
					)
					(fill
						(type none)
					)
				)
			)
			(symbol "R_1_1"
				(pin passive line
					(at 0 5.08 270)
					(length 2.54)
					(name "~"
						(effects
							(font
								(size 1.27 1.27)
							)
						)
					)
					(number "1"
						(effects
							(font
								(size 1.27 1.27)
							)
						)
					)
				)
				(pin passive line
					(at 0 -5.08 90)
					(length 2.54)
					(name "~"
						(effects
							(font
								(size 1.27 1.27)
							)
						)
					)
					(number "2"
						(effects
							(font
								(size 1.27 1.27)
							)
						)
					)
				)
			)
		)
		(symbol "power:+3V3_STBY"
			(power)
			(pin_names
				(offset 0)
			)
			(exclude_from_sim no)
			(in_bom yes)
			(on_board yes)
			(property "Reference" "#PWR"
				(at 0 -3.81 0)
				(effects
					(font
						(size 1.27 1.27)
					)
					(hide yes)
				)
			)
			(property "Value" "+3V3_STBY"
				(at 0 3.556 0)
				(effects
					(font
						(size 1.27 1.27)
					)
				)
			)
			(property "Footprint" ""
				(at 0 0 0)
				(effects
					(font
						(size 1.27 1.27)
					)
					(hide yes)
				)
			)
			(property "Datasheet" ""
				(at 0 0 0)
				(effects
					(font
						(size 1.27 1.27)
					)
					(hide yes)
				)
			)
			(property "Description" ""
				(at 0 0 0)
				(effects
					(font
						(size 1.27 1.27)
					)
					(hide yes)
				)
			)
			(symbol "+3V3_STBY_0_1"
				(polyline
					(pts
						(xy -0.762 1.27) (xy 0 2.54)
					)
					(stroke
						(width 0)
						(type solid)
					)
					(fill
						(type none)
					)
				)
				(polyline
					(pts
						(xy 0 0) (xy 0 2.54)
					)
					(stroke
						(width 0)
						(type solid)
					)
					(fill
						(type none)
					)
				)
				(polyline
					(pts
						(xy 0 2.54) (xy 0.762 1.27)
					)
					(stroke
						(width 0)
						(type solid)
					)
					(fill
						(type none)
					)
				)
			)
			(symbol "+3V3_STBY_1_1"
				(pin power_in line
					(at 0 0 90)
					(length 0) hide
					(name "+3V3_STBY"
						(effects
							(font
								(size 1.27 1.27)
							)
						)
					)
					(number "1"
						(effects
							(font
								(size 1.27 1.27)
							)
						)
					)
				)
			)
		)
		(symbol "power:GND_LOGIC"
			(power)
			(pin_names
				(offset 0)
			)
			(exclude_from_sim no)
			(in_bom yes)
			(on_board yes)
			(property "Reference" "#PWR"
				(at 0 -6.35 0)
				(effects
					(font
						(size 1.27 1.27)
					)
					(hide yes)
				)
			)
			(property "Value" "GND_LOGIC"
				(at 0 -3.81 0)
				(effects
					(font
						(size 1.27 1.27)
					)
				)
			)
			(property "Footprint" ""
				(at 0 0 0)
				(effects
					(font
						(size 1.27 1.27)
					)
					(hide yes)
				)
			)
			(property "Datasheet" ""
				(at 0 0 0)
				(effects
					(font
						(size 1.27 1.27)
					)
					(hide yes)
				)
			)
			(property "Description" ""
				(at 0 0 0)
				(effects
					(font
						(size 1.27 1.27)
					)
					(hide yes)
				)
			)
			(symbol "GND_LOGIC_0_1"
				(polyline
					(pts
						(xy 0 0) (xy 0 -1.27) (xy 1.27 -1.27) (xy 0 -2.54) (xy -1.27 -1.27) (xy 0 -1.27)
					)
					(stroke
						(width 0)
						(type solid)
					)
					(fill
						(type none)
					)
				)
			)
			(symbol "GND_LOGIC_1_1"
				(pin power_in line
					(at 0 0 270)
					(length 0) hide
					(name "GND_LOGIC"
						(effects
							(font
								(size 1.27 1.27)
							)
						)
					)
					(number "1"
						(effects
							(font
								(size 1.27 1.27)
							)
						)
					)
				)
			)
		)
	)
	(junction
		(at 100.33 95.25)
		(diameter 0)
		(color 0 0 0 0)
		(uuid "2be066c4-bd9a-40b8-8a27-c8bad0c818d8")
	)
	(junction
		(at 36.83 63.5)
		(diameter 0)
		(color 0 0 0 0)
		(uuid "3785a21f-99d8-43d9-be5a-d7d7533799aa")
	)
	(junction
		(at 68.58 68.58)
		(diameter 0)
		(color 0 0 0 0)
		(uuid "45fc3512-7a99-4285-9859-908dc0fe8b7c")
	)
	(junction
		(at 29.21 63.5)
		(diameter 0)
		(color 0 0 0 0)
		(uuid "49bedc3e-80bf-48de-b922-172799a2afd5")
	)
	(junction
		(at 44.45 63.5)
		(diameter 0)
		(color 0 0 0 0)
		(uuid "55f4c1ec-16cf-4f2e-bb50-b1056131fb4f")
	)
	(junction
		(at 68.58 86.36)
		(diameter 0)
		(color 0 0 0 0)
		(uuid "7bf057f9-b222-4ea1-bf09-ea3892523bba")
	)
	(junction
		(at 101.6 41.91)
		(diameter 0)
		(color 0 0 0 0)
		(uuid "888aac25-a813-4aa3-bff5-a08660652229")
	)
	(junction
		(at 100.33 77.47)
		(diameter 0)
		(color 0 0 0 0)
		(uuid "96d458f1-2f62-4369-9fa5-78b6b53ee950")
	)
	(junction
		(at 77.47 59.69)
		(diameter 0)
		(color 0 0 0 0)
		(uuid "a9f68cd4-1a75-4ad2-a0f4-5b6e5335984d")
	)
	(junction
		(at 58.42 55.88)
		(diameter 0)
		(color 0 0 0 0)
		(uuid "d2b881d6-72dc-4998-b52b-9b65e198aadd")
	)
	(junction
		(at 77.47 73.66)
		(diameter 0)
		(color 0 0 0 0)
		(uuid "dd7f0b3b-9835-4008-9dc7-66bf08444baa")
	)
	(junction
		(at 77.47 77.47)
		(diameter 0)
		(color 0 0 0 0)
		(uuid "e430e620-7b43-47ec-8480-8eb5996e0873")
	)
	(junction
		(at 68.58 55.88)
		(diameter 0)
		(color 0 0 0 0)
		(uuid "f08cc69e-3996-43a5-9ae9-97afc975b834")
	)
	(junction
		(at 100.33 59.69)
		(diameter 0)
		(color 0 0 0 0)
		(uuid "ff15ca31-9d5b-4293-8a1c-42cbc3b2f74b")
	)
	(wire
		(pts
			(xy 58.42 67.31) (xy 58.42 77.47)
		)
		(stroke
			(width 0)
			(type default)
		)
		(uuid "043e49e0-1846-4ffa-bda7-252a27d212b6")
	)
	(wire
		(pts
			(xy 29.21 63.5) (xy 36.83 63.5)
		)
		(stroke
			(width 0)
			(type default)
		)
		(uuid "0703383a-8120-4b1c-8488-16f5ffbec859")
	)
	(wire
		(pts
			(xy 29.21 64.77) (xy 29.21 63.5)
		)
		(stroke
			(width 0)
			(type default)
		)
		(uuid "1047f454-b918-4af2-a379-df6ee0017d15")
	)
	(wire
		(pts
			(xy 68.58 102.87) (xy 68.58 86.36)
		)
		(stroke
			(width 0)
			(type default)
		)
		(uuid "10c58dc2-c331-4ab5-992e-bb453be6b5a6")
	)
	(wire
		(pts
			(xy 36.83 74.93) (xy 36.83 77.47)
		)
		(stroke
			(width 0)
			(type default)
		)
		(uuid "21b9fc01-7347-4c1f-94bb-616d3ccd1100")
	)
	(wire
		(pts
			(xy 90.17 41.91) (xy 101.6 41.91)
		)
		(stroke
			(width 0)
			(type default)
		)
		(uuid "23457b47-2bdb-4102-b8ba-99426edf497b")
	)
	(wire
		(pts
			(xy 86.36 86.36) (xy 68.58 86.36)
		)
		(stroke
			(width 0)
			(type default)
		)
		(uuid "29f57a6e-e5cc-4471-ad87-01fabab470f9")
	)
	(wire
		(pts
			(xy 86.36 85.09) (xy 86.36 86.36)
		)
		(stroke
			(width 0)
			(type default)
		)
		(uuid "36209412-a8ac-4f29-bb6e-76d5b279d06f")
	)
	(wire
		(pts
			(xy 100.33 77.47) (xy 105.41 77.47)
		)
		(stroke
			(width 0)
			(type default)
		)
		(uuid "45fa2031-9d89-4df4-87ed-336ea9f71cc1")
	)
	(wire
		(pts
			(xy 77.47 41.91) (xy 77.47 59.69)
		)
		(stroke
			(width 0)
			(type default)
		)
		(uuid "474fba30-840a-4944-a12e-c408a25cc9f1")
	)
	(wire
		(pts
			(xy 77.47 77.47) (xy 77.47 95.25)
		)
		(stroke
			(width 0)
			(type default)
		)
		(uuid "48df1b31-4311-43b5-9fca-642f634698f3")
	)
	(wire
		(pts
			(xy 77.47 77.47) (xy 80.01 77.47)
		)
		(stroke
			(width 0)
			(type default)
		)
		(uuid "4b350653-8b01-4361-a2e7-224fe2793b48")
	)
	(wire
		(pts
			(xy 44.45 63.5) (xy 50.8 63.5)
		)
		(stroke
			(width 0)
			(type default)
		)
		(uuid "4b941c40-ca04-4a8d-877d-5442d6f138a0")
	)
	(wire
		(pts
			(xy 68.58 50.8) (xy 68.58 55.88)
		)
		(stroke
			(width 0)
			(type default)
		)
		(uuid "4c9c46d6-d909-4a2b-acb4-286e1fb8433f")
	)
	(wire
		(pts
			(xy 58.42 55.88) (xy 58.42 54.61)
		)
		(stroke
			(width 0)
			(type default)
		)
		(uuid "509b4df3-f83e-4393-8e29-85060e380ae4")
	)
	(wire
		(pts
			(xy 68.58 55.88) (xy 58.42 55.88)
		)
		(stroke
			(width 0)
			(type default)
		)
		(uuid "5b83eebb-d315-42df-9691-b84e1f25d934")
	)
	(wire
		(pts
			(xy 44.45 73.66) (xy 45.72 73.66)
		)
		(stroke
			(width 0)
			(type default)
		)
		(uuid "6dedec1c-dbb9-4e88-91b0-85ceb1098fdf")
	)
	(wire
		(pts
			(xy 58.42 44.45) (xy 58.42 41.91)
		)
		(stroke
			(width 0)
			(type default)
		)
		(uuid "7a03f996-5707-47f9-8757-bda553eb025a")
	)
	(wire
		(pts
			(xy 77.47 41.91) (xy 80.01 41.91)
		)
		(stroke
			(width 0)
			(type default)
		)
		(uuid "7c664f30-d47d-4ea5-9206-69fa97df04bb")
	)
	(wire
		(pts
			(xy 100.33 95.25) (xy 105.41 95.25)
		)
		(stroke
			(width 0)
			(type default)
		)
		(uuid "80072445-13fe-417e-a5d3-ac69171a4f14")
	)
	(wire
		(pts
			(xy 86.36 102.87) (xy 68.58 102.87)
		)
		(stroke
			(width 0)
			(type default)
		)
		(uuid "8394ef8e-ff7b-4548-928f-6fd899835119")
	)
	(wire
		(pts
			(xy 36.83 64.77) (xy 36.83 63.5)
		)
		(stroke
			(width 0)
			(type default)
		)
		(uuid "86a53b85-2f16-46d0-acad-a7516171490a")
	)
	(wire
		(pts
			(xy 101.6 41.91) (xy 106.68 41.91)
		)
		(stroke
			(width 0)
			(type default)
		)
		(uuid "8cfc55cd-1d8c-4e20-9d4d-566128b38fec")
	)
	(wire
		(pts
			(xy 29.21 72.39) (xy 29.21 77.47)
		)
		(stroke
			(width 0)
			(type default)
		)
		(uuid "8e45969d-6f5b-4f9a-9ebf-00576141a679")
	)
	(wire
		(pts
			(xy 36.83 63.5) (xy 44.45 63.5)
		)
		(stroke
			(width 0)
			(type default)
		)
		(uuid "92aedabc-2e2e-466f-9b1b-bf4801d958a3")
	)
	(wire
		(pts
			(xy 86.36 49.53) (xy 86.36 50.8)
		)
		(stroke
			(width 0)
			(type default)
		)
		(uuid "9bda4a36-79ed-49d5-bee6-d54321260da9")
	)
	(wire
		(pts
			(xy 44.45 63.5) (xy 44.45 73.66)
		)
		(stroke
			(width 0)
			(type default)
		)
		(uuid "a73a8e53-bc12-44c9-b608-f523869483c8")
	)
	(wire
		(pts
			(xy 86.36 68.58) (xy 68.58 68.58)
		)
		(stroke
			(width 0)
			(type default)
		)
		(uuid "ab0edbc2-4a3c-46cc-860b-f65c3b572325")
	)
	(wire
		(pts
			(xy 90.17 77.47) (xy 100.33 77.47)
		)
		(stroke
			(width 0)
			(type default)
		)
		(uuid "aca34065-5a77-44b8-8d1f-2d6267fac064")
	)
	(wire
		(pts
			(xy 53.34 73.66) (xy 77.47 73.66)
		)
		(stroke
			(width 0)
			(type default)
		)
		(uuid "ada40911-4f81-4759-a359-9e32718c71e8")
	)
	(wire
		(pts
			(xy 86.36 50.8) (xy 68.58 50.8)
		)
		(stroke
			(width 0)
			(type default)
		)
		(uuid "b536dd1f-2d86-484d-ba07-a82aba410093")
	)
	(wire
		(pts
			(xy 86.36 67.31) (xy 86.36 68.58)
		)
		(stroke
			(width 0)
			(type default)
		)
		(uuid "baf5bc89-b197-40a8-80bd-0d4ce464135d")
	)
	(wire
		(pts
			(xy 68.58 86.36) (xy 68.58 68.58)
		)
		(stroke
			(width 0)
			(type default)
		)
		(uuid "c60f3c9b-7d06-44f6-800c-4e00a431e718")
	)
	(wire
		(pts
			(xy 90.17 59.69) (xy 100.33 59.69)
		)
		(stroke
			(width 0)
			(type default)
		)
		(uuid "cb187147-e34d-44ce-a880-888c4afa674d")
	)
	(wire
		(pts
			(xy 68.58 68.58) (xy 68.58 55.88)
		)
		(stroke
			(width 0)
			(type default)
		)
		(uuid "d4ce03fb-cf6b-41e8-b39e-4574b66b3101")
	)
	(wire
		(pts
			(xy 22.86 63.5) (xy 29.21 63.5)
		)
		(stroke
			(width 0)
			(type default)
		)
		(uuid "dac7f8d8-3b4f-4cbf-a6a1-d550cb9307bd")
	)
	(wire
		(pts
			(xy 100.33 59.69) (xy 106.68 59.69)
		)
		(stroke
			(width 0)
			(type default)
		)
		(uuid "dc96b006-c458-4da2-b7fe-89beaf08648a")
	)
	(wire
		(pts
			(xy 77.47 59.69) (xy 77.47 73.66)
		)
		(stroke
			(width 0)
			(type default)
		)
		(uuid "e0c34ce0-527d-4129-b1b4-fa302ce972cd")
	)
	(wire
		(pts
			(xy 77.47 95.25) (xy 80.01 95.25)
		)
		(stroke
			(width 0)
			(type default)
		)
		(uuid "e7f70d6b-918d-490d-90f3-8cfe487f7f85")
	)
	(wire
		(pts
			(xy 90.17 95.25) (xy 100.33 95.25)
		)
		(stroke
			(width 0)
			(type default)
		)
		(uuid "f0342042-9089-496d-904f-d3b407bc1560")
	)
	(wire
		(pts
			(xy 77.47 73.66) (xy 77.47 77.47)
		)
		(stroke
			(width 0)
			(type default)
		)
		(uuid "f2f6c942-9a17-4fea-9465-2e0919d81f57")
	)
	(wire
		(pts
			(xy 77.47 59.69) (xy 80.01 59.69)
		)
		(stroke
			(width 0)
			(type default)
		)
		(uuid "f65386a1-afb9-445e-9665-757a6b450c58")
	)
	(wire
		(pts
			(xy 58.42 57.15) (xy 58.42 55.88)
		)
		(stroke
			(width 0)
			(type default)
		)
		(uuid "fe037873-28b4-4538-a37a-53c515cc6a35")
	)
	(text "10V"
		(exclude_from_sim no)
		(at 31.75 72.39 0)
		(effects
			(font
				(size 1.27 1.27)
			)
			(justify left bottom)
		)
		(uuid "2a3d8d72-e26d-4828-b372-cf2b2ea13a9a")
	)
	(hierarchical_label "TCT2"
		(shape passive)
		(at 106.68 59.69 0)
		(fields_autoplaced yes)
		(effects
			(font
				(size 1.27 1.27)
			)
			(justify left)
		)
		(uuid "0edb1ac0-ef61-4cde-afa6-24e0e18b8c2a")
	)
	(hierarchical_label "TCT1"
		(shape passive)
		(at 106.68 41.91 0)
		(fields_autoplaced yes)
		(effects
			(font
				(size 1.27 1.27)
			)
			(justify left)
		)
		(uuid "2e91fc5c-6f1f-4e79-b9d6-32975a956a4e")
	)
	(hierarchical_label "TCT3"
		(shape passive)
		(at 105.41 77.47 0)
		(fields_autoplaced yes)
		(effects
			(font
				(size 1.27 1.27)
			)
			(justify left)
		)
		(uuid "6ae44d0d-c2ae-4c05-a1fe-dc95740cba78")
	)
	(hierarchical_label "TCT4"
		(shape passive)
		(at 105.41 95.25 0)
		(fields_autoplaced yes)
		(effects
			(font
				(size 1.27 1.27)
			)
			(justify left)
		)
		(uuid "9eb23e2f-8b5c-4c91-8ff9-9c07adf7ec5d")
	)
	(hierarchical_label "CTREF"
		(shape passive)
		(at 22.86 63.5 180)
		(fields_autoplaced yes)
		(effects
			(font
				(size 1.27 1.27)
			)
			(justify right)
		)
		(uuid "c6dba651-d255-423b-86e3-f848373947f6")
	)
	(symbol
		(lib_id "active:EM6K6T2R")
		(at 57.15 62.23 0)
		(unit 1)
		(exclude_from_sim no)
		(in_bom yes)
		(on_board yes)
		(dnp no)
		(uuid "00000000-0000-0000-0000-00005e7436a2")
		(property "Reference" "U208"
			(at 60.4012 61.0616 0)
			(effects
				(font
					(size 1.27 1.27)
				)
				(justify left)
			)
		)
		(property "Value" "EM6K6T2R"
			(at 60.4012 63.373 0)
			(effects
				(font
					(size 1.27 1.27)
				)
				(justify left)
			)
		)
		(property "Footprint" "Package_TO_SOT_SMD:SOT-563"
			(at 50.8 72.39 0)
			(effects
				(font
					(size 1.27 1.27)
				)
				(hide yes)
			)
		)
		(property "Datasheet" ""
			(at 50.8 72.39 0)
			(effects
				(font
					(size 1.27 1.27)
				)
				(hide yes)
			)
		)
		(property "Description" ""
			(at 57.15 62.23 0)
			(effects
				(font
					(size 1.27 1.27)
				)
				(hide yes)
			)
		)
		(property "Supplier P/N" "EM6K6T2RCT-ND"
			(at 57.15 62.23 0)
			(effects
				(font
					(size 1.27 1.27)
				)
				(hide yes)
			)
		)
		(property "Supplier" "Digkey"
			(at 57.15 62.23 0)
			(effects
				(font
					(size 1.27 1.27)
				)
				(hide yes)
			)
		)
		(pin "1"
			(uuid "b499e3fd-2e37-48e9-a9bf-5ed67199dab7")
		)
		(pin "2"
			(uuid "668ecf51-2a3c-475e-aa01-450c53b47f4f")
		)
		(pin "6"
			(uuid "006dd994-d05b-4503-9b71-4eb519d9ada0")
		)
		(pin "3"
			(uuid "2b8e6010-12b9-4565-99d0-55ea5e59e8d7")
		)
		(pin "4"
			(uuid "20c97c94-01ea-4490-b8d7-5a50e4ff0f63")
		)
		(pin "5"
			(uuid "87aeedca-698f-40b1-8b63-443b7b7434e3")
		)
		(instances
			(project "carrier"
				(path "/c546581a-7b71-4c20-b442-88ef38f8e5a8/00000000-0000-0000-0000-00005b8ec3b5/00000000-0000-0000-0000-00005e741de5"
					(reference "U208")
					(unit 1)
				)
			)
		)
	)
	(symbol
		(lib_id "passives:C")
		(at 29.21 68.58 0)
		(unit 1)
		(exclude_from_sim no)
		(in_bom yes)
		(on_board yes)
		(dnp no)
		(uuid "00000000-0000-0000-0000-00005e743942")
		(property "Reference" "C243"
			(at 31.8262 67.4116 0)
			(effects
				(font
					(size 1.27 1.27)
				)
				(justify left)
			)
		)
		(property "Value" "1uF"
			(at 31.8262 69.723 0)
			(effects
				(font
					(size 1.27 1.27)
				)
				(justify left)
			)
		)
		(property "Footprint" "Capacitor_SMD:C_0603_1608Metric"
			(at 29.21 67.31 0)
			(effects
				(font
					(size 1.27 1.27)
				)
				(hide yes)
			)
		)
		(property "Datasheet" ""
			(at 29.21 67.31 0)
			(effects
				(font
					(size 1.27 1.27)
				)
				(hide yes)
			)
		)
		(property "Description" ""
			(at 29.21 68.58 0)
			(effects
				(font
					(size 1.27 1.27)
				)
				(hide yes)
			)
		)
		(pin "1"
			(uuid "591c391c-1110-4be8-8017-0f78b61b9fa0")
		)
		(pin "2"
			(uuid "a91dd085-4a91-4b75-bad7-62ee9322b267")
		)
		(instances
			(project "carrier"
				(path "/c546581a-7b71-4c20-b442-88ef38f8e5a8/00000000-0000-0000-0000-00005b8ec3b5/00000000-0000-0000-0000-00005e741de5"
					(reference "C243")
					(unit 1)
				)
			)
		)
	)
	(symbol
		(lib_id "passives:R")
		(at 36.83 69.85 0)
		(unit 1)
		(exclude_from_sim no)
		(in_bom yes)
		(on_board yes)
		(dnp no)
		(uuid "00000000-0000-0000-0000-00005e743a0d")
		(property "Reference" "R252"
			(at 38.5572 68.6816 0)
			(effects
				(font
					(size 1.27 1.27)
				)
				(justify left)
			)
		)
		(property "Value" "10K"
			(at 38.5572 70.993 0)
			(effects
				(font
					(size 1.27 1.27)
				)
				(justify left)
			)
		)
		(property "Footprint" "Resistor_SMD:R_0402_1005Metric"
			(at 36.83 69.85 0)
			(effects
				(font
					(size 1.27 1.27)
				)
				(hide yes)
			)
		)
		(property "Datasheet" ""
			(at 36.83 69.85 0)
			(effects
				(font
					(size 1.27 1.27)
				)
				(hide yes)
			)
		)
		(property "Description" ""
			(at 36.83 69.85 0)
			(effects
				(font
					(size 1.27 1.27)
				)
				(hide yes)
			)
		)
		(pin "1"
			(uuid "cd5ba78a-4a75-485e-93ca-5b619c4f225e")
		)
		(pin "2"
			(uuid "3f9ef4d1-e91a-4b06-8ac4-1da55c5b2f5b")
		)
		(instances
			(project "carrier"
				(path "/c546581a-7b71-4c20-b442-88ef38f8e5a8/00000000-0000-0000-0000-00005b8ec3b5/00000000-0000-0000-0000-00005e741de5"
					(reference "R252")
					(unit 1)
				)
			)
		)
	)
	(symbol
		(lib_id "active:SI3401A-TP")
		(at 85.09 44.45 90)
		(unit 1)
		(exclude_from_sim no)
		(in_bom yes)
		(on_board yes)
		(dnp no)
		(uuid "00000000-0000-0000-0000-00005e745f30")
		(property "Reference" "Q201"
			(at 90.17 45.72 90)
			(effects
				(font
					(size 1.27 1.27)
				)
			)
		)
		(property "Value" "SI3401A-TP"
			(at 92.71 48.26 90)
			(effects
				(font
					(size 1.27 1.27)
				)
			)
		)
		(property "Footprint" "Package_TO_SOT_SMD:SOT-23"
			(at 95.25 50.8 0)
			(effects
				(font
					(size 1.27 1.27)
				)
				(hide yes)
			)
		)
		(property "Datasheet" ""
			(at 95.25 50.8 0)
			(effects
				(font
					(size 1.27 1.27)
				)
				(hide yes)
			)
		)
		(property "Description" ""
			(at 85.09 44.45 0)
			(effects
				(font
					(size 1.27 1.27)
				)
				(hide yes)
			)
		)
		(property "Supplier P/N" "SI3401A-TPMSCT-ND"
			(at 85.09 44.45 90)
			(effects
				(font
					(size 1.27 1.27)
				)
				(hide yes)
			)
		)
		(property "Supplier" "Digikey"
			(at 85.09 44.45 90)
			(effects
				(font
					(size 1.27 1.27)
				)
				(hide yes)
			)
		)
		(pin "1"
			(uuid "a1eb326c-0d24-47f7-a436-588d7af68dda")
		)
		(pin "2"
			(uuid "8b3dbf09-cf73-4173-956f-8b8e1203afdd")
		)
		(pin "3"
			(uuid "f7667359-8fd3-4dad-8286-1c5a6c1173ad")
		)
		(instances
			(project "carrier"
				(path "/c546581a-7b71-4c20-b442-88ef38f8e5a8/00000000-0000-0000-0000-00005b8ec3b5/00000000-0000-0000-0000-00005e741de5"
					(reference "Q201")
					(unit 1)
				)
			)
		)
	)
	(symbol
		(lib_id "passives:R")
		(at 58.42 49.53 0)
		(unit 1)
		(exclude_from_sim no)
		(in_bom yes)
		(on_board yes)
		(dnp no)
		(uuid "00000000-0000-0000-0000-00005e7460ce")
		(property "Reference" "R251"
			(at 60.1472 48.3616 0)
			(effects
				(font
					(size 1.27 1.27)
				)
				(justify left)
			)
		)
		(property "Value" "10K"
			(at 60.1472 50.673 0)
			(effects
				(font
					(size 1.27 1.27)
				)
				(justify left)
			)
		)
		(property "Footprint" "Resistor_SMD:R_0402_1005Metric"
			(at 58.42 49.53 0)
			(effects
				(font
					(size 1.27 1.27)
				)
				(hide yes)
			)
		)
		(property "Datasheet" ""
			(at 58.42 49.53 0)
			(effects
				(font
					(size 1.27 1.27)
				)
				(hide yes)
			)
		)
		(property "Description" ""
			(at 58.42 49.53 0)
			(effects
				(font
					(size 1.27 1.27)
				)
				(hide yes)
			)
		)
		(pin "1"
			(uuid "386a9702-2b4f-4ee3-94e5-ab0ad63cc8c0")
		)
		(pin "2"
			(uuid "2b976343-a00b-4a50-a42d-df1a352c6119")
		)
		(instances
			(project "carrier"
				(path "/c546581a-7b71-4c20-b442-88ef38f8e5a8/00000000-0000-0000-0000-00005b8ec3b5/00000000-0000-0000-0000-00005e741de5"
					(reference "R251")
					(unit 1)
				)
			)
		)
	)
	(symbol
		(lib_id "passives:INDUCTOR")
		(at 49.53 73.66 0)
		(unit 1)
		(exclude_from_sim no)
		(in_bom yes)
		(on_board yes)
		(dnp no)
		(uuid "00000000-0000-0000-0000-00005e74619f")
		(property "Reference" "L201"
			(at 49.53 70.8152 0)
			(effects
				(font
					(size 1.27 1.27)
				)
			)
		)
		(property "Value" "INDUCTOR"
			(at 49.53 70.8152 0)
			(effects
				(font
					(size 1.27 1.27)
				)
				(hide yes)
			)
		)
		(property "Footprint" "Resistor_SMD:R_0603_1608Metric"
			(at 49.53 73.66 0)
			(effects
				(font
					(size 1.27 1.27)
				)
				(hide yes)
			)
		)
		(property "Datasheet" ""
			(at 49.53 73.66 0)
			(effects
				(font
					(size 1.27 1.27)
				)
				(hide yes)
			)
		)
		(property "Description" ""
			(at 49.53 73.66 0)
			(effects
				(font
					(size 1.27 1.27)
				)
				(hide yes)
			)
		)
		(property "Supplier P/N" "BLM18SG121TN1D"
			(at 49.53 73.66 0)
			(effects
				(font
					(size 1.27 1.27)
				)
				(hide yes)
			)
		)
		(property "Supplier" "Digikey"
			(at 49.53 73.66 0)
			(effects
				(font
					(size 1.27 1.27)
				)
				(hide yes)
			)
		)
		(pin "1"
			(uuid "7eec04f4-e275-4fed-bd99-c50c787095f4")
		)
		(pin "2"
			(uuid "90b854c3-1006-4718-8a1f-fe72bded61a5")
		)
		(instances
			(project "carrier"
				(path "/c546581a-7b71-4c20-b442-88ef38f8e5a8/00000000-0000-0000-0000-00005b8ec3b5/00000000-0000-0000-0000-00005e741de5"
					(reference "L201")
					(unit 1)
				)
			)
		)
	)
	(symbol
		(lib_id "power:GND_LOGIC")
		(at 36.83 77.47 0)
		(unit 1)
		(exclude_from_sim no)
		(in_bom yes)
		(on_board yes)
		(dnp no)
		(uuid "00000000-0000-0000-0000-00005e7462b2")
		(property "Reference" "#PWR0368"
			(at 36.83 83.82 0)
			(effects
				(font
					(size 1.27 1.27)
				)
				(hide yes)
			)
		)
		(property "Value" "GND_LOGIC"
			(at 36.957 81.8642 0)
			(effects
				(font
					(size 1.27 1.27)
				)
			)
		)
		(property "Footprint" ""
			(at 36.83 77.47 0)
			(effects
				(font
					(size 1.27 1.27)
				)
				(hide yes)
			)
		)
		(property "Datasheet" ""
			(at 36.83 77.47 0)
			(effects
				(font
					(size 1.27 1.27)
				)
				(hide yes)
			)
		)
		(property "Description" ""
			(at 36.83 77.47 0)
			(effects
				(font
					(size 1.27 1.27)
				)
				(hide yes)
			)
		)
		(pin "1"
			(uuid "ed892986-5eb6-47a4-9618-4386327b6c5b")
		)
		(instances
			(project "carrier"
				(path "/c546581a-7b71-4c20-b442-88ef38f8e5a8/00000000-0000-0000-0000-00005b8ec3b5/00000000-0000-0000-0000-00005e741de5"
					(reference "#PWR0368")
					(unit 1)
				)
			)
		)
	)
	(symbol
		(lib_id "power:GND_LOGIC")
		(at 29.21 77.47 0)
		(unit 1)
		(exclude_from_sim no)
		(in_bom yes)
		(on_board yes)
		(dnp no)
		(uuid "00000000-0000-0000-0000-00005e7462ef")
		(property "Reference" "#PWR0367"
			(at 29.21 83.82 0)
			(effects
				(font
					(size 1.27 1.27)
				)
				(hide yes)
			)
		)
		(property "Value" "GND_LOGIC"
			(at 29.337 81.8642 0)
			(effects
				(font
					(size 1.27 1.27)
				)
			)
		)
		(property "Footprint" ""
			(at 29.21 77.47 0)
			(effects
				(font
					(size 1.27 1.27)
				)
				(hide yes)
			)
		)
		(property "Datasheet" ""
			(at 29.21 77.47 0)
			(effects
				(font
					(size 1.27 1.27)
				)
				(hide yes)
			)
		)
		(property "Description" ""
			(at 29.21 77.47 0)
			(effects
				(font
					(size 1.27 1.27)
				)
				(hide yes)
			)
		)
		(pin "1"
			(uuid "90730df1-7a20-45ac-9c3e-30fb942e04b5")
		)
		(instances
			(project "carrier"
				(path "/c546581a-7b71-4c20-b442-88ef38f8e5a8/00000000-0000-0000-0000-00005b8ec3b5/00000000-0000-0000-0000-00005e741de5"
					(reference "#PWR0367")
					(unit 1)
				)
			)
		)
	)
	(symbol
		(lib_id "power:GND_LOGIC")
		(at 58.42 77.47 0)
		(unit 1)
		(exclude_from_sim no)
		(in_bom yes)
		(on_board yes)
		(dnp no)
		(uuid "00000000-0000-0000-0000-00005e74632c")
		(property "Reference" "#PWR0369"
			(at 58.42 83.82 0)
			(effects
				(font
					(size 1.27 1.27)
				)
				(hide yes)
			)
		)
		(property "Value" "GND_LOGIC"
			(at 58.547 81.8642 0)
			(effects
				(font
					(size 1.27 1.27)
				)
			)
		)
		(property "Footprint" ""
			(at 58.42 77.47 0)
			(effects
				(font
					(size 1.27 1.27)
				)
				(hide yes)
			)
		)
		(property "Datasheet" ""
			(at 58.42 77.47 0)
			(effects
				(font
					(size 1.27 1.27)
				)
				(hide yes)
			)
		)
		(property "Description" ""
			(at 58.42 77.47 0)
			(effects
				(font
					(size 1.27 1.27)
				)
				(hide yes)
			)
		)
		(pin "1"
			(uuid "8c2d9a09-5b4c-4c4e-9839-aee6e6eed2ef")
		)
		(instances
			(project "carrier"
				(path "/c546581a-7b71-4c20-b442-88ef38f8e5a8/00000000-0000-0000-0000-00005b8ec3b5/00000000-0000-0000-0000-00005e741de5"
					(reference "#PWR0369")
					(unit 1)
				)
			)
		)
	)
	(symbol
		(lib_id "power:+3V3_STBY")
		(at 58.42 41.91 0)
		(unit 1)
		(exclude_from_sim no)
		(in_bom yes)
		(on_board yes)
		(dnp no)
		(uuid "00000000-0000-0000-0000-00005e74657a")
		(property "Reference" "#PWR0364"
			(at 58.42 45.72 0)
			(effects
				(font
					(size 1.27 1.27)
				)
				(hide yes)
			)
		)
		(property "Value" "+3V3_STBY"
			(at 58.801 37.5158 0)
			(effects
				(font
					(size 1.27 1.27)
				)
			)
		)
		(property "Footprint" ""
			(at 58.42 41.91 0)
			(effects
				(font
					(size 1.27 1.27)
				)
				(hide yes)
			)
		)
		(property "Datasheet" ""
			(at 58.42 41.91 0)
			(effects
				(font
					(size 1.27 1.27)
				)
				(hide yes)
			)
		)
		(property "Description" ""
			(at 58.42 41.91 0)
			(effects
				(font
					(size 1.27 1.27)
				)
				(hide yes)
			)
		)
		(pin "1"
			(uuid "96d7ee05-e421-4b48-a6e3-6808f0a5373a")
		)
		(instances
			(project "carrier"
				(path "/c546581a-7b71-4c20-b442-88ef38f8e5a8/00000000-0000-0000-0000-00005b8ec3b5/00000000-0000-0000-0000-00005e741de5"
					(reference "#PWR0364")
					(unit 1)
				)
			)
		)
	)
	(symbol
		(lib_id "active:SI3401A-TP")
		(at 85.09 62.23 90)
		(unit 1)
		(exclude_from_sim no)
		(in_bom yes)
		(on_board yes)
		(dnp no)
		(uuid "00000000-0000-0000-0000-00005e792206")
		(property "Reference" "Q202"
			(at 90.17 63.5 90)
			(effects
				(font
					(size 1.27 1.27)
				)
			)
		)
		(property "Value" "SI3401A-TP"
			(at 92.71 66.04 90)
			(effects
				(font
					(size 1.27 1.27)
				)
			)
		)
		(property "Footprint" "Package_TO_SOT_SMD:SOT-23"
			(at 95.25 68.58 0)
			(effects
				(font
					(size 1.27 1.27)
				)
				(hide yes)
			)
		)
		(property "Datasheet" ""
			(at 95.25 68.58 0)
			(effects
				(font
					(size 1.27 1.27)
				)
				(hide yes)
			)
		)
		(property "Description" ""
			(at 85.09 62.23 0)
			(effects
				(font
					(size 1.27 1.27)
				)
				(hide yes)
			)
		)
		(property "Supplier P/N" "SI3401A-TPMSCT-ND"
			(at 85.09 62.23 90)
			(effects
				(font
					(size 1.27 1.27)
				)
				(hide yes)
			)
		)
		(property "Supplier" "Digikey"
			(at 85.09 62.23 90)
			(effects
				(font
					(size 1.27 1.27)
				)
				(hide yes)
			)
		)
		(pin "1"
			(uuid "6328b658-6eb9-4678-bd2e-56ebac8843f2")
		)
		(pin "2"
			(uuid "6c394dfc-e2f8-4fb7-92cd-896b71e5aaea")
		)
		(pin "3"
			(uuid "84d02f45-d21e-43c6-9a75-875394d36b9e")
		)
		(instances
			(project "carrier"
				(path "/c546581a-7b71-4c20-b442-88ef38f8e5a8/00000000-0000-0000-0000-00005b8ec3b5/00000000-0000-0000-0000-00005e741de5"
					(reference "Q202")
					(unit 1)
				)
			)
		)
	)
	(symbol
		(lib_id "active:SI3401A-TP")
		(at 85.09 80.01 90)
		(unit 1)
		(exclude_from_sim no)
		(in_bom yes)
		(on_board yes)
		(dnp no)
		(uuid "00000000-0000-0000-0000-00005e792244")
		(property "Reference" "Q203"
			(at 90.17 81.28 90)
			(effects
				(font
					(size 1.27 1.27)
				)
			)
		)
		(property "Value" "SI3401A-TP"
			(at 92.71 83.82 90)
			(effects
				(font
					(size 1.27 1.27)
				)
			)
		)
		(property "Footprint" "Package_TO_SOT_SMD:SOT-23"
			(at 95.25 86.36 0)
			(effects
				(font
					(size 1.27 1.27)
				)
				(hide yes)
			)
		)
		(property "Datasheet" ""
			(at 95.25 86.36 0)
			(effects
				(font
					(size 1.27 1.27)
				)
				(hide yes)
			)
		)
		(property "Description" ""
			(at 85.09 80.01 0)
			(effects
				(font
					(size 1.27 1.27)
				)
				(hide yes)
			)
		)
		(property "Supplier P/N" "SI3401A-TPMSCT-ND"
			(at 85.09 80.01 90)
			(effects
				(font
					(size 1.27 1.27)
				)
				(hide yes)
			)
		)
		(property "Supplier" "Digikey"
			(at 85.09 80.01 90)
			(effects
				(font
					(size 1.27 1.27)
				)
				(hide yes)
			)
		)
		(pin "1"
			(uuid "dd3e27ac-f1df-428a-a62d-3242c10b6ad6")
		)
		(pin "2"
			(uuid "be85abd1-eda8-4917-a30c-479b2c692d82")
		)
		(pin "3"
			(uuid "8f4cd4e6-44e2-4286-a3e3-be05880fc745")
		)
		(instances
			(project "carrier"
				(path "/c546581a-7b71-4c20-b442-88ef38f8e5a8/00000000-0000-0000-0000-00005b8ec3b5/00000000-0000-0000-0000-00005e741de5"
					(reference "Q203")
					(unit 1)
				)
			)
		)
	)
	(symbol
		(lib_id "active:SI3401A-TP")
		(at 85.09 97.79 90)
		(unit 1)
		(exclude_from_sim no)
		(in_bom yes)
		(on_board yes)
		(dnp no)
		(uuid "00000000-0000-0000-0000-00005e792280")
		(property "Reference" "Q204"
			(at 90.17 99.06 90)
			(effects
				(font
					(size 1.27 1.27)
				)
			)
		)
		(property "Value" "SI3401A-TP"
			(at 92.71 101.6 90)
			(effects
				(font
					(size 1.27 1.27)
				)
			)
		)
		(property "Footprint" "Package_TO_SOT_SMD:SOT-23"
			(at 95.25 104.14 0)
			(effects
				(font
					(size 1.27 1.27)
				)
				(hide yes)
			)
		)
		(property "Datasheet" ""
			(at 95.25 104.14 0)
			(effects
				(font
					(size 1.27 1.27)
				)
				(hide yes)
			)
		)
		(property "Description" ""
			(at 85.09 97.79 0)
			(effects
				(font
					(size 1.27 1.27)
				)
				(hide yes)
			)
		)
		(property "Supplier P/N" "SI3401A-TPMSCT-ND"
			(at 85.09 97.79 90)
			(effects
				(font
					(size 1.27 1.27)
				)
				(hide yes)
			)
		)
		(property "Supplier" "Digikey"
			(at 85.09 97.79 90)
			(effects
				(font
					(size 1.27 1.27)
				)
				(hide yes)
			)
		)
		(pin "1"
			(uuid "c3dedef7-b125-443b-a510-a09d3eed02b0")
		)
		(pin "2"
			(uuid "e4930ab3-b8e3-412c-91d2-eb5705d6d923")
		)
		(pin "3"
			(uuid "fc0c622c-c59e-4be5-aab7-46707e4bf0d3")
		)
		(instances
			(project "carrier"
				(path "/c546581a-7b71-4c20-b442-88ef38f8e5a8/00000000-0000-0000-0000-00005b8ec3b5/00000000-0000-0000-0000-00005e741de5"
					(reference "Q204")
					(unit 1)
				)
			)
		)
	)
	(symbol
		(lib_id "passives:C")
		(at 101.6 45.72 0)
		(unit 1)
		(exclude_from_sim no)
		(in_bom yes)
		(on_board yes)
		(dnp no)
		(uuid "00000000-0000-0000-0000-00005f81a807")
		(property "Reference" "C241"
			(at 104.2162 44.5516 0)
			(effects
				(font
					(size 1.27 1.27)
				)
				(justify left)
			)
		)
		(property "Value" "0.1uF 25V"
			(at 104.2162 46.863 0)
			(effects
				(font
					(size 1.27 1.27)
				)
				(justify left)
			)
		)
		(property "Footprint" "Capacitor_SMD:C_0402_1005Metric"
			(at 101.6 44.45 0)
			(effects
				(font
					(size 1.27 1.27)
				)
				(hide yes)
			)
		)
		(property "Datasheet" ""
			(at 101.6 44.45 0)
			(effects
				(font
					(size 1.27 1.27)
				)
				(hide yes)
			)
		)
		(property "Description" ""
			(at 101.6 45.72 0)
			(effects
				(font
					(size 1.27 1.27)
				)
				(hide yes)
			)
		)
		(pin "1"
			(uuid "8d341ab3-b2be-4b0d-9a63-bf25c63a21f5")
		)
		(pin "2"
			(uuid "a2e535dd-1e85-49e9-b5d9-3b94e66a50e0")
		)
		(instances
			(project "carrier"
				(path "/c546581a-7b71-4c20-b442-88ef38f8e5a8/00000000-0000-0000-0000-00005b8ec3b5/00000000-0000-0000-0000-00005e741de5"
					(reference "C241")
					(unit 1)
				)
			)
		)
	)
	(symbol
		(lib_id "power:GND_LOGIC")
		(at 101.6 49.53 0)
		(unit 1)
		(exclude_from_sim no)
		(in_bom yes)
		(on_board yes)
		(dnp no)
		(uuid "00000000-0000-0000-0000-00005f81b90c")
		(property "Reference" "#PWR0365"
			(at 101.6 55.88 0)
			(effects
				(font
					(size 1.27 1.27)
				)
				(hide yes)
			)
		)
		(property "Value" "GND_LOGIC"
			(at 101.727 53.9242 0)
			(effects
				(font
					(size 1.27 1.27)
				)
			)
		)
		(property "Footprint" ""
			(at 101.6 49.53 0)
			(effects
				(font
					(size 1.27 1.27)
				)
				(hide yes)
			)
		)
		(property "Datasheet" ""
			(at 101.6 49.53 0)
			(effects
				(font
					(size 1.27 1.27)
				)
				(hide yes)
			)
		)
		(property "Description" ""
			(at 101.6 49.53 0)
			(effects
				(font
					(size 1.27 1.27)
				)
				(hide yes)
			)
		)
		(pin "1"
			(uuid "a15e1f82-14e4-4a36-b0f1-8f0867aa23a1")
		)
		(instances
			(project "carrier"
				(path "/c546581a-7b71-4c20-b442-88ef38f8e5a8/00000000-0000-0000-0000-00005b8ec3b5/00000000-0000-0000-0000-00005e741de5"
					(reference "#PWR0365")
					(unit 1)
				)
			)
		)
	)
	(symbol
		(lib_id "passives:C")
		(at 100.33 63.5 0)
		(unit 1)
		(exclude_from_sim no)
		(in_bom yes)
		(on_board yes)
		(dnp no)
		(uuid "00000000-0000-0000-0000-00005f81b9c0")
		(property "Reference" "C242"
			(at 102.9462 62.3316 0)
			(effects
				(font
					(size 1.27 1.27)
				)
				(justify left)
			)
		)
		(property "Value" "0.1uF 25V"
			(at 102.9462 64.643 0)
			(effects
				(font
					(size 1.27 1.27)
				)
				(justify left)
			)
		)
		(property "Footprint" "Capacitor_SMD:C_0402_1005Metric"
			(at 100.33 62.23 0)
			(effects
				(font
					(size 1.27 1.27)
				)
				(hide yes)
			)
		)
		(property "Datasheet" ""
			(at 100.33 62.23 0)
			(effects
				(font
					(size 1.27 1.27)
				)
				(hide yes)
			)
		)
		(property "Description" ""
			(at 100.33 63.5 0)
			(effects
				(font
					(size 1.27 1.27)
				)
				(hide yes)
			)
		)
		(pin "1"
			(uuid "cba0c49c-5c39-41ba-b28f-c13eb628c53d")
		)
		(pin "2"
			(uuid "595b615e-4cea-4275-9546-f9f258ec8c7a")
		)
		(instances
			(project "carrier"
				(path "/c546581a-7b71-4c20-b442-88ef38f8e5a8/00000000-0000-0000-0000-00005b8ec3b5/00000000-0000-0000-0000-00005e741de5"
					(reference "C242")
					(unit 1)
				)
			)
		)
	)
	(symbol
		(lib_id "power:GND_LOGIC")
		(at 100.33 67.31 0)
		(unit 1)
		(exclude_from_sim no)
		(in_bom yes)
		(on_board yes)
		(dnp no)
		(uuid "00000000-0000-0000-0000-00005f81b9c6")
		(property "Reference" "#PWR0366"
			(at 100.33 73.66 0)
			(effects
				(font
					(size 1.27 1.27)
				)
				(hide yes)
			)
		)
		(property "Value" "GND_LOGIC"
			(at 100.457 71.7042 0)
			(effects
				(font
					(size 1.27 1.27)
				)
			)
		)
		(property "Footprint" ""
			(at 100.33 67.31 0)
			(effects
				(font
					(size 1.27 1.27)
				)
				(hide yes)
			)
		)
		(property "Datasheet" ""
			(at 100.33 67.31 0)
			(effects
				(font
					(size 1.27 1.27)
				)
				(hide yes)
			)
		)
		(property "Description" ""
			(at 100.33 67.31 0)
			(effects
				(font
					(size 1.27 1.27)
				)
				(hide yes)
			)
		)
		(pin "1"
			(uuid "66da0998-fc29-4914-b312-4d20c6ee455f")
		)
		(instances
			(project "carrier"
				(path "/c546581a-7b71-4c20-b442-88ef38f8e5a8/00000000-0000-0000-0000-00005b8ec3b5/00000000-0000-0000-0000-00005e741de5"
					(reference "#PWR0366")
					(unit 1)
				)
			)
		)
	)
	(symbol
		(lib_id "passives:C")
		(at 100.33 81.28 0)
		(unit 1)
		(exclude_from_sim no)
		(in_bom yes)
		(on_board yes)
		(dnp no)
		(uuid "00000000-0000-0000-0000-00005f81d05e")
		(property "Reference" "C244"
			(at 102.9462 80.1116 0)
			(effects
				(font
					(size 1.27 1.27)
				)
				(justify left)
			)
		)
		(property "Value" "0.1uF 25V"
			(at 102.9462 82.423 0)
			(effects
				(font
					(size 1.27 1.27)
				)
				(justify left)
			)
		)
		(property "Footprint" "Capacitor_SMD:C_0402_1005Metric"
			(at 100.33 80.01 0)
			(effects
				(font
					(size 1.27 1.27)
				)
				(hide yes)
			)
		)
		(property "Datasheet" ""
			(at 100.33 80.01 0)
			(effects
				(font
					(size 1.27 1.27)
				)
				(hide yes)
			)
		)
		(property "Description" ""
			(at 100.33 81.28 0)
			(effects
				(font
					(size 1.27 1.27)
				)
				(hide yes)
			)
		)
		(pin "1"
			(uuid "6a8fa18c-84bc-4998-a3f4-993bfb90ef6d")
		)
		(pin "2"
			(uuid "4d7ecae3-96bf-452b-8393-066e7ad3d919")
		)
		(instances
			(project "carrier"
				(path "/c546581a-7b71-4c20-b442-88ef38f8e5a8/00000000-0000-0000-0000-00005b8ec3b5/00000000-0000-0000-0000-00005e741de5"
					(reference "C244")
					(unit 1)
				)
			)
		)
	)
	(symbol
		(lib_id "power:GND_LOGIC")
		(at 100.33 85.09 0)
		(unit 1)
		(exclude_from_sim no)
		(in_bom yes)
		(on_board yes)
		(dnp no)
		(uuid "00000000-0000-0000-0000-00005f81d064")
		(property "Reference" "#PWR0370"
			(at 100.33 91.44 0)
			(effects
				(font
					(size 1.27 1.27)
				)
				(hide yes)
			)
		)
		(property "Value" "GND_LOGIC"
			(at 100.457 89.4842 0)
			(effects
				(font
					(size 1.27 1.27)
				)
			)
		)
		(property "Footprint" ""
			(at 100.33 85.09 0)
			(effects
				(font
					(size 1.27 1.27)
				)
				(hide yes)
			)
		)
		(property "Datasheet" ""
			(at 100.33 85.09 0)
			(effects
				(font
					(size 1.27 1.27)
				)
				(hide yes)
			)
		)
		(property "Description" ""
			(at 100.33 85.09 0)
			(effects
				(font
					(size 1.27 1.27)
				)
				(hide yes)
			)
		)
		(pin "1"
			(uuid "02d5c92b-9b0c-49dd-aaf1-acdabd2ecdf8")
		)
		(instances
			(project "carrier"
				(path "/c546581a-7b71-4c20-b442-88ef38f8e5a8/00000000-0000-0000-0000-00005b8ec3b5/00000000-0000-0000-0000-00005e741de5"
					(reference "#PWR0370")
					(unit 1)
				)
			)
		)
	)
	(symbol
		(lib_id "passives:C")
		(at 100.33 99.06 0)
		(unit 1)
		(exclude_from_sim no)
		(in_bom yes)
		(on_board yes)
		(dnp no)
		(uuid "00000000-0000-0000-0000-00005f81d691")
		(property "Reference" "C245"
			(at 102.9462 97.8916 0)
			(effects
				(font
					(size 1.27 1.27)
				)
				(justify left)
			)
		)
		(property "Value" "0.1uF 25V"
			(at 102.9462 100.203 0)
			(effects
				(font
					(size 1.27 1.27)
				)
				(justify left)
			)
		)
		(property "Footprint" "Capacitor_SMD:C_0402_1005Metric"
			(at 100.33 97.79 0)
			(effects
				(font
					(size 1.27 1.27)
				)
				(hide yes)
			)
		)
		(property "Datasheet" ""
			(at 100.33 97.79 0)
			(effects
				(font
					(size 1.27 1.27)
				)
				(hide yes)
			)
		)
		(property "Description" ""
			(at 100.33 99.06 0)
			(effects
				(font
					(size 1.27 1.27)
				)
				(hide yes)
			)
		)
		(pin "1"
			(uuid "c2694100-99d1-4abf-8649-4b44982c604e")
		)
		(pin "2"
			(uuid "0d434b2c-dcb8-4cb8-8d17-6780a22d66a1")
		)
		(instances
			(project "carrier"
				(path "/c546581a-7b71-4c20-b442-88ef38f8e5a8/00000000-0000-0000-0000-00005b8ec3b5/00000000-0000-0000-0000-00005e741de5"
					(reference "C245")
					(unit 1)
				)
			)
		)
	)
	(symbol
		(lib_id "power:GND_LOGIC")
		(at 100.33 102.87 0)
		(unit 1)
		(exclude_from_sim no)
		(in_bom yes)
		(on_board yes)
		(dnp no)
		(uuid "00000000-0000-0000-0000-00005f81d697")
		(property "Reference" "#PWR0371"
			(at 100.33 109.22 0)
			(effects
				(font
					(size 1.27 1.27)
				)
				(hide yes)
			)
		)
		(property "Value" "GND_LOGIC"
			(at 100.457 107.2642 0)
			(effects
				(font
					(size 1.27 1.27)
				)
			)
		)
		(property "Footprint" ""
			(at 100.33 102.87 0)
			(effects
				(font
					(size 1.27 1.27)
				)
				(hide yes)
			)
		)
		(property "Datasheet" ""
			(at 100.33 102.87 0)
			(effects
				(font
					(size 1.27 1.27)
				)
				(hide yes)
			)
		)
		(property "Description" ""
			(at 100.33 102.87 0)
			(effects
				(font
					(size 1.27 1.27)
				)
				(hide yes)
			)
		)
		(pin "1"
			(uuid "3f92a394-7171-4779-a785-7e20d1936a87")
		)
		(instances
			(project "carrier"
				(path "/c546581a-7b71-4c20-b442-88ef38f8e5a8/00000000-0000-0000-0000-00005b8ec3b5/00000000-0000-0000-0000-00005e741de5"
					(reference "#PWR0371")
					(unit 1)
				)
			)
		)
	)
)
