EESchema Schematic File Version 4
LIBS:carrier-cache
EELAYER 26 0
EELAYER END
$Descr A4 11693 8268
encoding utf-8
Sheet 12 18
Title ""
Date ""
Rev ""
Comp ""
Comment1 ""
Comment2 ""
Comment3 ""
Comment4 ""
$EndDescr
Text Label 1100 1450 0    50   ~ 0
UART_Tx_CONN
Text Label 1100 1550 0    50   ~ 0
UART_Rx_CONN
$Comp
L ft232rq:FT232RQ U?
U 1 1 5C0E4A54
P 2650 2150
AR Path="/5BA90F8F/5C0E4A54" Ref="U?"  Part="1" 
AR Path="/5BA90F8F/5C0E31CA/5C0E4A54" Ref="U?"  Part="1" 
F 0 "U?" H 3100 3050 60  0000 C CNN
F 1 "FT232RQ" H 3100 1250 60  0000 C CNN
F 2 "" H 2650 1500 60  0000 C CNN
F 3 "" H 2650 1500 60  0000 C CNN
	1    2650 2150
	1    0    0    -1  
$EndComp
$Comp
L Connector:USB_B_Micro J?
U 1 1 5C0E4A5B
P 5150 1450
AR Path="/5BA90F8F/5C0E4A5B" Ref="J?"  Part="1" 
AR Path="/5BA90F8F/5C0E31CA/5C0E4A5B" Ref="J?"  Part="1" 
F 0 "J?" H 5000 1850 50  0000 R CNN
F 1 "USB_B_Micro" V 4850 1600 50  0000 R CNN
F 2 "" H 5300 1400 50  0001 C CNN
F 3 "" H 5300 1400 50  0001 C CNN
	1    5150 1450
	-1   0    0    -1  
$EndComp
Wire Wire Line
	3500 1450 4850 1450
Wire Wire Line
	4850 1550 3500 1550
Text Label 3650 1250 0    50   ~ 0
USB_5V
Wire Wire Line
	4850 1250 4650 1250
$Comp
L power:GND_LOGIC #PWR?
U 1 1 5C0E4A66
P 5150 1850
AR Path="/5B900E96/5C0E4A66" Ref="#PWR?"  Part="1" 
AR Path="/5BA90F8F/5C0E4A66" Ref="#PWR?"  Part="1" 
AR Path="/5BA90F8F/5C0E31CA/5C0E4A66" Ref="#PWR?"  Part="1" 
F 0 "#PWR?" H 5150 1600 50  0001 C CNN
F 1 "GND_LOGIC" H 5155 1677 50  0000 C CNN
F 2 "" H 5150 1850 50  0001 C CNN
F 3 "" H 5150 1850 50  0001 C CNN
	1    5150 1850
	-1   0    0    -1  
$EndComp
$Comp
L passives:R R?
U 1 1 5C0E4A6C
P 4450 1350
AR Path="/5BA90F8F/5C0E4A6C" Ref="R?"  Part="1" 
AR Path="/5BA90F8F/5C0E31CA/5C0E4A6C" Ref="R?"  Part="1" 
F 0 "R?" V 4500 1500 50  0000 C CNN
F 1 "4.7k" V 4450 1350 50  0000 C CNN
F 2 "" H 4450 1350 50  0001 C CNN
F 3 "" H 4450 1350 50  0001 C CNN
	1    4450 1350
	0    1    1    0   
$EndComp
$Comp
L passives:R R?
U 1 1 5C0E4A73
P 4250 2050
AR Path="/5BA90F8F/5C0E4A73" Ref="R?"  Part="1" 
AR Path="/5BA90F8F/5C0E31CA/5C0E4A73" Ref="R?"  Part="1" 
F 0 "R?" H 4318 2096 50  0000 L CNN
F 1 "10k" V 4250 2000 50  0000 L CNN
F 2 "" H 4250 2050 50  0001 C CNN
F 3 "" H 4250 2050 50  0001 C CNN
	1    4250 2050
	1    0    0    -1  
$EndComp
NoConn ~ 3500 2050
NoConn ~ 3500 2150
Wire Wire Line
	3500 1750 4250 1750
Wire Wire Line
	4250 1750 4250 1350
Wire Wire Line
	4250 1750 4250 1850
Connection ~ 4250 1750
Wire Wire Line
	4650 1350 4650 1250
Connection ~ 4650 1250
Wire Wire Line
	4650 1250 3650 1250
$Comp
L power:GND_LOGIC #PWR?
U 1 1 5C0E4A83
P 4250 2250
AR Path="/5B900E96/5C0E4A83" Ref="#PWR?"  Part="1" 
AR Path="/5BA90F8F/5C0E4A83" Ref="#PWR?"  Part="1" 
AR Path="/5BA90F8F/5C0E31CA/5C0E4A83" Ref="#PWR?"  Part="1" 
F 0 "#PWR?" H 4250 2000 50  0001 C CNN
F 1 "GND_LOGIC" H 4255 2077 50  0000 C CNN
F 2 "" H 4250 2250 50  0001 C CNN
F 3 "" H 4250 2250 50  0001 C CNN
	1    4250 2250
	-1   0    0    -1  
$EndComp
$Comp
L power:GND_LOGIC #PWR?
U 1 1 5C0E4A89
P 3700 3450
AR Path="/5B900E96/5C0E4A89" Ref="#PWR?"  Part="1" 
AR Path="/5BA90F8F/5C0E4A89" Ref="#PWR?"  Part="1" 
AR Path="/5BA90F8F/5C0E31CA/5C0E4A89" Ref="#PWR?"  Part="1" 
F 0 "#PWR?" H 3700 3200 50  0001 C CNN
F 1 "GND_LOGIC" H 3705 3277 50  0000 C CNN
F 2 "" H 3700 3450 50  0001 C CNN
F 3 "" H 3700 3450 50  0001 C CNN
	1    3700 3450
	-1   0    0    -1  
$EndComp
Wire Wire Line
	3700 3450 3700 3350
Wire Wire Line
	3700 3350 3500 3350
Wire Wire Line
	2450 3350 2450 3250
Wire Wire Line
	2550 3250 2550 3350
Connection ~ 2550 3350
Wire Wire Line
	2550 3350 2450 3350
Wire Wire Line
	2650 3250 2650 3350
Connection ~ 2650 3350
Wire Wire Line
	2650 3350 2550 3350
Wire Wire Line
	2750 3250 2750 3350
Connection ~ 2750 3350
Wire Wire Line
	2750 3350 2650 3350
Wire Wire Line
	2850 3250 2850 3350
Connection ~ 2850 3350
Wire Wire Line
	2850 3350 2750 3350
Wire Wire Line
	1800 1450 1100 1450
Wire Wire Line
	1800 1550 1100 1550
Text Label 1250 700  0    50   ~ 0
USB_5V
$Comp
L passives:C C?
U 1 1 5C0E4AA1
P 3700 2850
AR Path="/5BA90F8F/5C0E4AA1" Ref="C?"  Part="1" 
AR Path="/5BA90F8F/5C0E31CA/5C0E4AA1" Ref="C?"  Part="1" 
F 0 "C?" H 3803 2896 50  0000 L CNN
F 1 "100nF" H 3803 2805 50  0000 L CNN
F 2 "" H 3700 2900 50  0001 C CNN
F 3 "" H 3700 2900 50  0001 C CNN
	1    3700 2850
	1    0    0    -1  
$EndComp
Wire Wire Line
	3500 2500 3700 2500
Wire Wire Line
	3700 2500 3700 2700
Wire Wire Line
	3700 3000 3700 3350
Connection ~ 3700 3350
Wire Wire Line
	3500 2800 3500 3350
Connection ~ 3500 3350
Wire Wire Line
	3500 3350 2850 3350
$Comp
L passives:INDUCTOR L?
U 1 1 5C0E4AAF
P 1800 700
AR Path="/5BA90F8F/5C0E4AAF" Ref="L?"  Part="1" 
AR Path="/5BA90F8F/5C0E31CA/5C0E4AAF" Ref="L?"  Part="1" 
F 0 "L?" H 1800 903 50  0000 C CNN
F 1 "INDUCTOR" H 1800 812 50  0000 C CNN
F 2 "" H 1800 700 50  0001 C CNN
F 3 "" H 1800 700 50  0001 C CNN
	1    1800 700 
	1    0    0    -1  
$EndComp
$Comp
L passives:C C?
U 1 1 5C0E4AB6
P 1600 900
AR Path="/5BA90F8F/5C0E4AB6" Ref="C?"  Part="1" 
AR Path="/5BA90F8F/5C0E31CA/5C0E4AB6" Ref="C?"  Part="1" 
F 0 "C?" H 1450 1000 50  0000 L CNN
F 1 "10nF" H 1400 800 50  0000 L CNN
F 2 "" H 1600 950 50  0001 C CNN
F 3 "" H 1600 950 50  0001 C CNN
	1    1600 900 
	1    0    0    -1  
$EndComp
$Comp
L passives:C C?
U 1 1 5C0E4ABD
P 2000 900
AR Path="/5BA90F8F/5C0E4ABD" Ref="C?"  Part="1" 
AR Path="/5BA90F8F/5C0E31CA/5C0E4ABD" Ref="C?"  Part="1" 
F 0 "C?" H 1850 1000 50  0000 L CNN
F 1 "100nF" H 1750 800 50  0000 L CNN
F 2 "" H 2000 950 50  0001 C CNN
F 3 "" H 2000 950 50  0001 C CNN
	1    2000 900 
	1    0    0    -1  
$EndComp
$Comp
L passives:C C?
U 1 1 5C0E4AC4
P 2200 900
AR Path="/5BA90F8F/5C0E4AC4" Ref="C?"  Part="1" 
AR Path="/5BA90F8F/5C0E31CA/5C0E4AC4" Ref="C?"  Part="1" 
F 0 "C?" H 2250 1000 50  0000 L CNN
F 1 "4.7uF" H 2250 800 50  0000 L CNN
F 2 "" H 2200 950 50  0001 C CNN
F 3 "" H 2200 950 50  0001 C CNN
	1    2200 900 
	1    0    0    -1  
$EndComp
$Comp
L power:GND_LOGIC #PWR?
U 1 1 5C0E4ACB
P 1550 1150
AR Path="/5B900E96/5C0E4ACB" Ref="#PWR?"  Part="1" 
AR Path="/5BA90F8F/5C0E4ACB" Ref="#PWR?"  Part="1" 
AR Path="/5BA90F8F/5C0E31CA/5C0E4ACB" Ref="#PWR?"  Part="1" 
F 0 "#PWR?" H 1550 900 50  0001 C CNN
F 1 "GND_LOGIC" H 1555 977 50  0000 C CNN
F 2 "" H 1550 1150 50  0001 C CNN
F 3 "" H 1550 1150 50  0001 C CNN
	1    1550 1150
	-1   0    0    -1  
$EndComp
Wire Wire Line
	1550 1150 1550 1100
Wire Wire Line
	1550 1100 1600 1100
Wire Wire Line
	1600 1100 1600 1050
Wire Wire Line
	1600 1100 2000 1100
Wire Wire Line
	2000 1100 2000 1050
Connection ~ 1600 1100
Wire Wire Line
	2000 1100 2200 1100
Wire Wire Line
	2200 1100 2200 1050
Connection ~ 2000 1100
Wire Wire Line
	1600 750  1600 700 
Wire Wire Line
	1600 700  1650 700 
Wire Wire Line
	1950 700  2000 700 
Wire Wire Line
	2000 700  2000 750 
Wire Wire Line
	2200 700  2200 750 
Wire Wire Line
	2000 700  2200 700 
Connection ~ 2000 700 
Wire Wire Line
	2550 700  2550 1050
Wire Wire Line
	1600 700  1250 700 
Connection ~ 1600 700 
Wire Wire Line
	2200 700  2550 700 
Connection ~ 2200 700 
Text Label 3500 2500 0    50   ~ 0
FT_3V3
Text Label 3050 1000 2    50   ~ 0
FT_3V3
Wire Wire Line
	2750 1050 2750 1000
Wire Wire Line
	2750 1000 3050 1000
NoConn ~ 1800 1750
NoConn ~ 1800 1850
NoConn ~ 1800 2050
NoConn ~ 1800 2150
NoConn ~ 1800 2250
NoConn ~ 1800 2450
NoConn ~ 1800 2550
NoConn ~ 1800 2650
NoConn ~ 5250 1850
NoConn ~ 4850 1650
Text Label 850  1950 0    50   ~ 0
USB_UART_EN
Text Label 1300 2750 0    50   ~ 0
UART_Tx_LED
Text Label 1300 2850 0    50   ~ 0
UART_Rx_LED
Wire Wire Line
	850  1950 1400 1950
Text Label 3650 1450 0    50   ~ 0
USB_P
Text Label 3650 1550 0    50   ~ 0
USB_N
$Comp
L passives:R R?
U 1 1 5C0E4B0D
P 1600 1950
AR Path="/5BA90F8F/5C0E4B0D" Ref="R?"  Part="1" 
AR Path="/5BA90F8F/5C0E31CA/5C0E4B0D" Ref="R?"  Part="1" 
F 0 "R?" H 1668 1996 50  0000 L CNN
F 1 "0" V 1600 1900 50  0000 L CNN
F 2 "" H 1600 1950 50  0001 C CNN
F 3 "" H 1600 1950 50  0001 C CNN
	1    1600 1950
	0    1    1    0   
$EndComp
Wire Notes Line
	550  3650 5450 3650
Wire Notes Line
	5450 550  550  550 
Wire Notes Line
	5450 550  5450 3650
Wire Notes Line
	550  550  550  3650
Text Notes 5000 850  2    100  ~ 20
On FP Board
$Comp
L passives:LED D?
U 1 1 5C0E7F80
P 750 2450
F 0 "D?" V 714 2558 70  0000 L CNN
F 1 "LED" V 835 2558 70  0000 L CNN
F 2 "" H 750 2450 60  0000 C CNN
F 3 "" H 750 2450 60  0000 C CNN
	1    750  2450
	0    1    1    0   
$EndComp
$Comp
L passives:LED D?
U 1 1 5C0E9692
P 1100 2450
F 0 "D?" V 1064 2558 70  0000 L CNN
F 1 "LED" V 1185 2558 70  0000 L CNN
F 2 "" H 1100 2450 60  0000 C CNN
F 3 "" H 1100 2450 60  0000 C CNN
	1    1100 2450
	0    1    1    0   
$EndComp
Wire Wire Line
	1100 2750 1100 2650
Wire Wire Line
	1100 2750 1800 2750
Wire Wire Line
	750  2850 750  2650
Wire Wire Line
	750  2850 1800 2850
Text Label 1200 2200 0    50   ~ 0
FT_3V3
Wire Wire Line
	750  2200 750  2300
Wire Wire Line
	1100 2300 1100 2200
Connection ~ 1100 2200
Wire Wire Line
	1100 2200 750  2200
Wire Wire Line
	1100 2200 1450 2200
$Comp
L Connector:SD_Card J?
U 1 1 5C0FC659
P 9550 1400
F 0 "J?" H 9550 2065 50  0000 C CNN
F 1 "SD_Card" H 9550 1974 50  0000 C CNN
F 2 "" H 9550 1400 50  0001 C CNN
F 3 "" H 9550 1400 50  0001 C CNN
	1    9550 1400
	1    0    0    -1  
$EndComp
Text Notes 900  4000 0    50   ~ 0
Shift register for LEDs\n1727-4527-6-ND
$Comp
L power:GND_LOGIC #PWR?
U 1 1 5BE65B56
P 2150 7000
F 0 "#PWR?" H 2150 6750 50  0001 C CNN
F 1 "GND_LOGIC" H 2155 6827 50  0000 C CNN
F 2 "" H 2150 7000 50  0001 C CNN
F 3 "" H 2150 7000 50  0001 C CNN
	1    2150 7000
	1    0    0    -1  
$EndComp
Text GLabel 1700 5600 0    50   Input ~ 0
ETH_FP_BIA_P
Text GLabel 1700 5700 0    50   Input ~ 0
ETH_FP_BIA_N
Text GLabel 1700 5800 0    50   Input ~ 0
ETH_FP_BIB_P
Text GLabel 1700 5900 0    50   Input ~ 0
ETH_FP_BIB_N
Text GLabel 1700 6000 0    50   Input ~ 0
ETH_FP_BIC_P
Text GLabel 1700 6100 0    50   Input ~ 0
ETH_FP_BIC_N
Text GLabel 1700 6200 0    50   Input ~ 0
ETH_FP_BID_P
Text GLabel 1700 6300 0    50   Input ~ 0
ETH_FP_BID_N
Text GLabel 2150 5600 2    50   BiDi ~ 0
SDCARD_D3
Text GLabel 2150 5700 2    50   BiDi ~ 0
SDCARD_D2
Text GLabel 2150 5800 2    50   BiDi ~ 0
SDCARD_D1
Text GLabel 2150 5900 2    50   BiDi ~ 0
SDCARD_D0
Text GLabel 2150 6000 2    50   BiDi ~ 0
SDCARD_CMD
Text GLabel 2150 6100 2    50   Output ~ 0
SDCARD_CLK
Text Notes 3250 5300 2    100  ~ 20
Micro SD Card
Text Notes 2800 5500 2    50   ~ 0
Mux/level shifter\nTXS02612RTWR
Text GLabel 2150 6800 2    50   Output ~ 0
UART_Tx_CONN
Text GLabel 2150 6900 2    50   Input ~ 0
UART_Rx_CONN
Text GLabel 2150 6700 2    50   Output ~ 0
USB_UART_EN
Text GLabel 1700 6750 0    50   Input ~ 0
LED_SDA
Text GLabel 1700 6850 0    50   Input ~ 0
LED_SCL
Text GLabel 1700 6950 0    50   Input ~ 0
LED_RST
Text GLabel 2150 6500 2    50   Output ~ 0
RESET
Text Notes 1050 6300 1    50   ~ 0
Ethernet Jack\nMagnetics on ESM
$Comp
L power:+3V3 #PWR?
U 1 1 5BE678A6
P 1250 7250
F 0 "#PWR?" H 1250 7100 50  0001 C CNN
F 1 "+3V3" H 1265 7423 50  0000 C CNN
F 2 "" H 1250 7250 50  0001 C CNN
F 3 "" H 1250 7250 50  0001 C CNN
	1    1250 7250
	1    0    0    -1  
$EndComp
$EndSCHEMATC
