(module DDPAK-5_Q (layer F.Cu) (tedit 5C895B4B)
  (attr smd)
  (fp_text reference U17 (at -6.306848 -5.502082) (layer F.SilkS)
    (effects (font (size 1 1) (thickness 0.15)))
  )
  (fp_text value LT1764A-1.8 (at -2.9116 10.6536) (layer F.SilkS) hide
    (effects (font (size 0.314961 0.314961) (thickness 0.05)))
  )
  (fp_line (start -5.588 -5.4864) (end -5.588 5.4356) (layer F.SilkS) (width 0.1524))
  (fp_line (start 5.588 -5.461) (end -5.588 -5.461) (layer F.SilkS) (width 0.1524))
  (fp_line (start 5.588 5.461) (end 5.588 -5.461) (layer F.SilkS) (width 0.1524))
  (fp_line (start -5.588 5.461) (end 5.588 5.461) (layer F.SilkS) (width 0.1524))
  (fp_line (start 4.318 9.525) (end 4.318 5.588) (layer F.SilkS) (width 0.1524))
  (fp_line (start 2.921 9.398) (end 3.8862 9.398) (layer Dwgs.User) (width 0.1524))
  (fp_line (start 3.8862 5.461) (end 2.921 5.461) (layer Dwgs.User) (width 0.1524))
  (fp_line (start 1.2192 9.398) (end 2.1844 9.398) (layer Dwgs.User) (width 0.1524))
  (fp_line (start 2.1844 5.461) (end 1.2192 5.461) (layer Dwgs.User) (width 0.1524))
  (fp_line (start -0.4826 9.398) (end 0.4826 9.398) (layer Dwgs.User) (width 0.1524))
  (fp_line (start 0.4826 5.461) (end -0.4826 5.461) (layer Dwgs.User) (width 0.1524))
  (fp_line (start -2.1844 9.398) (end -1.2192 9.398) (layer Dwgs.User) (width 0.1524))
  (fp_line (start -1.2192 5.461) (end -2.1844 5.461) (layer Dwgs.User) (width 0.1524))
  (fp_line (start -3.8862 9.398) (end -2.921 9.398) (layer Dwgs.User) (width 0.1524))
  (fp_line (start -4.318 5.588) (end -4.318 9.525) (layer F.SilkS) (width 0.1524))
  (fp_line (start -2.921 5.461) (end -3.8862 5.461) (layer Dwgs.User) (width 0.1524))
  (pad PAD smd rect (at 0 0) (size 10.668 8.89) (layers F.Cu F.Paste F.Mask)
    (zone_connect 1) (thermal_width 2.54) (thermal_gap 0.254))
  (pad 5 smd rect (at 3.4036 9.271) (size 1.0668 2.286) (layers F.Cu F.Paste F.Mask))
  (pad 4 smd rect (at 1.7018 9.271) (size 1.0668 2.286) (layers F.Cu F.Paste F.Mask))
  (pad 3 smd rect (at 0 9.271) (size 1.0668 2.286) (layers F.Cu F.Paste F.Mask))
  (pad 2 smd rect (at -1.7018 9.271) (size 1.0668 2.286) (layers F.Cu F.Paste F.Mask))
  (pad 1 smd rect (at -3.4036 9.271) (size 1.0668 2.286) (layers F.Cu F.Paste F.Mask))
  (model ${KIPRJMOD}/mod/Package_TO_SOT_SMD.pretty/mod_3D/LT1764AEQ-1.8_PBF.step
    (offset (xyz 0 -1.904999971389771 0))
    (scale (xyz 1 1 1))
    (rotate (xyz 0 0 0))
  )
)
