(footprint "DDC0006A_N" (version 20211014) (generator pcbnew)
  (layer "F.Cu")
  (tags "TPS3701DDCR ")
  (attr smd)
  (fp_text reference "REF**" (at 0 0 unlocked) (layer F.SilkS)
    (effects (font (size 1 1) (thickness 0.15)))
  )
  (fp_text value DDC0006A_N (at 0 0 unlocked) (layer F.Fab)
    (effects (font (size 1 1) (thickness 0.15)))
  )
  (fp_text user "${REFERENCE}" (at 0 0 unlocked) (layer F.Fab)
    (effects (font (size 1 1) (thickness 0.15)))
  )
  (fp_line (start -0.8763 1.524) (end 0.8763 1.524) (layer "F.SilkS") (width 0.1524))
  (fp_line (start -0.8763 -1.524) (end 0.8763 -1.524) (layer "F.SilkS") (width 0.1524))
  (fp_line (start 0.896427 0.734997) (end 1.12175 0.734997) (layer "F.Fab") (width 0.127))
  (fp_line (start 1.430589 1.134996) (end 1.430589 0.734997) (layer "F.Fab") (width 0.127))
  (fp_line (start 1.152484 0.734997) (end 1.244763 0.734997) (layer "F.Fab") (width 0.127))
  (fp_line (start 1.244763 1.134996) (end 1.430589 1.134996) (layer "F.Fab") (width 0.127))
  (fp_line (start 1.12175 0.734997) (end 1.152484 0.734997) (layer "F.Fab") (width 0.127))
  (fp_line (start 1.244763 0.734997) (end 1.430589 0.734997) (layer "F.Fab") (width 0.127))
  (fp_line (start 1.12175 1.134996) (end 1.152484 1.134996) (layer "F.Fab") (width 0.127))
  (fp_line (start 0.896427 1.134996) (end 1.12175 1.134996) (layer "F.Fab") (width 0.127))
  (fp_line (start 1.152484 1.134996) (end 1.244763 1.134996) (layer "F.Fab") (width 0.127))
  (fp_line (start 0.794751 0.734997) (end 0.896427 0.734997) (layer "F.Fab") (width 0.127))
  (fp_line (start 0.794751 1.134996) (end 0.896427 1.134996) (layer "F.Fab") (width 0.127))
  (fp_line (start 0.896427 -0.214988) (end 1.12175 -0.214988) (layer "F.Fab") (width 0.127))
  (fp_line (start 1.430589 0.185011) (end 1.430589 -0.214988) (layer "F.Fab") (width 0.127))
  (fp_line (start 1.152484 -0.214988) (end 1.244763 -0.214988) (layer "F.Fab") (width 0.127))
  (fp_line (start 1.244763 0.185011) (end 1.430589 0.185011) (layer "F.Fab") (width 0.127))
  (fp_line (start 1.12175 -0.214988) (end 1.152484 -0.214988) (layer "F.Fab") (width 0.127))
  (fp_line (start 1.244763 -0.214988) (end 1.430589 -0.214988) (layer "F.Fab") (width 0.127))
  (fp_line (start 1.12175 0.185011) (end 1.152484 0.185011) (layer "F.Fab") (width 0.127))
  (fp_line (start 0.896427 0.185011) (end 1.12175 0.185011) (layer "F.Fab") (width 0.127))
  (fp_line (start 1.152484 0.185011) (end 1.244763 0.185011) (layer "F.Fab") (width 0.127))
  (fp_line (start 0.794751 -0.214988) (end 0.896427 -0.214988) (layer "F.Fab") (width 0.127))
  (fp_line (start 0.794751 0.185011) (end 0.896427 0.185011) (layer "F.Fab") (width 0.127))
  (fp_line (start 0.896427 -1.164999) (end 1.12175 -1.164999) (layer "F.Fab") (width 0.127))
  (fp_line (start 1.430589 -0.765) (end 1.430589 -1.164999) (layer "F.Fab") (width 0.127))
  (fp_line (start 1.152484 -1.164999) (end 1.244763 -1.164999) (layer "F.Fab") (width 0.127))
  (fp_line (start 1.244763 -0.765) (end 1.430589 -0.765) (layer "F.Fab") (width 0.127))
  (fp_line (start 1.12175 -1.164999) (end 1.152484 -1.164999) (layer "F.Fab") (width 0.127))
  (fp_line (start 1.244763 -1.164999) (end 1.430589 -1.164999) (layer "F.Fab") (width 0.127))
  (fp_line (start 1.12175 -0.765) (end 1.152484 -0.765) (layer "F.Fab") (width 0.127))
  (fp_line (start 0.896427 -0.765) (end 1.12175 -0.765) (layer "F.Fab") (width 0.127))
  (fp_line (start 1.152484 -0.765) (end 1.244763 -0.765) (layer "F.Fab") (width 0.127))
  (fp_line (start 0.794751 -1.164999) (end 0.896427 -1.164999) (layer "F.Fab") (width 0.127))
  (fp_line (start 0.794751 -0.765) (end 0.896427 -0.765) (layer "F.Fab") (width 0.127))
  (fp_line (start -1.128258 1.134996) (end -0.90296 1.134996) (layer "F.Fab") (width 0.127))
  (fp_line (start -1.437122 1.134996) (end -1.437122 0.734997) (layer "F.Fab") (width 0.127))
  (fp_line (start -1.251295 1.134996) (end -1.159017 1.134996) (layer "F.Fab") (width 0.127))
  (fp_line (start -1.437122 0.734997) (end -1.251295 0.734997) (layer "F.Fab") (width 0.127))
  (fp_line (start -1.159017 1.134996) (end -1.128258 1.134996) (layer "F.Fab") (width 0.127))
  (fp_line (start -1.437122 1.134996) (end -1.251295 1.134996) (layer "F.Fab") (width 0.127))
  (fp_line (start -1.159017 0.734997) (end -1.128258 0.734997) (layer "F.Fab") (width 0.127))
  (fp_line (start -1.128258 0.734997) (end -0.90296 0.734997) (layer "F.Fab") (width 0.127))
  (fp_line (start -1.251295 0.734997) (end -1.159017 0.734997) (layer "F.Fab") (width 0.127))
  (fp_line (start -0.90296 1.134996) (end -0.801258 1.134996) (layer "F.Fab") (width 0.127))
  (fp_line (start -0.90296 0.734997) (end -0.801258 0.734997) (layer "F.Fab") (width 0.127))
  (fp_line (start -1.128258 0.185011) (end -0.90296 0.185011) (layer "F.Fab") (width 0.127))
  (fp_line (start -1.437122 0.185011) (end -1.437122 -0.214988) (layer "F.Fab") (width 0.127))
  (fp_line (start -1.251295 0.185011) (end -1.159017 0.185011) (layer "F.Fab") (width 0.127))
  (fp_line (start -1.437122 -0.214988) (end -1.251295 -0.214988) (layer "F.Fab") (width 0.127))
  (fp_line (start -1.159017 0.185011) (end -1.128258 0.185011) (layer "F.Fab") (width 0.127))
  (fp_line (start -1.437122 0.185011) (end -1.251295 0.185011) (layer "F.Fab") (width 0.127))
  (fp_line (start -1.159017 -0.214988) (end -1.128258 -0.214988) (layer "F.Fab") (width 0.127))
  (fp_line (start -1.128258 -0.214988) (end -0.90296 -0.214988) (layer "F.Fab") (width 0.127))
  (fp_line (start -1.251295 -0.214988) (end -1.159017 -0.214988) (layer "F.Fab") (width 0.127))
  (fp_line (start -0.90296 0.185011) (end -0.801258 0.185011) (layer "F.Fab") (width 0.127))
  (fp_line (start -0.90296 -0.214988) (end -0.801258 -0.214988) (layer "F.Fab") (width 0.127))
  (fp_line (start -1.128258 -0.765) (end -0.90296 -0.765) (layer "F.Fab") (width 0.127))
  (fp_line (start -1.437122 -0.765) (end -1.437122 -1.164999) (layer "F.Fab") (width 0.127))
  (fp_line (start -1.251295 -0.765) (end -1.159017 -0.765) (layer "F.Fab") (width 0.127))
  (fp_line (start -1.437122 -1.164999) (end -1.251295 -1.164999) (layer "F.Fab") (width 0.127))
  (fp_line (start -1.159017 -0.765) (end -1.128258 -0.765) (layer "F.Fab") (width 0.127))
  (fp_line (start -1.437122 -0.765) (end -1.251295 -0.765) (layer "F.Fab") (width 0.127))
  (fp_line (start -1.159017 -1.164999) (end -1.128258 -1.164999) (layer "F.Fab") (width 0.127))
  (fp_line (start -1.128258 -1.164999) (end -0.90296 -1.164999) (layer "F.Fab") (width 0.127))
  (fp_line (start -1.251295 -1.164999) (end -1.159017 -1.164999) (layer "F.Fab") (width 0.127))
  (fp_line (start -0.90296 -0.765) (end -0.801258 -0.765) (layer "F.Fab") (width 0.127))
  (fp_line (start -0.90296 -1.164999) (end -0.801258 -1.164999) (layer "F.Fab") (width 0.127))
  (fp_line (start -0.828258 1.395499) (end -0.828258 1.391765) (layer "F.Fab") (width 0.127))
  (fp_line (start -0.75376 -1.5) (end -0.750001 -1.5) (layer "F.Fab") (width 0.127))
  (fp_line (start -0.75376 1.469997) (end -0.750001 1.469997) (layer "F.Fab") (width 0.127))
  (fp_line (start 0.821751 -1.421742) (end 0.821751 -1.425501) (layer "F.Fab") (width 0.127))
  (fp_line (start 0.743494 -1.5) (end 0.747253 -1.5) (layer "F.Fab") (width 0.127))
  (fp_line (start 0.743494 1.469997) (end 0.747253 1.469997) (layer "F.Fab") (width 0.127))
  (fp_line (start 0.821751 1.395499) (end 0.821751 1.391765) (layer "F.Fab") (width 0.127))
  (fp_line (start -0.828258 -1.164999) (end -0.828258 -1.421742) (layer "F.Fab") (width 0.127))
  (fp_line (start -0.828258 -0.214988) (end -0.828258 -0.765) (layer "F.Fab") (width 0.127))
  (fp_line (start -0.828258 0.734997) (end -0.828258 0.185011) (layer "F.Fab") (width 0.127))
  (fp_line (start -0.828258 1.391765) (end -0.828258 1.134996) (layer "F.Fab") (width 0.127))
  (fp_line (start -0.750001 -1.5) (end 0.743494 -1.5) (layer "F.Fab") (width 0.127))
  (fp_line (start -0.828258 -1.421742) (end -0.828258 -1.425501) (layer "F.Fab") (width 0.127))
  (fp_line (start -0.750001 1.469997) (end 0.743494 1.469997) (layer "F.Fab") (width 0.127))
  (fp_line (start 0.821751 -1.164999) (end 0.821751 -1.421742) (layer "F.Fab") (width 0.127))
  (fp_line (start 0.821751 -0.214988) (end 0.821751 -0.765) (layer "F.Fab") (width 0.127))
  (fp_line (start 0.821751 0.734997) (end 0.821751 0.185011) (layer "F.Fab") (width 0.127))
  (fp_line (start 0.821751 1.391765) (end 0.821751 1.134996) (layer "F.Fab") (width 0.127))
  (fp_arc (start 0.3048 -1.524) (mid 0 -1.2192) (end -0.3048 -1.524) (layer "F.SilkS") (width 0.1524))
  (fp_arc (start -0.280761 -1.017679) (mid -0.429542 -0.868898) (end -0.578322 -1.017679) (layer "F.Fab") (width 0.127))
  (fp_arc (start -0.578322 -1.017679) (mid -0.429542 -1.166459) (end -0.280761 -1.017679) (layer "F.Fab") (width 0.127))
  (pad "1" smd rect (at -1.2192 -0.950001) (size 1.27 0.508) (layers "F.Cu" "F.Paste" "F.Mask"))
  (pad "2" smd rect (at -1.2192 0) (size 1.27 0.508) (layers "F.Cu" "F.Paste" "F.Mask"))
  (pad "3" smd rect (at -1.2192 0.950001) (size 1.27 0.508) (layers "F.Cu" "F.Paste" "F.Mask"))
  (pad "4" smd rect (at 1.2192 0.950001) (size 1.27 0.508) (layers "F.Cu" "F.Paste" "F.Mask"))
  (pad "5" smd rect (at 1.2192 0) (size 1.27 0.508) (layers "F.Cu" "F.Paste" "F.Mask"))
  (pad "6" smd rect (at 1.2192 -0.950001) (size 1.27 0.508) (layers "F.Cu" "F.Paste" "F.Mask"))
)
