(footprint "Zone2_connector_ADFplus" (version 20221018) (generator pcbnew)
  (layer "F.Cu")
  (attr through_hole)
  (fp_text reference "REF**" (at -13.716 -1.905) (layer "F.SilkS")
      (effects (font (size 1.778 1.778) (thickness 0.3048)))
    (tstamp 01d975b5-b8a7-4874-afaf-0c004f7f14be)
  )
  (fp_text value "${REFERENCE}" (at -8.255 11.303) (layer "F.Fab")
      (effects (font (size 1 1) (thickness 0.15)))
    (tstamp cd9c297c-de89-4e67-9035-96607a5df12d)
  )
  (fp_line (start -17.2 -0.762) (end 10.7 -0.762)
    (stroke (width 0.15) (type solid)) (layer "F.SilkS") (tstamp 6970e384-8835-4393-a0b5-12ad3b04d41c))
  (fp_line (start -17.2 24.188) (end -17.2 -0.762)
    (stroke (width 0.15) (type solid)) (layer "F.SilkS") (tstamp 37ec0896-6a5d-460e-adbc-bce8b411979c))
  (fp_line (start -17.2 24.2) (end 10.7 24.2)
    (stroke (width 0.15) (type solid)) (layer "F.SilkS") (tstamp 315fb3ab-f59b-4bc4-92f7-aff3ec0fece7))
  (fp_line (start 2.1 24.2) (end 2.1 -0.75)
    (stroke (width 0.15) (type solid)) (layer "F.SilkS") (tstamp f7c8f691-aefd-4882-bf4c-c4f5d86acff4))
  (fp_line (start 10.7 24.2) (end 10.7 -0.75)
    (stroke (width 0.15) (type solid)) (layer "F.SilkS") (tstamp 5b95be0e-ea55-41c3-b6b3-776e55e99c37))
  (pad "1A" thru_hole circle (at 0 0) (size 0.92 0.92) (drill 0.46) (layers "*.Cu" "*.Mask") (tstamp 2084081d-5c71-45f2-be88-fcf82185eb9e))
  (pad "1B" thru_hole circle (at -1.2 0) (size 0.92 0.92) (drill 0.46) (layers "*.Cu" "*.Mask") (tstamp 94a948ff-fef7-4697-8419-3c0d4abeaadb))
  (pad "1BG" thru_hole circle (at -2.4 0) (size 0.8 0.8) (drill 0.46) (layers "*.Cu" "*.Mask") (tstamp 36ee5225-a929-4d72-9598-98b3edc43cce))
  (pad "1C" thru_hole circle (at -4.5 0) (size 0.92 0.92) (drill 0.46) (layers "*.Cu" "*.Mask") (tstamp a84c0c9f-03b3-422f-ab66-4edfe46bec59))
  (pad "1D" thru_hole circle (at -5.7 0) (size 0.92 0.92) (drill 0.46) (layers "*.Cu" "*.Mask") (tstamp 4192b2d8-0850-4c21-a522-44ca865eb9ea))
  (pad "1DG" thru_hole circle (at -6.9 0) (size 0.8 0.8) (drill 0.46) (layers "*.Cu" "*.Mask") (tstamp 4a0b8be2-6c70-4b27-bf81-1b26cc578270))
  (pad "1E" thru_hole circle (at -9 0) (size 0.92 0.92) (drill 0.46) (layers "*.Cu" "*.Mask") (tstamp e47f64b0-85e1-4d79-85bd-7c4054341da0))
  (pad "1F" thru_hole circle (at -10.2 0) (size 0.92 0.92) (drill 0.46) (layers "*.Cu" "*.Mask") (tstamp 6b31e310-83e8-4e81-9e1d-21ef78c35174))
  (pad "1FG" thru_hole circle (at -11.4 0) (size 0.8 0.8) (drill 0.46) (layers "*.Cu" "*.Mask") (tstamp 8dbebcce-6be9-4dfd-b762-b7ecc35ad2cf))
  (pad "1G" thru_hole circle (at -13.5 0) (size 0.92 0.92) (drill 0.46) (layers "*.Cu" "*.Mask") (tstamp 1a54dedc-eb83-4dc2-a8c8-fe16a3fcdef1))
  (pad "1H" thru_hole circle (at -14.7 0) (size 0.92 0.92) (drill 0.46) (layers "*.Cu" "*.Mask") (tstamp bf2f0b25-fc03-421d-98bb-97266b8b903c))
  (pad "1HG" thru_hole circle (at -15.9 0) (size 0.8 0.8) (drill 0.46) (layers "*.Cu" "*.Mask") (tstamp 814c42fc-a78b-4535-9052-de87b92849f6))
  (pad "2A" thru_hole circle (at 0 2.5) (size 0.92 0.92) (drill 0.46) (layers "*.Cu" "*.Mask") (tstamp 90bdc341-56c4-455a-aca6-81f0afb4cc4d))
  (pad "2B" thru_hole circle (at -1.2 2.5) (size 0.92 0.92) (drill 0.46) (layers "*.Cu" "*.Mask") (tstamp 7485b473-2863-4c68-b8eb-ea2b697cc6b3))
  (pad "2BG" thru_hole circle (at -2.4 2.5) (size 0.8 0.8) (drill 0.46) (layers "*.Cu" "*.Mask") (tstamp 2548c492-c99a-4ea4-9bea-eecd96090fb0))
  (pad "2C" thru_hole circle (at -4.5 2.5) (size 0.92 0.92) (drill 0.46) (layers "*.Cu" "*.Mask") (tstamp a26bf65f-eb7b-4a6f-bac7-0a7b365c6b1c))
  (pad "2D" thru_hole circle (at -5.7 2.5) (size 0.92 0.92) (drill 0.46) (layers "*.Cu" "*.Mask") (tstamp 7bf27f7e-d109-4ca0-ab90-a61256abb90d))
  (pad "2DG" thru_hole circle (at -6.9 2.5) (size 0.8 0.8) (drill 0.46) (layers "*.Cu" "*.Mask") (tstamp 67d09685-a119-49e7-b74c-d50c1fcefc27))
  (pad "2E" thru_hole circle (at -9 2.5) (size 0.92 0.92) (drill 0.46) (layers "*.Cu" "*.Mask") (tstamp 35b382e3-d4f0-4f9c-b876-c72f4d00c0a2))
  (pad "2F" thru_hole circle (at -10.2 2.5) (size 0.92 0.92) (drill 0.46) (layers "*.Cu" "*.Mask") (tstamp b14f0191-b182-4a7c-b3e3-3166eb5839b8))
  (pad "2FG" thru_hole circle (at -11.4 2.5) (size 0.8 0.8) (drill 0.46) (layers "*.Cu" "*.Mask") (tstamp 89e9c3f5-0558-43f8-bf7c-4bb860de3d84))
  (pad "2G" thru_hole circle (at -13.5 2.5) (size 0.92 0.92) (drill 0.46) (layers "*.Cu" "*.Mask") (tstamp f25703c6-4122-4e4d-9aef-ac271c2ada71))
  (pad "2H" thru_hole circle (at -14.7 2.5) (size 0.92 0.92) (drill 0.46) (layers "*.Cu" "*.Mask") (tstamp 96ee7107-43da-4c77-ad36-4876abadbb5a))
  (pad "2HG" thru_hole circle (at -15.9 2.5) (size 0.8 0.8) (drill 0.46) (layers "*.Cu" "*.Mask") (tstamp a77c04f8-a1d6-4e95-9f33-e8d54cc6f1b2))
  (pad "3A" thru_hole circle (at 0 5) (size 0.92 0.92) (drill 0.46) (layers "*.Cu" "*.Mask") (tstamp c12210da-b6f4-48f7-b700-cff6581c2995))
  (pad "3B" thru_hole circle (at -1.2 5) (size 0.92 0.92) (drill 0.46) (layers "*.Cu" "*.Mask") (tstamp 1dd22c35-58e3-4332-bef0-75b77b6fc76f))
  (pad "3BG" thru_hole circle (at -2.4 5) (size 0.8 0.8) (drill 0.46) (layers "*.Cu" "*.Mask") (tstamp 6e8b92cd-454d-47c5-bd7c-92699459be62))
  (pad "3C" thru_hole circle (at -4.5 5) (size 0.92 0.92) (drill 0.46) (layers "*.Cu" "*.Mask") (tstamp 2e40d685-d7af-40c6-9bb9-730ac2161fea))
  (pad "3D" thru_hole circle (at -5.7 5) (size 0.92 0.92) (drill 0.46) (layers "*.Cu" "*.Mask") (tstamp 5a138892-b0aa-4005-b78f-1449c7719f3b))
  (pad "3DG" thru_hole circle (at -6.9 5) (size 0.8 0.8) (drill 0.46) (layers "*.Cu" "*.Mask") (tstamp 56deded3-ad6f-4869-b426-f7ab15299e9a))
  (pad "3E" thru_hole circle (at -9 5) (size 0.92 0.92) (drill 0.46) (layers "*.Cu" "*.Mask") (tstamp 1b500fca-7ef5-4e31-a9b8-97483f837516))
  (pad "3F" thru_hole circle (at -10.2 5) (size 0.92 0.92) (drill 0.46) (layers "*.Cu" "*.Mask") (tstamp cb7da08a-daf0-42d5-8685-aba9e11ed571))
  (pad "3FG" thru_hole circle (at -11.4 5) (size 0.8 0.8) (drill 0.46) (layers "*.Cu" "*.Mask") (tstamp b5a38224-7bbf-442b-b3f2-d1bc2326f3d6))
  (pad "3G" thru_hole circle (at -13.5 5) (size 0.92 0.92) (drill 0.46) (layers "*.Cu" "*.Mask") (tstamp d5f060e5-9597-49b9-80e0-f2c50ae49c3a))
  (pad "3H" thru_hole circle (at -14.7 5) (size 0.92 0.92) (drill 0.46) (layers "*.Cu" "*.Mask") (tstamp 672e8924-a8b2-4ca4-a31e-8e3f8c12c052))
  (pad "3HG" thru_hole circle (at -15.9 5) (size 0.8 0.8) (drill 0.46) (layers "*.Cu" "*.Mask") (tstamp 4d45c782-5bff-4848-a97f-04274adde1f6))
  (pad "4A" thru_hole circle (at 0 7.5) (size 0.92 0.92) (drill 0.46) (layers "*.Cu" "*.Mask") (tstamp 515e8572-ecd9-426e-bbf5-b69076e8e6e7))
  (pad "4B" thru_hole circle (at -1.2 7.5) (size 0.92 0.92) (drill 0.46) (layers "*.Cu" "*.Mask") (tstamp 0cc3b293-09eb-44b7-a3d0-057447990af3))
  (pad "4BG" thru_hole circle (at -2.4 7.5) (size 0.8 0.8) (drill 0.46) (layers "*.Cu" "*.Mask") (tstamp e985135b-513e-429d-9056-35a5ff1e5e20))
  (pad "4C" thru_hole circle (at -4.5 7.5) (size 0.92 0.92) (drill 0.46) (layers "*.Cu" "*.Mask") (tstamp 6af69396-36a9-449b-99a6-35395050d930))
  (pad "4D" thru_hole circle (at -5.7 7.5) (size 0.92 0.92) (drill 0.46) (layers "*.Cu" "*.Mask") (tstamp dce1743e-bbff-445d-92dd-3f81c78f544c))
  (pad "4DG" thru_hole circle (at -6.9 7.5) (size 0.8 0.8) (drill 0.46) (layers "*.Cu" "*.Mask") (tstamp 9cfec30d-daa6-437a-9d99-e72ecf0deb72))
  (pad "4E" thru_hole circle (at -9 7.5) (size 0.92 0.92) (drill 0.46) (layers "*.Cu" "*.Mask") (tstamp 2261529e-9ff1-430c-bd6f-56cf2fd0c1b5))
  (pad "4F" thru_hole circle (at -10.2 7.5) (size 0.92 0.92) (drill 0.46) (layers "*.Cu" "*.Mask") (tstamp 0126f9d9-51f1-4523-b561-9750b3ab183a))
  (pad "4FG" thru_hole circle (at -11.4 7.5) (size 0.8 0.8) (drill 0.46) (layers "*.Cu" "*.Mask") (tstamp e5726eac-17ce-4cd3-8e37-cb24d9584dcd))
  (pad "4G" thru_hole circle (at -13.5 7.5) (size 0.92 0.92) (drill 0.46) (layers "*.Cu" "*.Mask") (tstamp b53b15f3-eced-49a5-b306-9d237eae788a))
  (pad "4H" thru_hole circle (at -14.7 7.5) (size 0.92 0.92) (drill 0.46) (layers "*.Cu" "*.Mask") (tstamp 10abc647-e514-494b-81ee-35fcbde1a947))
  (pad "4HG" thru_hole circle (at -15.9 7.5) (size 0.8 0.8) (drill 0.46) (layers "*.Cu" "*.Mask") (tstamp feae310a-3415-4c03-8091-c59650ac6769))
  (pad "5A" thru_hole circle (at 0 10) (size 0.92 0.92) (drill 0.46) (layers "*.Cu" "*.Mask") (tstamp 7dcba1aa-8118-4b7c-8fc7-acd1eb898de5))
  (pad "5B" thru_hole circle (at -1.2 10) (size 0.92 0.92) (drill 0.46) (layers "*.Cu" "*.Mask") (tstamp 6162b51a-7334-4088-b656-a1aa3dcfd7ad))
  (pad "5BG" thru_hole circle (at -2.4 10) (size 0.8 0.8) (drill 0.46) (layers "*.Cu" "*.Mask") (tstamp 2c193f3c-94e4-4237-a858-ab7ce8c2006c))
  (pad "5C" thru_hole circle (at -4.5 10) (size 0.92 0.92) (drill 0.46) (layers "*.Cu" "*.Mask") (tstamp 36a3a24e-e3db-4313-b0aa-d73a62617926))
  (pad "5D" thru_hole circle (at -5.7 10) (size 0.92 0.92) (drill 0.46) (layers "*.Cu" "*.Mask") (tstamp c93f90b6-e924-4507-a621-fd54acc2afc7))
  (pad "5DG" thru_hole circle (at -6.9 10) (size 0.8 0.8) (drill 0.46) (layers "*.Cu" "*.Mask") (tstamp 718a6b5c-2336-4977-b85d-3a25a56fbb2b))
  (pad "5E" thru_hole circle (at -9 10) (size 0.92 0.92) (drill 0.46) (layers "*.Cu" "*.Mask") (tstamp 7bd2a241-1da7-436b-b05a-e58dae367fdb))
  (pad "5F" thru_hole circle (at -10.2 10) (size 0.92 0.92) (drill 0.46) (layers "*.Cu" "*.Mask") (tstamp 9c50c157-da17-43d4-b655-49c69f72afb2))
  (pad "5FG" thru_hole circle (at -11.4 10) (size 0.8 0.8) (drill 0.46) (layers "*.Cu" "*.Mask") (tstamp 79c02cd5-c469-47a9-a21f-da602240d7d6))
  (pad "5G" thru_hole circle (at -13.5 10) (size 0.92 0.92) (drill 0.46) (layers "*.Cu" "*.Mask") (tstamp 92a1b229-ac57-4c72-87c9-432d5cd1c9b7))
  (pad "5H" thru_hole circle (at -14.7 10) (size 0.92 0.92) (drill 0.46) (layers "*.Cu" "*.Mask") (tstamp bc06a00b-7bd2-4b08-aa92-be6aae6d1e15))
  (pad "5HG" thru_hole circle (at -15.9 10) (size 0.8 0.8) (drill 0.46) (layers "*.Cu" "*.Mask") (tstamp 667e3124-c0c5-453e-b6b2-7df1b0943f7b))
  (pad "6A" thru_hole circle (at 0 12.5) (size 0.92 0.92) (drill 0.46) (layers "*.Cu" "*.Mask") (tstamp e6f37731-9ef7-4e4a-bd1b-6c78c340fc7c))
  (pad "6B" thru_hole circle (at -1.2 12.5) (size 0.92 0.92) (drill 0.46) (layers "*.Cu" "*.Mask") (tstamp f8c97dd3-bb59-46d3-a790-1e0936e4c135))
  (pad "6BG" thru_hole circle (at -2.4 12.5) (size 0.8 0.8) (drill 0.46) (layers "*.Cu" "*.Mask") (tstamp 6108563d-a747-445a-9da6-5b4982c5670f))
  (pad "6C" thru_hole circle (at -4.5 12.5) (size 0.92 0.92) (drill 0.46) (layers "*.Cu" "*.Mask") (tstamp c4c3caf2-5da3-41e0-909e-ea18907e3b9a))
  (pad "6D" thru_hole circle (at -5.7 12.5) (size 0.92 0.92) (drill 0.46) (layers "*.Cu" "*.Mask") (tstamp 684253a8-3291-48aa-b451-de6e29c1a7f2))
  (pad "6DG" thru_hole circle (at -6.9 12.5) (size 0.8 0.8) (drill 0.46) (layers "*.Cu" "*.Mask") (tstamp 06ecacf5-4047-4c33-b7d2-43533ecb1f09))
  (pad "6E" thru_hole circle (at -9 12.5) (size 0.92 0.92) (drill 0.46) (layers "*.Cu" "*.Mask") (tstamp 87d6da7d-b1c8-4b5e-bab0-2bd33767d473))
  (pad "6F" thru_hole circle (at -10.2 12.5) (size 0.92 0.92) (drill 0.46) (layers "*.Cu" "*.Mask") (tstamp c967008a-6ef2-4f7c-b5c1-460cd3075357))
  (pad "6FG" thru_hole circle (at -11.4 12.5) (size 0.8 0.8) (drill 0.46) (layers "*.Cu" "*.Mask") (tstamp 1d8f6c29-0b5a-46c3-9437-66aa861100be))
  (pad "6G" thru_hole circle (at -13.5 12.5) (size 0.92 0.92) (drill 0.46) (layers "*.Cu" "*.Mask") (tstamp ffcc300f-627d-4b26-9ade-8df33aa4f406))
  (pad "6H" thru_hole circle (at -14.7 12.5) (size 0.92 0.92) (drill 0.46) (layers "*.Cu" "*.Mask") (tstamp 27646cd8-c5db-448d-867f-be4218acf14d))
  (pad "6HG" thru_hole circle (at -15.9 12.5) (size 0.8 0.8) (drill 0.46) (layers "*.Cu" "*.Mask") (tstamp 7e9e1681-857d-4021-931a-5307393b3159))
  (pad "7A" thru_hole circle (at 0 15) (size 0.92 0.92) (drill 0.46) (layers "*.Cu" "*.Mask") (tstamp 237593f3-a5f3-4070-80dd-b2940e3d9503))
  (pad "7B" thru_hole circle (at -1.2 15) (size 0.92 0.92) (drill 0.46) (layers "*.Cu" "*.Mask") (tstamp d3404e29-cf9d-4e83-992d-448eb7e7742b))
  (pad "7BG" thru_hole circle (at -2.4 15) (size 0.8 0.8) (drill 0.46) (layers "*.Cu" "*.Mask") (tstamp 5b8a5f0b-0559-4cf6-a2be-f375881db057))
  (pad "7C" thru_hole circle (at -4.5 15) (size 0.92 0.92) (drill 0.46) (layers "*.Cu" "*.Mask") (tstamp d9190ebf-8eda-4048-ac43-42823acb050c))
  (pad "7D" thru_hole circle (at -5.7 15) (size 0.92 0.92) (drill 0.46) (layers "*.Cu" "*.Mask") (tstamp d578c56a-64cf-46ea-abeb-08318e6fc691))
  (pad "7DG" thru_hole circle (at -6.9 15) (size 0.8 0.8) (drill 0.46) (layers "*.Cu" "*.Mask") (tstamp ac05dbf4-a22a-48e4-b487-741ef4cd7467))
  (pad "7E" thru_hole circle (at -9 15) (size 0.92 0.92) (drill 0.46) (layers "*.Cu" "*.Mask") (tstamp 440f3f6a-c045-4b68-bf00-23e57f345140))
  (pad "7F" thru_hole circle (at -10.2 15) (size 0.92 0.92) (drill 0.46) (layers "*.Cu" "*.Mask") (tstamp c09221bb-a5fd-438b-8a26-480d204eb331))
  (pad "7FG" thru_hole circle (at -11.4 15) (size 0.8 0.8) (drill 0.46) (layers "*.Cu" "*.Mask") (tstamp 50948832-3380-45e3-b93c-db67c63ce3c0))
  (pad "7G" thru_hole circle (at -13.5 15) (size 0.92 0.92) (drill 0.46) (layers "*.Cu" "*.Mask") (tstamp ff95fb06-0eca-45dd-b9ca-596b2b0b2dba))
  (pad "7H" thru_hole circle (at -14.7 15) (size 0.92 0.92) (drill 0.46) (layers "*.Cu" "*.Mask") (tstamp 9d9416ef-7700-43bd-8873-b0c0f6a657cf))
  (pad "7HG" thru_hole circle (at -15.9 15) (size 0.8 0.8) (drill 0.46) (layers "*.Cu" "*.Mask") (tstamp 6b6bd77d-7dd6-44b2-b47d-83db063a58d2))
  (pad "8A" thru_hole circle (at 0 17.5) (size 0.92 0.92) (drill 0.46) (layers "*.Cu" "*.Mask") (tstamp 3a9ecb88-50ba-41fa-baad-75a23b7e6488))
  (pad "8B" thru_hole circle (at -1.2 17.5) (size 0.92 0.92) (drill 0.46) (layers "*.Cu" "*.Mask") (tstamp 1702d733-f3bc-406d-8131-deca6ffac9c2))
  (pad "8BG" thru_hole circle (at -2.4 17.5) (size 0.8 0.8) (drill 0.46) (layers "*.Cu" "*.Mask") (tstamp 19c96dbc-1b9f-40d6-8d3f-5fe25ee2b405))
  (pad "8C" thru_hole circle (at -4.5 17.5) (size 0.92 0.92) (drill 0.46) (layers "*.Cu" "*.Mask") (tstamp d8072185-31df-4363-ab1a-b22332e61ad4))
  (pad "8D" thru_hole circle (at -5.7 17.5) (size 0.92 0.92) (drill 0.46) (layers "*.Cu" "*.Mask") (tstamp 7038036a-9958-4e29-83ed-1bd139d54273))
  (pad "8DG" thru_hole circle (at -6.9 17.5) (size 0.8 0.8) (drill 0.46) (layers "*.Cu" "*.Mask") (tstamp c4a9161b-49e9-409b-ab6d-d0467a5c311b))
  (pad "8E" thru_hole circle (at -9 17.5) (size 0.92 0.92) (drill 0.46) (layers "*.Cu" "*.Mask") (tstamp 8a7d92ae-e1e2-4e96-b52a-7b880cb1af83))
  (pad "8F" thru_hole circle (at -10.2 17.5) (size 0.92 0.92) (drill 0.46) (layers "*.Cu" "*.Mask") (tstamp 110b496f-c230-4cbf-ac35-e58ea71229b7))
  (pad "8FG" thru_hole circle (at -11.4 17.5) (size 0.8 0.8) (drill 0.46) (layers "*.Cu" "*.Mask") (tstamp 9eff77dd-5e53-46c2-afdd-02ce8a28b7f2))
  (pad "8G" thru_hole circle (at -13.5 17.5) (size 0.92 0.92) (drill 0.46) (layers "*.Cu" "*.Mask") (tstamp d70d36b6-4e6a-40c2-9ca4-34425c02729c))
  (pad "8H" thru_hole circle (at -14.7 17.5) (size 0.92 0.92) (drill 0.46) (layers "*.Cu" "*.Mask") (tstamp 707dbe0a-e214-4d73-ad51-93bbc071137f))
  (pad "8HG" thru_hole circle (at -15.9 17.5) (size 0.8 0.8) (drill 0.46) (layers "*.Cu" "*.Mask") (tstamp 3d4d3fd2-f221-4da7-9eae-c4b62c654b24))
  (pad "9A" thru_hole circle (at 0 20) (size 0.92 0.92) (drill 0.46) (layers "*.Cu" "*.Mask") (tstamp f00de8af-98fb-4238-b2c5-f2b273402da7))
  (pad "9B" thru_hole circle (at -1.2 20) (size 0.92 0.92) (drill 0.46) (layers "*.Cu" "*.Mask") (tstamp b6f7f9f8-087b-4608-ae28-e57b277966dc))
  (pad "9BG" thru_hole circle (at -2.4 20) (size 0.8 0.8) (drill 0.46) (layers "*.Cu" "*.Mask") (tstamp 09e88e34-a8e0-4246-9fbd-b42bc5f9faeb))
  (pad "9C" thru_hole circle (at -4.5 20) (size 0.92 0.92) (drill 0.46) (layers "*.Cu" "*.Mask") (tstamp eb76eb64-f810-4a6f-94d6-3e6e8daad78e))
  (pad "9D" thru_hole circle (at -5.7 20) (size 0.92 0.92) (drill 0.46) (layers "*.Cu" "*.Mask") (tstamp 19c21d32-5647-4a1f-8dbb-284b7163d915))
  (pad "9DG" thru_hole circle (at -6.9 20) (size 0.8 0.8) (drill 0.46) (layers "*.Cu" "*.Mask") (tstamp 75338505-67b8-48f4-8d90-925e18e1fc75))
  (pad "9E" thru_hole circle (at -9 20) (size 0.92 0.92) (drill 0.46) (layers "*.Cu" "*.Mask") (tstamp c113fd99-caad-45ea-8768-8228282129ab))
  (pad "9F" thru_hole circle (at -10.2 20) (size 0.92 0.92) (drill 0.46) (layers "*.Cu" "*.Mask") (tstamp 25f7dcf8-b518-46c3-9e28-35b9f48f3861))
  (pad "9FG" thru_hole circle (at -11.4 20) (size 0.8 0.8) (drill 0.46) (layers "*.Cu" "*.Mask") (tstamp 2c984f7e-ed93-4a9c-ac2b-e2bbfda2e7e1))
  (pad "9G" thru_hole circle (at -13.5 20) (size 0.92 0.92) (drill 0.46) (layers "*.Cu" "*.Mask") (tstamp 76569201-aca9-4687-9d29-7d4aba267f29))
  (pad "9H" thru_hole circle (at -14.7 20) (size 0.92 0.92) (drill 0.46) (layers "*.Cu" "*.Mask") (tstamp 0962b9e6-8c49-4a80-8a62-255fb3dec304))
  (pad "9HG" thru_hole circle (at -15.9 20) (size 0.8 0.8) (drill 0.46) (layers "*.Cu" "*.Mask") (tstamp 136ec9b6-d016-46bb-ace4-142ec201ebe4))
  (pad "10A" thru_hole circle (at 0 22.5) (size 0.92 0.92) (drill 0.46) (layers "*.Cu" "*.Mask") (tstamp 6a89801c-d297-4473-b9a0-cbf0b4f2dd63))
  (pad "10B" thru_hole circle (at -1.2 22.5) (size 0.92 0.92) (drill 0.46) (layers "*.Cu" "*.Mask") (tstamp a56fc960-f5b0-4aec-9d0c-b0e17683c7f6))
  (pad "10BG" thru_hole circle (at -2.4 22.5) (size 0.8 0.8) (drill 0.46) (layers "*.Cu" "*.Mask") (tstamp fbaf9acb-0a40-42bb-a7bc-5418c3f7c0db))
  (pad "10C" thru_hole circle (at -4.5 22.5) (size 0.92 0.92) (drill 0.46) (layers "*.Cu" "*.Mask") (tstamp 206232d5-eb0a-4cdf-8305-0f8527d41a26))
  (pad "10D" thru_hole circle (at -5.7 22.5) (size 0.92 0.92) (drill 0.46) (layers "*.Cu" "*.Mask") (tstamp 11d55d2c-64b4-45c6-90d7-27d008f26808))
  (pad "10DG" thru_hole circle (at -6.9 22.5) (size 0.8 0.8) (drill 0.46) (layers "*.Cu" "*.Mask") (tstamp cb06d6db-86e4-4158-b58c-3b1f20e2d109))
  (pad "10E" thru_hole circle (at -9 22.5) (size 0.92 0.92) (drill 0.46) (layers "*.Cu" "*.Mask") (tstamp 6aa1d9fc-c722-4a0a-8670-5f55fe11eb18))
  (pad "10F" thru_hole circle (at -10.2 22.5) (size 0.92 0.92) (drill 0.46) (layers "*.Cu" "*.Mask") (tstamp 1b24c31e-f0cc-4b59-af5e-a839dd5bb57d))
  (pad "10FG" thru_hole circle (at -11.4 22.5) (size 0.8 0.8) (drill 0.46) (layers "*.Cu" "*.Mask") (tstamp 1781b357-b5a8-47cf-a72b-313cb86c3f54))
  (pad "10G" thru_hole circle (at -13.5 22.5) (size 0.92 0.92) (drill 0.46) (layers "*.Cu" "*.Mask") (tstamp 523b8e4f-2e69-4ff3-b1ac-e62e1cb5593c))
  (pad "10H" thru_hole circle (at -14.7 22.5) (size 0.92 0.92) (drill 0.46) (layers "*.Cu" "*.Mask") (tstamp 6c9d4b99-1ceb-4976-84f2-21bc84aa122f))
  (pad "10HG" thru_hole circle (at -15.9 22.5) (size 0.8 0.8) (drill 0.46) (layers "*.Cu" "*.Mask") (tstamp de93515f-4c5d-427d-941e-2835f4e92945))
  (pad "AG1" thru_hole circle (at 1.1 1.04) (size 0.8 0.8) (drill 0.46) (layers "*.Cu" "*.Mask") (tstamp be198c5c-8200-4ecf-9645-f4aef87299cb))
  (pad "AG2" thru_hole circle (at 1.1 3.54) (size 0.8 0.8) (drill 0.46) (layers "*.Cu" "*.Mask") (tstamp 4544b696-ec42-44ad-902a-3bb965fcfb37))
  (pad "AG3" thru_hole circle (at 1.1 6.04) (size 0.8 0.8) (drill 0.46) (layers "*.Cu" "*.Mask") (tstamp 66e2dc5e-cec3-4f89-a3c6-8ccbdbd2ab87))
  (pad "AG4" thru_hole circle (at 1.1 8.54) (size 0.8 0.8) (drill 0.46) (layers "*.Cu" "*.Mask") (tstamp ff257411-3168-48ba-9f2a-51f3a5704104))
  (pad "AG5" thru_hole circle (at 1.1 11.04) (size 0.8 0.8) (drill 0.46) (layers "*.Cu" "*.Mask") (tstamp 2ba168f6-8ed0-44db-a6b3-534cfd7adac2))
  (pad "AG6" thru_hole circle (at 1.1 13.54) (size 0.8 0.8) (drill 0.46) (layers "*.Cu" "*.Mask") (tstamp 8ddf29b4-0574-43c3-bbbd-b682f97e0c5a))
  (pad "AG7" thru_hole circle (at 1.1 16.04) (size 0.8 0.8) (drill 0.46) (layers "*.Cu" "*.Mask") (tstamp f13ee585-e814-4014-b5df-01ad7583cafd))
  (pad "AG8" thru_hole circle (at 1.1 18.54) (size 0.8 0.8) (drill 0.46) (layers "*.Cu" "*.Mask") (tstamp e0af1a6e-a09a-45ab-a22d-e539c68d6127))
  (pad "AG9" thru_hole circle (at 1.1 21.04) (size 0.8 0.8) (drill 0.46) (layers "*.Cu" "*.Mask") (tstamp b0c7879d-d898-46a5-ab10-0f927df9a2d2))
  (pad "AG10" thru_hole circle (at 1.1 23.54) (size 0.8 0.8) (drill 0.46) (layers "*.Cu" "*.Mask") (tstamp 5c52f51e-35f9-4e86-9312-5597deeeb89a))
  (pad "CG1" thru_hole circle (at -3.3 0) (size 0.8 0.8) (drill 0.46) (layers "*.Cu" "*.Mask") (tstamp f96dd0bc-938c-40a3-a7c4-8b682f30e92b))
  (pad "CG2" thru_hole circle (at -3.3 2.5) (size 0.8 0.8) (drill 0.46) (layers "*.Cu" "*.Mask") (tstamp 01a6d852-1930-478a-8b27-191e245aed6b))
  (pad "CG3" thru_hole circle (at -3.3 5) (size 0.8 0.8) (drill 0.46) (layers "*.Cu" "*.Mask") (tstamp e97bd157-01af-4eaf-974a-03390bdea7cb))
  (pad "CG4" thru_hole circle (at -3.3 7.5) (size 0.8 0.8) (drill 0.46) (layers "*.Cu" "*.Mask") (tstamp 8b9317f0-aa3d-4946-b6e0-9ac1510c9bb3))
  (pad "CG5" thru_hole circle (at -3.3 10) (size 0.8 0.8) (drill 0.46) (layers "*.Cu" "*.Mask") (tstamp 7fe0df16-3067-403b-a828-53360a0621c0))
  (pad "CG6" thru_hole circle (at -3.3 12.5) (size 0.8 0.8) (drill 0.46) (layers "*.Cu" "*.Mask") (tstamp a3b2e4db-03a8-4999-9067-fef16d30de62))
  (pad "CG7" thru_hole circle (at -3.3 15) (size 0.8 0.8) (drill 0.46) (layers "*.Cu" "*.Mask") (tstamp cd7099a5-95fe-4e15-833c-1fed7d4d4207))
  (pad "CG8" thru_hole circle (at -3.3 17.5) (size 0.8 0.8) (drill 0.46) (layers "*.Cu" "*.Mask") (tstamp d584af97-5819-4485-a432-ae89df2c68ea))
  (pad "CG9" thru_hole circle (at -3.3 20) (size 0.8 0.8) (drill 0.46) (layers "*.Cu" "*.Mask") (tstamp 136d87d3-7d44-4f10-8854-995db4223af5))
  (pad "CG10" thru_hole circle (at -3.3 22.5) (size 0.8 0.8) (drill 0.46) (layers "*.Cu" "*.Mask") (tstamp 5bd53786-768c-4b72-8c5e-53e04627bd45))
  (pad "EG1" thru_hole circle (at -7.8 0) (size 0.8 0.8) (drill 0.46) (layers "*.Cu" "*.Mask") (tstamp 6e5102ad-3a62-4cd6-8cd9-8450b146aff1))
  (pad "EG2" thru_hole circle (at -7.8 2.5) (size 0.8 0.8) (drill 0.46) (layers "*.Cu" "*.Mask") (tstamp d278be49-294b-47e5-94bc-887e2e0469ad))
  (pad "EG3" thru_hole circle (at -7.8 5) (size 0.8 0.8) (drill 0.46) (layers "*.Cu" "*.Mask") (tstamp b161405b-7042-4956-b943-2d93a9c2f620))
  (pad "EG4" thru_hole circle (at -7.8 7.5) (size 0.8 0.8) (drill 0.46) (layers "*.Cu" "*.Mask") (tstamp 469946af-0521-4892-b323-665cccff358e))
  (pad "EG5" thru_hole circle (at -7.8 10) (size 0.8 0.8) (drill 0.46) (layers "*.Cu" "*.Mask") (tstamp d3709670-7143-4dcb-8435-eb31d9f7cc32))
  (pad "EG6" thru_hole circle (at -7.8 12.5) (size 0.8 0.8) (drill 0.46) (layers "*.Cu" "*.Mask") (tstamp 7aae5484-7d91-4519-aad3-166a171cf725))
  (pad "EG7" thru_hole circle (at -7.8 15) (size 0.8 0.8) (drill 0.46) (layers "*.Cu" "*.Mask") (tstamp 0b193b8a-d5b3-48d2-a3b6-28ec869aab8c))
  (pad "EG8" thru_hole circle (at -7.8 17.5) (size 0.8 0.8) (drill 0.46) (layers "*.Cu" "*.Mask") (tstamp 3a2d342b-1e78-4138-8864-d2b2e500ff83))
  (pad "EG9" thru_hole circle (at -7.8 20) (size 0.8 0.8) (drill 0.46) (layers "*.Cu" "*.Mask") (tstamp 24063eb2-daca-4420-81e2-36d888a684e0))
  (pad "EG10" thru_hole circle (at -7.8 22.5) (size 0.8 0.8) (drill 0.46) (layers "*.Cu" "*.Mask") (tstamp f68a3382-8389-44d4-b344-988b76120761))
  (pad "GG1" thru_hole circle (at -12.3 0) (size 0.8 0.8) (drill 0.46) (layers "*.Cu" "*.Mask") (tstamp 54072f29-f530-4c62-9ead-5f39c8a8759c))
  (pad "GG2" thru_hole circle (at -12.3 2.5) (size 0.8 0.8) (drill 0.46) (layers "*.Cu" "*.Mask") (tstamp 8418fd53-f74f-4700-be6e-5c7ee30ab05f))
  (pad "GG3" thru_hole circle (at -12.3 5) (size 0.8 0.8) (drill 0.46) (layers "*.Cu" "*.Mask") (tstamp 6d79b68d-6049-4fd9-9788-91a2209450d0))
  (pad "GG4" thru_hole circle (at -12.3 7.5) (size 0.8 0.8) (drill 0.46) (layers "*.Cu" "*.Mask") (tstamp a61fca64-9c50-4905-ba57-d40fe302e922))
  (pad "GG5" thru_hole circle (at -12.3 10) (size 0.8 0.8) (drill 0.46) (layers "*.Cu" "*.Mask") (tstamp b5d57b4b-3f18-4f99-be2b-e50a95a360ce))
  (pad "GG6" thru_hole circle (at -12.3 12.5) (size 0.8 0.8) (drill 0.46) (layers "*.Cu" "*.Mask") (tstamp 0214cbf8-7073-4cce-97a2-b7f51374be51))
  (pad "GG7" thru_hole circle (at -12.3 15) (size 0.8 0.8) (drill 0.46) (layers "*.Cu" "*.Mask") (tstamp 3a7d6ade-5c03-4e35-9b6c-32629718075d))
  (pad "GG8" thru_hole circle (at -12.3 17.5) (size 0.8 0.8) (drill 0.46) (layers "*.Cu" "*.Mask") (tstamp 4f209925-5a29-4fb1-82ac-717908d82021))
  (pad "GG9" thru_hole circle (at -12.3 20) (size 0.8 0.8) (drill 0.46) (layers "*.Cu" "*.Mask") (tstamp 46471bf8-92d0-4296-83eb-ca6a7f33671b))
  (pad "GG10" thru_hole circle (at -12.3 22.5) (size 0.8 0.8) (drill 0.46) (layers "*.Cu" "*.Mask") (tstamp c9aef377-761a-4f22-a6d0-ae49e0446855))
  (model "${KIPRJMOD}/mod/ATCA.pretty/mod_3D/Zone2_connector.stp"
    (offset (xyz 10.7 -11.7 6.2))
    (scale (xyz 1 1 1))
    (rotate (xyz -90 0 -90))
  )
)
