(module H5084FNLT (layer F.Cu) (tedit 5E82195D)
  (fp_text reference REF** (at 6.42366 3.12674) (layer F.SilkS)
    (effects (font (size 1 1) (thickness 0.15)))
  )
  (fp_text value H5084FNLT (at 0 -0.5) (layer F.Fab)
    (effects (font (size 1 1) (thickness 0.15)))
  )
  (fp_line (start 5.1435 7.62) (end 5.1435 6.35) (layer F.SilkS) (width 0.15))
  (fp_line (start 5.1435 -7.62) (end -3.8735 -7.62) (layer F.SilkS) (width 0.15))
  (fp_line (start -3.8735 -7.62) (end -5.1435 -6.35) (layer F.SilkS) (width 0.15))
  (fp_line (start -5.1435 7.62) (end 5.1435 7.62) (layer F.SilkS) (width 0.15))
  (fp_line (start -5.1435 6.35) (end -5.1435 7.62) (layer F.SilkS) (width 0.15))
  (fp_line (start 5.1435 -6.35) (end 5.1435 -7.62) (layer F.SilkS) (width 0.15))
  (pad 1 smd rect (at -4.4958 -5.4483) (size 1.778 0.635) (layers F.Cu F.Paste F.Mask))
  (pad 2 smd rect (at -4.4958 -4.4577) (size 1.778 0.635) (layers F.Cu F.Paste F.Mask))
  (pad 3 smd rect (at -4.4958 -3.4671) (size 1.778 0.635) (layers F.Cu F.Paste F.Mask))
  (pad 4 smd rect (at -4.4958 -2.4765) (size 1.778 0.635) (layers F.Cu F.Paste F.Mask))
  (pad 5 smd rect (at -4.4958 -1.4859) (size 1.778 0.635) (layers F.Cu F.Paste F.Mask))
  (pad 6 smd rect (at -4.4958 -0.4953) (size 1.778 0.635) (layers F.Cu F.Paste F.Mask))
  (pad 7 smd rect (at -4.4958 0.4953) (size 1.778 0.635) (layers F.Cu F.Paste F.Mask))
  (pad 8 smd rect (at -4.4958 1.4859) (size 1.778 0.635) (layers F.Cu F.Paste F.Mask))
  (pad 9 smd rect (at -4.4958 2.4765) (size 1.778 0.635) (layers F.Cu F.Paste F.Mask))
  (pad 10 smd rect (at -4.4958 3.4671) (size 1.778 0.635) (layers F.Cu F.Paste F.Mask))
  (pad 11 smd rect (at -4.4958 4.4577) (size 1.778 0.635) (layers F.Cu F.Paste F.Mask))
  (pad 12 smd rect (at -4.4958 5.4483) (size 1.778 0.635) (layers F.Cu F.Paste F.Mask))
  (pad 13 smd rect (at 4.4958 5.4483) (size 1.778 0.635) (layers F.Cu F.Paste F.Mask))
  (pad 14 smd rect (at 4.4958 4.4577) (size 1.778 0.635) (layers F.Cu F.Paste F.Mask))
  (pad 15 smd rect (at 4.4958 3.4671) (size 1.778 0.635) (layers F.Cu F.Paste F.Mask))
  (pad 16 smd rect (at 4.4958 2.4765) (size 1.778 0.635) (layers F.Cu F.Paste F.Mask))
  (pad 17 smd rect (at 4.4958 1.4859) (size 1.778 0.635) (layers F.Cu F.Paste F.Mask))
  (pad 18 smd rect (at 4.4958 0.4953) (size 1.778 0.635) (layers F.Cu F.Paste F.Mask))
  (pad 19 smd rect (at 4.4958 -0.4953) (size 1.778 0.635) (layers F.Cu F.Paste F.Mask))
  (pad 20 smd rect (at 4.4958 -1.4859) (size 1.778 0.635) (layers F.Cu F.Paste F.Mask))
  (pad 21 smd rect (at 4.4958 -2.4765) (size 1.778 0.635) (layers F.Cu F.Paste F.Mask))
  (pad 22 smd rect (at 4.4958 -3.4671) (size 1.778 0.635) (layers F.Cu F.Paste F.Mask))
  (pad 23 smd rect (at 4.4958 -4.4577) (size 1.778 0.635) (layers F.Cu F.Paste F.Mask))
  (pad 24 smd rect (at 4.4958 -5.4483) (size 1.778 0.635) (layers F.Cu F.Paste F.Mask))
  (model ${KIPRJMOD}/mod/H5084FNLT.pretty/mod_3D/H5084FNLT.STEP
    (offset (xyz 4.889499926567078 7.619999885559082 0))
    (scale (xyz 1 1 1))
    (rotate (xyz -90 0 90))
  )
)
