(module DM3BT-DSF-PEJS (layer F.Cu) (tedit 602EA31D)
  (fp_text reference J9001001 (at 10.89 -3.69) (layer F.SilkS)
    (effects (font (size 1 1) (thickness 0.15)))
  )
  (fp_text value DM38T-DSF-PEJS (at -0.4 -3.36) (layer F.Fab)
    (effects (font (size 1 1) (thickness 0.15)))
  )
  (fp_poly (pts (xy -2.38 15.81) (xy 8.63 15.81) (xy 8.63 17.24) (xy -2.38 17.24)) (layer Dwgs.User) (width 0.15))
  (fp_line (start 9.26 -0.31) (end 9.625 -0.31) (layer F.SilkS) (width 0.15))
  (fp_line (start 9.625 -0.31) (end 9.625 3.47) (layer F.SilkS) (width 0.15))
  (fp_line (start 9.625 4.9) (end 9.625 9.9) (layer F.Fab) (width 0.15))
  (fp_line (start 9.625 10.95) (end 9.625 12.19) (layer F.Fab) (width 0.15))
  (fp_line (start -2.43 15.81) (end 9.625 15.81) (layer F.Fab) (width 0.15))
  (fp_line (start -4.225 13.94) (end -4.225 -0.31) (layer F.Fab) (width 0.15))
  (fp_line (start -4.225 -0.31) (end -2.67 -0.31) (layer F.Fab) (width 0.15))
  (fp_line (start -2.43 15.81) (end 9.625 15.81) (layer F.SilkS) (width 0.15))
  (fp_line (start 9.625 10.95) (end 9.625 12.19) (layer F.SilkS) (width 0.15))
  (fp_line (start 9.625 4.9) (end 9.625 9.9) (layer F.SilkS) (width 0.15))
  (fp_line (start 9.625 -0.31) (end 9.625 3.47) (layer F.Fab) (width 0.15))
  (fp_line (start 9.26 -0.31) (end 9.625 -0.31) (layer F.Fab) (width 0.15))
  (fp_line (start -4.225 -0.31) (end -2.67 -0.31) (layer F.SilkS) (width 0.15))
  (fp_line (start -4.225 13.94) (end -4.225 -0.31) (layer F.SilkS) (width 0.15))
  (fp_poly (pts (xy 9.2 0.3) (xy 10.05 0.3) (xy 10.05 3.45) (xy 9.2 3.45)) (layer F.SilkS) (width 0.15))
  (fp_poly (pts (xy 9.2 4.95) (xy 10.05 4.95) (xy 10.05 8.1) (xy 9.2 8.1)) (layer F.SilkS) (width 0.15))
  (pad 14 smd custom (at -2.8 15.7) (size 0.5 0.5) (layers F.Cu F.Paste F.Mask)
    (zone_connect 0)
    (options (clearance outline) (anchor rect))
    (primitives
    ))
  (pad 14 smd custom (at -3.8 15) (size 1.5 1.9) (layers F.Cu F.Paste F.Mask)
    (zone_connect 0)
    (options (clearance outline) (anchor rect))
    (primitives
    ))
  (pad 13 smd rect (at 9.5 14) (size 1.2 3.2) (layers F.Cu F.Paste F.Mask))
  (pad 12 smd rect (at 9.5 10.4) (size 1.2 0.8) (layers F.Cu F.Paste F.Mask))
  (pad 11 smd rect (at 9.5 4.2) (size 1.2 1.2) (layers F.Cu F.Paste F.Mask))
  (pad 10 smd rect (at -1.9 0) (size 1 1.4) (layers F.Cu F.Paste F.Mask))
  (pad 9 smd rect (at 8.65 -0.1) (size 0.7 1.2) (layers F.Cu F.Paste F.Mask))
  (pad 8 smd rect (at 7.7 0) (size 0.7 1.4) (layers F.Cu F.Paste F.Mask))
  (pad 7 smd rect (at 6.6 0) (size 0.7 1.4) (layers F.Cu F.Paste F.Mask))
  (pad 6 smd rect (at 5.5 0) (size 0.7 1.4) (layers F.Cu F.Paste F.Mask))
  (pad 5 smd rect (at 4.4 0) (size 0.7 1.4) (layers F.Cu F.Paste F.Mask))
  (pad 4 smd rect (at 3.3 0) (size 0.7 1.4) (layers F.Cu F.Paste F.Mask))
  (pad 3 smd rect (at 2.2 0) (size 0.7 1.4) (layers F.Cu F.Paste F.Mask))
  (pad 2 smd rect (at 1.1 0) (size 0.7 1.4) (layers F.Cu F.Paste F.Mask))
  (pad 1 smd rect (at 0 0) (size 0.7 1.4) (layers F.Cu F.Paste F.Mask))
  (model ${KIPRJMOD}/mod/SDCard.pretty/mod_3D/DM3BT-DSF-PEJS.stp
    (offset (xyz -189.35 -170.5 1.6))
    (scale (xyz 1 1 1))
    (rotate (xyz 0 0 0))
  )
)
