(kicad_symbol_lib (version 20220914) (generator kicad_symbol_editor)
  (symbol "74CBTLV3253" (pin_names (offset 1.016)) (in_bom yes) (on_board yes)
    (property "Reference" "U" (at 8.89 19.05 0)
      (effects (font (size 1.27 1.27)))
    )
    (property "Value" "74CBTLV3253" (at 0 0 90)
      (effects (font (size 1.27 1.27)))
    )
    (property "Footprint" "" (at -5.08 3.81 0)
      (effects (font (size 1.27 1.27)) hide)
    )
    (property "Datasheet" "" (at -5.08 3.81 0)
      (effects (font (size 1.27 1.27)) hide)
    )
    (symbol "74CBTLV3253_0_1"
      (rectangle (start -10.16 17.78) (end 10.16 -17.78)
        (stroke (width 0) (type solid))
        (fill (type none))
      )
    )
    (symbol "74CBTLV3253_1_1"
      (pin input inverted (at -15.24 11.43 0) (length 5.08)
        (name "A_OE" (effects (font (size 1.27 1.27))))
        (number "1" (effects (font (size 1.27 1.27))))
      )
      (pin bidirectional line (at 15.24 -8.89 180) (length 5.08)
        (name "B_OUT1" (effects (font (size 1.27 1.27))))
        (number "10" (effects (font (size 1.27 1.27))))
      )
      (pin bidirectional line (at 15.24 -11.43 180) (length 5.08)
        (name "B_OUT2" (effects (font (size 1.27 1.27))))
        (number "11" (effects (font (size 1.27 1.27))))
      )
      (pin bidirectional line (at 15.24 -13.97 180) (length 5.08)
        (name "B_OUT3" (effects (font (size 1.27 1.27))))
        (number "12" (effects (font (size 1.27 1.27))))
      )
      (pin bidirectional line (at 15.24 -16.51 180) (length 5.08)
        (name "B_OUT4" (effects (font (size 1.27 1.27))))
        (number "13" (effects (font (size 1.27 1.27))))
      )
      (pin input line (at -15.24 16.51 0) (length 5.08)
        (name "S0" (effects (font (size 1.27 1.27))))
        (number "14" (effects (font (size 1.27 1.27))))
      )
      (pin input inverted (at -15.24 8.89 0) (length 5.08)
        (name "B_OE" (effects (font (size 1.27 1.27))))
        (number "15" (effects (font (size 1.27 1.27))))
      )
      (pin power_in line (at 0 22.86 270) (length 5.08)
        (name "Vcc" (effects (font (size 1.27 1.27))))
        (number "16" (effects (font (size 1.27 1.27))))
      )
      (pin input line (at -15.24 13.97 0) (length 5.08)
        (name "S1" (effects (font (size 1.27 1.27))))
        (number "2" (effects (font (size 1.27 1.27))))
      )
      (pin bidirectional line (at 15.24 -3.81 180) (length 5.08)
        (name "A_OUT4" (effects (font (size 1.27 1.27))))
        (number "3" (effects (font (size 1.27 1.27))))
      )
      (pin bidirectional line (at 15.24 -1.27 180) (length 5.08)
        (name "A_OUT3" (effects (font (size 1.27 1.27))))
        (number "4" (effects (font (size 1.27 1.27))))
      )
      (pin bidirectional line (at 15.24 1.27 180) (length 5.08)
        (name "A_OUT2" (effects (font (size 1.27 1.27))))
        (number "5" (effects (font (size 1.27 1.27))))
      )
      (pin bidirectional line (at 15.24 3.81 180) (length 5.08)
        (name "A_OUT1" (effects (font (size 1.27 1.27))))
        (number "6" (effects (font (size 1.27 1.27))))
      )
      (pin bidirectional line (at -15.24 0 0) (length 5.08)
        (name "A_IN" (effects (font (size 1.27 1.27))))
        (number "7" (effects (font (size 1.27 1.27))))
      )
      (pin power_in line (at 0 -22.86 90) (length 5.08)
        (name "GND" (effects (font (size 1.27 1.27))))
        (number "8" (effects (font (size 1.27 1.27))))
      )
      (pin bidirectional line (at -15.24 -12.7 0) (length 5.08)
        (name "B_IN" (effects (font (size 1.27 1.27))))
        (number "9" (effects (font (size 1.27 1.27))))
      )
    )
  )
)
