(kicad_symbol_lib (version 20220914) (generator kicad_symbol_editor)
  (symbol "LTM4622" (pin_names (offset 1.016)) (in_bom yes) (on_board yes)
    (property "Reference" "U" (at 13.97 19.05 0)
      (effects (font (size 1.524 1.524)))
    )
    (property "Value" "LTM4622" (at 0 0 0)
      (effects (font (size 1.524 1.524)))
    )
    (property "Footprint" "" (at 0 0 0)
      (effects (font (size 1.524 1.524)))
    )
    (property "Datasheet" "" (at 0 0 0)
      (effects (font (size 1.524 1.524)))
    )
    (symbol "LTM4622_0_1"
      (rectangle (start -17.78 17.78) (end 17.78 -17.78)
        (stroke (width 0) (type solid))
        (fill (type none))
      )
    )
    (symbol "LTM4622_1_1"
      (pin power_out line (at 22.86 10.16 180) (length 5.08)
        (name "Vout2" (effects (font (size 1.27 1.27))))
        (number "A1" (effects (font (size 1.27 1.27))))
      )
      (pin power_in line (at 1.27 22.86 270) (length 5.08)
        (name "Vin" (effects (font (size 1.27 1.27))))
        (number "A2" (effects (font (size 1.27 1.27))))
      )
      (pin input line (at -22.86 -10.16 0) (length 5.08)
        (name "Track/SS2" (effects (font (size 1.27 1.27))))
        (number "A3" (effects (font (size 1.27 1.27))))
      )
      (pin input line (at 22.86 -12.7 180) (length 5.08)
        (name "FB2" (effects (font (size 1.27 1.27))))
        (number "A4" (effects (font (size 1.27 1.27))))
      )
      (pin output line (at 22.86 1.27 180) (length 5.08)
        (name "COMP2" (effects (font (size 1.27 1.27))))
        (number "A5" (effects (font (size 1.27 1.27))))
      )
      (pin passive line (at 22.86 7.62 180) (length 5.08)
        (name "Vout2" (effects (font (size 1.27 1.27))))
        (number "B1" (effects (font (size 1.27 1.27))))
      )
      (pin input line (at -22.86 12.7 0) (length 5.08)
        (name "Run2" (effects (font (size 1.27 1.27))))
        (number "B2" (effects (font (size 1.27 1.27))))
      )
      (pin power_in line (at -1.27 22.86 270) (length 5.08)
        (name "Vin" (effects (font (size 1.27 1.27))))
        (number "B3" (effects (font (size 1.27 1.27))))
      )
      (pin output line (at 22.86 -3.81 180) (length 5.08)
        (name "PGOOD2" (effects (font (size 1.27 1.27))))
        (number "B4" (effects (font (size 1.27 1.27))))
      )
      (pin power_in line (at -3.81 -22.86 90) (length 5.08)
        (name "GND" (effects (font (size 1.27 1.27))))
        (number "B5" (effects (font (size 1.27 1.27))))
      )
      (pin power_in line (at 3.81 -22.86 90) (length 5.08)
        (name "GND" (effects (font (size 1.27 1.27))))
        (number "C1" (effects (font (size 1.27 1.27))))
      )
      (pin power_in line (at 1.27 -22.86 90) (length 5.08)
        (name "GND" (effects (font (size 1.27 1.27))))
        (number "C2" (effects (font (size 1.27 1.27))))
      )
      (pin power_out line (at -22.86 -2.54 0) (length 5.08)
        (name "IntVcc" (effects (font (size 1.27 1.27))))
        (number "C3" (effects (font (size 1.27 1.27))))
      )
      (pin input line (at -22.86 -12.7 0) (length 5.08)
        (name "Freq" (effects (font (size 1.27 1.27))))
        (number "C4" (effects (font (size 1.27 1.27))))
      )
      (pin input line (at -22.86 -5.08 0) (length 5.08)
        (name "Mode" (effects (font (size 1.27 1.27))))
        (number "C5" (effects (font (size 1.27 1.27))))
      )
      (pin power_out line (at 22.86 15.24 180) (length 5.08)
        (name "Vout1" (effects (font (size 1.27 1.27))))
        (number "D1" (effects (font (size 1.27 1.27))))
      )
      (pin input line (at -22.86 15.24 0) (length 5.08)
        (name "Run1" (effects (font (size 1.27 1.27))))
        (number "D2" (effects (font (size 1.27 1.27))))
      )
      (pin power_in line (at 3.81 22.86 270) (length 5.08)
        (name "Vin" (effects (font (size 1.27 1.27))))
        (number "D3" (effects (font (size 1.27 1.27))))
      )
      (pin input line (at 22.86 -6.35 180) (length 5.08)
        (name "PGOOD1" (effects (font (size 1.27 1.27))))
        (number "D4" (effects (font (size 1.27 1.27))))
      )
      (pin power_in line (at -1.27 -22.86 90) (length 5.08)
        (name "GND" (effects (font (size 1.27 1.27))))
        (number "D5" (effects (font (size 1.27 1.27))))
      )
      (pin passive line (at 22.86 12.7 180) (length 5.08)
        (name "Vout1" (effects (font (size 1.27 1.27))))
        (number "E1" (effects (font (size 1.27 1.27))))
      )
      (pin power_in line (at -3.81 22.86 270) (length 5.08)
        (name "Vin" (effects (font (size 1.27 1.27))))
        (number "E2" (effects (font (size 1.27 1.27))))
      )
      (pin input line (at -22.86 -7.62 0) (length 5.08)
        (name "Track/SS1" (effects (font (size 1.27 1.27))))
        (number "E3" (effects (font (size 1.27 1.27))))
      )
      (pin output line (at 22.86 -10.16 180) (length 5.08)
        (name "FB1" (effects (font (size 1.27 1.27))))
        (number "E4" (effects (font (size 1.27 1.27))))
      )
      (pin output line (at 22.86 3.81 180) (length 5.08)
        (name "COMP1" (effects (font (size 1.27 1.27))))
        (number "E5" (effects (font (size 1.27 1.27))))
      )
    )
  )
)
