(kicad_symbol_lib (version 20220914) (generator kicad_symbol_editor)
  (symbol "MezzHSD" (pin_names (offset 1.016)) (in_bom yes) (on_board yes)
    (property "Reference" "J" (at 8.89 16.51 0)
      (effects (font (size 1.27 1.27)))
    )
    (property "Value" "MezzHSD" (at 0 0 90)
      (effects (font (size 1.27 1.27)))
    )
    (property "Footprint" "" (at 0 5.08 0)
      (effects (font (size 1.27 1.27)) hide)
    )
    (property "Datasheet" "" (at 0 5.08 0)
      (effects (font (size 1.27 1.27)) hide)
    )
    (symbol "MezzHSD_0_0"
      (rectangle (start -12.7 15.24) (end 12.7 -22.86)
        (stroke (width 0) (type solid))
        (fill (type none))
      )
      (polyline
        (pts
          (xy -3.81 11.43)
          (xy -2.54 11.43)
          (xy -2.54 -3.81)
          (xy -3.81 -3.81)
        )
        (stroke (width 0) (type solid))
        (fill (type none))
      )
      (polyline
        (pts
          (xy 3.81 -3.81)
          (xy 2.54 -3.81)
          (xy 2.54 11.43)
          (xy 3.81 11.43)
        )
        (stroke (width 0) (type solid))
        (fill (type none))
      )
      (text "1" (at -5.08 3.81 0)
        (effects (font (size 2.54 2.54)))
      )
      (text "2" (at 5.08 3.81 0)
        (effects (font (size 2.54 2.54)))
      )
    )
    (symbol "MezzHSD_1_1"
      (pin passive line (at -17.78 11.43 0) (length 5.08)
        (name "~" (effects (font (size 1.27 1.27))))
        (number "1" (effects (font (size 1.27 1.27))))
      )
      (pin passive line (at 17.78 1.27 180) (length 5.08)
        (name "RX_P" (effects (font (size 1.27 1.27))))
        (number "10" (effects (font (size 1.27 1.27))))
      )
      (pin passive line (at -17.78 -1.27 0) (length 5.08)
        (name "RX_N" (effects (font (size 1.27 1.27))))
        (number "11" (effects (font (size 1.27 1.27))))
      )
      (pin passive line (at 17.78 -1.27 180) (length 5.08)
        (name "RX_N" (effects (font (size 1.27 1.27))))
        (number "12" (effects (font (size 1.27 1.27))))
      )
      (pin passive line (at -17.78 -3.81 0) (length 5.08)
        (name "~" (effects (font (size 1.27 1.27))))
        (number "13" (effects (font (size 1.27 1.27))))
      )
      (pin passive line (at 17.78 -3.81 180) (length 5.08)
        (name "~" (effects (font (size 1.27 1.27))))
        (number "14" (effects (font (size 1.27 1.27))))
      )
      (pin passive line (at -17.78 -6.35 0) (length 5.08)
        (name "HQ_CLK_P" (effects (font (size 1.27 1.27))))
        (number "15" (effects (font (size 1.27 1.27))))
      )
      (pin passive line (at 17.78 -6.35 180) (length 5.08)
        (name "LHC_CLK_P" (effects (font (size 1.27 1.27))))
        (number "16" (effects (font (size 1.27 1.27))))
      )
      (pin passive line (at -17.78 -8.89 0) (length 5.08)
        (name "HQ_CLK_N" (effects (font (size 1.27 1.27))))
        (number "17" (effects (font (size 1.27 1.27))))
      )
      (pin passive line (at 17.78 -8.89 180) (length 5.08)
        (name "LHC_CLK_N" (effects (font (size 1.27 1.27))))
        (number "18" (effects (font (size 1.27 1.27))))
      )
      (pin passive line (at -17.78 -11.43 0) (length 5.08)
        (name "~" (effects (font (size 1.27 1.27))))
        (number "19" (effects (font (size 1.27 1.27))))
      )
      (pin passive line (at 17.78 11.43 180) (length 5.08)
        (name "~" (effects (font (size 1.27 1.27))))
        (number "2" (effects (font (size 1.27 1.27))))
      )
      (pin passive line (at 17.78 -11.43 180) (length 5.08)
        (name "~" (effects (font (size 1.27 1.27))))
        (number "20" (effects (font (size 1.27 1.27))))
      )
      (pin passive line (at -17.78 -13.97 0) (length 5.08)
        (name "TTC_P" (effects (font (size 1.27 1.27))))
        (number "21" (effects (font (size 1.27 1.27))))
      )
      (pin passive line (at 17.78 -13.97 180) (length 5.08)
        (name "TTS_P" (effects (font (size 1.27 1.27))))
        (number "22" (effects (font (size 1.27 1.27))))
      )
      (pin passive line (at -17.78 -16.51 0) (length 5.08)
        (name "TTC_N" (effects (font (size 1.27 1.27))))
        (number "23" (effects (font (size 1.27 1.27))))
      )
      (pin passive line (at 17.78 -16.51 180) (length 5.08)
        (name "TTS_N" (effects (font (size 1.27 1.27))))
        (number "24" (effects (font (size 1.27 1.27))))
      )
      (pin passive line (at -17.78 -19.05 0) (length 5.08)
        (name "~" (effects (font (size 1.27 1.27))))
        (number "25" (effects (font (size 1.27 1.27))))
      )
      (pin passive line (at 17.78 -19.05 180) (length 5.08)
        (name "~" (effects (font (size 1.27 1.27))))
        (number "26" (effects (font (size 1.27 1.27))))
      )
      (pin passive line (at -17.78 8.89 0) (length 5.08)
        (name "TX_P" (effects (font (size 1.27 1.27))))
        (number "3" (effects (font (size 1.27 1.27))))
      )
      (pin passive line (at 17.78 8.89 180) (length 5.08)
        (name "TX_P" (effects (font (size 1.27 1.27))))
        (number "4" (effects (font (size 1.27 1.27))))
      )
      (pin passive line (at -17.78 6.35 0) (length 5.08)
        (name "TX_N" (effects (font (size 1.27 1.27))))
        (number "5" (effects (font (size 1.27 1.27))))
      )
      (pin passive line (at 17.78 6.35 180) (length 5.08)
        (name "TX_N" (effects (font (size 1.27 1.27))))
        (number "6" (effects (font (size 1.27 1.27))))
      )
      (pin passive line (at -17.78 3.81 0) (length 5.08)
        (name "~" (effects (font (size 1.27 1.27))))
        (number "7" (effects (font (size 1.27 1.27))))
      )
      (pin passive line (at 17.78 3.81 180) (length 5.08)
        (name "~" (effects (font (size 1.27 1.27))))
        (number "8" (effects (font (size 1.27 1.27))))
      )
      (pin passive line (at -17.78 1.27 0) (length 5.08)
        (name "RX_P" (effects (font (size 1.27 1.27))))
        (number "9" (effects (font (size 1.27 1.27))))
      )
    )
  )
)
