(kicad_symbol_lib (version 20220914) (generator kicad_symbol_editor)
  (symbol "PIM400KZ" (pin_names (offset 1.016)) (in_bom yes) (on_board yes)
    (property "Reference" "U" (at 12.7 26.67 0)
      (effects (font (size 1.27 1.27)))
    )
    (property "Value" "PIM400KZ" (at 6.35 -25.4 0)
      (effects (font (size 1.27 1.27)))
    )
    (property "Footprint" "" (at 0 0 0)
      (effects (font (size 1.27 1.27)) hide)
    )
    (property "Datasheet" "" (at 0 0 0)
      (effects (font (size 1.27 1.27)) hide)
    )
    (symbol "PIM400KZ_0_1"
      (rectangle (start -12.7 19.05) (end 12.7 -26.67)
        (stroke (width 0) (type solid))
        (fill (type none))
      )
    )
    (symbol "PIM400KZ_1_1"
      (pin power_in line (at -17.78 7.62 0) (length 5.08)
        (name "-48V_A" (effects (font (size 1.27 1.27))))
        (number "1" (effects (font (size 1.27 1.27))))
      )
      (pin input line (at 17.78 -17.78 180) (length 5.08)
        (name "I2C_ADDR" (effects (font (size 1.27 1.27))))
        (number "10" (effects (font (size 1.27 1.27))))
      )
      (pin bidirectional line (at 17.78 -20.32 180) (length 5.08)
        (name "I2C_SDA" (effects (font (size 1.27 1.27))))
        (number "11" (effects (font (size 1.27 1.27))))
      )
      (pin input line (at 17.78 -22.86 180) (length 5.08)
        (name "I2C_SCL" (effects (font (size 1.27 1.27))))
        (number "12" (effects (font (size 1.27 1.27))))
      )
      (pin passive line (at -17.78 -20.32 0) (length 5.08)
        (name "LOGIC_GND" (effects (font (size 1.27 1.27))))
        (number "13" (effects (font (size 1.27 1.27))))
      )
      (pin output inverted (at 17.78 -15.24 180) (length 5.08)
        (name "ALARM" (effects (font (size 1.27 1.27))))
        (number "14" (effects (font (size 1.27 1.27))))
      )
      (pin power_out line (at 17.78 0 180) (length 5.08)
        (name "-48V" (effects (font (size 1.27 1.27))))
        (number "15" (effects (font (size 1.27 1.27))))
      )
      (pin input line (at 17.78 5.08 180) (length 5.08)
        (name "TRIM_HLDP" (effects (font (size 1.27 1.27))))
        (number "16" (effects (font (size 1.27 1.27))))
      )
      (pin power_out line (at 17.78 15.24 180) (length 5.08)
        (name "VRET" (effects (font (size 1.27 1.27))))
        (number "17" (effects (font (size 1.27 1.27))))
      )
      (pin input line (at 17.78 10.16 180) (length 5.08)
        (name "V_HLDP" (effects (font (size 1.27 1.27))))
        (number "18" (effects (font (size 1.27 1.27))))
      )
      (pin power_in line (at -17.78 -7.62 0) (length 5.08)
        (name "-48V_B" (effects (font (size 1.27 1.27))))
        (number "2" (effects (font (size 1.27 1.27))))
      )
      (pin power_in line (at -17.78 10.16 0) (length 5.08)
        (name "VRET_A" (effects (font (size 1.27 1.27))))
        (number "3" (effects (font (size 1.27 1.27))))
      )
      (pin power_in line (at -17.78 -5.08 0) (length 5.08)
        (name "VRET_B" (effects (font (size 1.27 1.27))))
        (number "4" (effects (font (size 1.27 1.27))))
      )
      (pin input line (at -17.78 15.24 0) (length 5.08)
        (name "ENABLE_A" (effects (font (size 1.27 1.27))))
        (number "5" (effects (font (size 1.27 1.27))))
      )
      (pin input line (at -17.78 0 0) (length 5.08)
        (name "ENABLE_B" (effects (font (size 1.27 1.27))))
        (number "6" (effects (font (size 1.27 1.27))))
      )
      (pin passive line (at -17.78 -22.86 0) (length 5.08)
        (name "SHELF_GND" (effects (font (size 1.27 1.27))))
        (number "7" (effects (font (size 1.27 1.27))))
      )
      (pin power_out line (at 17.78 -5.08 180) (length 5.08)
        (name "5V0" (effects (font (size 1.27 1.27))))
        (number "8" (effects (font (size 1.27 1.27))))
      )
      (pin power_out line (at 17.78 -7.62 180) (length 5.08)
        (name "3V3" (effects (font (size 1.27 1.27))))
        (number "9" (effects (font (size 1.27 1.27))))
      )
    )
  )
)
