(kicad_symbol_lib (version 20220914) (generator kicad_symbol_editor)
  (symbol "QBVW033A0B" (pin_names (offset 1.016)) (in_bom yes) (on_board yes)
    (property "Reference" "U" (at 7.62 11.43 0)
      (effects (font (size 1.27 1.27)))
    )
    (property "Value" "QBVW033A0B" (at 0 -8.89 0)
      (effects (font (size 1.27 1.27)))
    )
    (property "Footprint" "" (at 0 0 0)
      (effects (font (size 1.27 1.27)) hide)
    )
    (property "Datasheet" "" (at 0 0 0)
      (effects (font (size 1.27 1.27)) hide)
    )
    (symbol "QBVW033A0B_0_1"
      (rectangle (start -8.89 10.16) (end 8.89 -10.16)
        (stroke (width 0) (type solid))
        (fill (type none))
      )
    )
    (symbol "QBVW033A0B_1_1"
      (pin power_in line (at -13.97 -3.81 0) (length 5.08)
        (name "VIN+" (effects (font (size 1.27 1.27))))
        (number "1" (effects (font (size 1.27 1.27))))
      )
      (pin input inverted (at -13.97 6.35 0) (length 5.08)
        (name "EN" (effects (font (size 1.27 1.27))))
        (number "2" (effects (font (size 1.27 1.27))))
      )
      (pin power_in line (at -13.97 -6.35 0) (length 5.08)
        (name "VIN-" (effects (font (size 1.27 1.27))))
        (number "3" (effects (font (size 1.27 1.27))))
      )
      (pin power_out line (at 13.97 -6.35 180) (length 5.08)
        (name "OUT-" (effects (font (size 1.27 1.27))))
        (number "4" (effects (font (size 1.27 1.27))))
      )
      (pin input line (at 13.97 3.81 180) (length 5.08)
        (name "SENSE-" (effects (font (size 1.27 1.27))))
        (number "5" (effects (font (size 1.27 1.27))))
      )
      (pin input line (at 13.97 1.27 180) (length 5.08)
        (name "TRIM" (effects (font (size 1.27 1.27))))
        (number "6" (effects (font (size 1.27 1.27))))
      )
      (pin input line (at 13.97 6.35 180) (length 5.08)
        (name "SENSE+" (effects (font (size 1.27 1.27))))
        (number "7" (effects (font (size 1.27 1.27))))
      )
      (pin power_out line (at 13.97 -3.81 180) (length 5.08)
        (name "OUT+" (effects (font (size 1.27 1.27))))
        (number "8" (effects (font (size 1.27 1.27))))
      )
    )
  )
)
