(kicad_symbol_lib (version 20220914) (generator kicad_symbol_editor)
  (symbol "sn74hc74" (pin_names (offset 1.016)) (in_bom yes) (on_board yes)
    (property "Reference" "U" (at 5.08 7.62 0)
      (effects (font (size 1.27 1.27)))
    )
    (property "Value" "sn74hc74" (at -7.62 -8.89 0)
      (effects (font (size 1.27 1.27)))
    )
    (property "Footprint" "" (at -5.08 2.54 0)
      (effects (font (size 1.27 1.27)) hide)
    )
    (property "Datasheet" "" (at -5.08 2.54 0)
      (effects (font (size 1.27 1.27)) hide)
    )
    (property "ki_locked" "" (at 0 0 0)
      (effects (font (size 1.27 1.27)))
    )
    (symbol "sn74hc74_0_1"
      (rectangle (start -6.35 6.35) (end 6.35 -7.62)
        (stroke (width 0) (type solid))
        (fill (type none))
      )
    )
    (symbol "sn74hc74_1_1"
      (pin input inverted (at 0 -12.7 90) (length 5.08)
        (name "CLR" (effects (font (size 1.27 1.27))))
        (number "1" (effects (font (size 1.27 1.27))))
      )
      (pin power_in line (at 2.54 11.43 270) (length 5.08)
        (name "VCC" (effects (font (size 1.27 1.27))))
        (number "14" (effects (font (size 1.27 1.27))))
      )
      (pin input line (at -11.43 2.54 0) (length 5.08)
        (name "D" (effects (font (size 1.27 1.27))))
        (number "2" (effects (font (size 1.27 1.27))))
      )
      (pin input clock (at -11.43 -2.54 0) (length 5.08)
        (name "CLK" (effects (font (size 1.27 1.27))))
        (number "3" (effects (font (size 1.27 1.27))))
      )
      (pin input inverted (at 0 11.43 270) (length 5.08)
        (name "PRE" (effects (font (size 1.27 1.27))))
        (number "4" (effects (font (size 1.27 1.27))))
      )
      (pin input line (at 11.43 2.54 180) (length 5.08)
        (name "Q" (effects (font (size 1.27 1.27))))
        (number "5" (effects (font (size 1.27 1.27))))
      )
      (pin input inverted (at 11.43 -2.54 180) (length 5.08)
        (name "Q" (effects (font (size 1.27 1.27))))
        (number "6" (effects (font (size 1.27 1.27))))
      )
      (pin power_in line (at 2.54 -12.7 90) (length 5.08)
        (name "GND" (effects (font (size 1.27 1.27))))
        (number "7" (effects (font (size 1.27 1.27))))
      )
    )
    (symbol "sn74hc74_2_1"
      (pin input inverted (at 0 11.43 270) (length 5.08)
        (name "PRE" (effects (font (size 1.27 1.27))))
        (number "10" (effects (font (size 1.27 1.27))))
      )
      (pin input clock (at -11.43 -2.54 0) (length 5.08)
        (name "CLK" (effects (font (size 1.27 1.27))))
        (number "11" (effects (font (size 1.27 1.27))))
      )
      (pin input line (at -11.43 2.54 0) (length 5.08)
        (name "D" (effects (font (size 1.27 1.27))))
        (number "12" (effects (font (size 1.27 1.27))))
      )
      (pin input inverted (at 0 -12.7 90) (length 5.08)
        (name "CLR" (effects (font (size 1.27 1.27))))
        (number "13" (effects (font (size 1.27 1.27))))
      )
      (pin input inverted (at 11.43 -2.54 180) (length 5.08)
        (name "Q" (effects (font (size 1.27 1.27))))
        (number "8" (effects (font (size 1.27 1.27))))
      )
      (pin input line (at 11.43 2.54 180) (length 5.08)
        (name "Q" (effects (font (size 1.27 1.27))))
        (number "9" (effects (font (size 1.27 1.27))))
      )
    )
  )
)
