(kicad_symbol_lib (version 20220914) (generator kicad_symbol_editor)
  (symbol "SN74AHC1G32DBVR" (pin_names (offset 1.016)) (in_bom yes) (on_board yes)
    (property "Reference" "U" (at 5.08 -3.81 0)
      (effects (font (size 1.27 1.27)))
    )
    (property "Value" "SN74AHC1G32DBVR" (at 12.7 8.89 0)
      (effects (font (size 1.27 1.27)))
    )
    (property "Footprint" "" (at -3.81 0 0)
      (effects (font (size 1.27 1.27)) hide)
    )
    (property "Datasheet" "" (at -3.81 0 0)
      (effects (font (size 1.27 1.27)) hide)
    )
    (symbol "SN74AHC1G32DBVR_0_1"
      (arc (start -3.81 -3.81) (mid -2.2318 0) (end -3.81 3.81)
        (stroke (width 0) (type solid))
        (fill (type none))
      )
      (arc (start 0 -3.81) (mid 3.5549 -2.5375) (end 6.35 0)
        (stroke (width 0) (type solid))
        (fill (type none))
      )
      (polyline
        (pts
          (xy -3.81 -3.81)
          (xy 0 -3.81)
        )
        (stroke (width 0) (type solid))
        (fill (type none))
      )
      (polyline
        (pts
          (xy -3.81 3.81)
          (xy 0 3.81)
        )
        (stroke (width 0) (type solid))
        (fill (type none))
      )
      (arc (start 6.35 0) (mid 3.5532 2.5347) (end 0 3.81)
        (stroke (width 0) (type solid))
        (fill (type none))
      )
    )
    (symbol "SN74AHC1G32DBVR_1_1"
      (pin input line (at -5.08 1.27 0) (length 2.54)
        (name "A" (effects (font (size 1.27 1.27))))
        (number "1" (effects (font (size 1.27 1.27))))
      )
      (pin input line (at -5.08 -1.27 0) (length 2.54)
        (name "B" (effects (font (size 1.27 1.27))))
        (number "2" (effects (font (size 1.27 1.27))))
      )
      (pin power_in line (at 1.27 -6.35 90) (length 2.54)
        (name "GND" (effects (font (size 0.635 0.635))))
        (number "3" (effects (font (size 1.27 1.27))))
      )
      (pin output line (at 8.89 0 180) (length 2.54)
        (name "Y" (effects (font (size 1.27 1.27))))
        (number "4" (effects (font (size 1.27 1.27))))
      )
      (pin power_in line (at 1.27 6.35 270) (length 2.54)
        (name "VCC" (effects (font (size 0.635 0.635))))
        (number "5" (effects (font (size 1.27 1.27))))
      )
    )
  )
)
