(kicad_symbol_lib (version 20220914) (generator kicad_symbol_editor)
  (symbol "TPS3895" (pin_names (offset 1.016)) (in_bom yes) (on_board yes)
    (property "Reference" "U" (at 6.35 7.62 0)
      (effects (font (size 1.27 1.27)))
    )
    (property "Value" "TPS3895" (at 5.08 -7.62 0)
      (effects (font (size 1.27 1.27)))
    )
    (property "Footprint" "" (at 0 0 0)
      (effects (font (size 1.27 1.27)) hide)
    )
    (property "Datasheet" "" (at 0 0 0)
      (effects (font (size 1.27 1.27)) hide)
    )
    (symbol "TPS3895_0_1"
      (rectangle (start 7.62 6.35) (end -7.62 -6.35)
        (stroke (width 0) (type solid))
        (fill (type none))
      )
    )
    (symbol "TPS3895_1_1"
      (pin input line (at -12.7 3.81 0) (length 5.08)
        (name "EN" (effects (font (size 1.27 1.27))))
        (number "1" (effects (font (size 1.27 1.27))))
      )
      (pin power_in line (at 0 -11.43 90) (length 5.08)
        (name "GND" (effects (font (size 1.27 1.27))))
        (number "2" (effects (font (size 1.27 1.27))))
      )
      (pin input line (at -12.7 0 0) (length 5.08)
        (name "MON" (effects (font (size 1.27 1.27))))
        (number "3" (effects (font (size 1.27 1.27))))
      )
      (pin output line (at 12.7 0 180) (length 5.08)
        (name "OUT" (effects (font (size 1.27 1.27))))
        (number "4" (effects (font (size 1.27 1.27))))
      )
      (pin input line (at -12.7 -3.81 0) (length 5.08)
        (name "CT" (effects (font (size 1.27 1.27))))
        (number "5" (effects (font (size 1.27 1.27))))
      )
      (pin power_in line (at 0 11.43 270) (length 5.08)
        (name "VCC" (effects (font (size 1.27 1.27))))
        (number "6" (effects (font (size 1.27 1.27))))
      )
    )
  )
)
